[07-09-15][00:43:10][189.82.104.90][189-82-104-90.user.veloxzone.com.br][][http://177.124.60.170:8087/index.php?][Chrome]
[07-09-15][00:43:21][189.82.104.90][189-82-104-90.user.veloxzone.com.br][trib][http://177.124.60.170:8087/painelDeControle.php?][Chrome]
[07-09-15][00:43:21][189.82.104.90][189-82-104-90.user.veloxzone.com.br][trib][http://177.124.60.170:8087/painelDeControle.php?][Chrome]
[07-09-15][00:43:48][189.82.104.90][189-82-104-90.user.veloxzone.com.br][trib][http://177.124.60.170:8087/painelDeControle.php?corpo=buscaOficial][Chrome]
[07-09-15][00:43:48][189.82.104.90][189-82-104-90.user.veloxzone.com.br][trib][http://177.124.60.170:8087/painelDeControle.php?corpo=buscaOficial][Chrome]
[07-09-15][00:43:56][189.82.104.90][189-82-104-90.user.veloxzone.com.br][trib][http://177.124.60.170:8087/painelDeControle.php?corpo=buscaOficial&listarAtuantes=1][Chrome]
[07-09-15][00:43:56][189.82.104.90][189-82-104-90.user.veloxzone.com.br][trib][http://177.124.60.170:8087/painelDeControle.php?corpo=buscaOficial&listarAtuantes=1][Chrome]
[07-09-15][00:44:02][189.82.104.90][189-82-104-90.user.veloxzone.com.br][trib][http://177.124.60.170:8087/painelDeControle.php?corpo=buscaOficial&listarNaoAtuantes=1][Chrome]
[07-09-15][00:44:02][189.82.104.90][189-82-104-90.user.veloxzone.com.br][trib][http://177.124.60.170:8087/painelDeControle.php?corpo=buscaOficial&listarNaoAtuantes=1][Chrome]
[07-09-15][00:44:09][189.82.104.90][189-82-104-90.user.veloxzone.com.br][trib][http://177.124.60.170:8087/painelDeControle.php?corpo=buscaOficial&listarNaoAtuantes=1][Chrome]
[07-09-15][00:44:09][189.82.104.90][189-82-104-90.user.veloxzone.com.br][trib][http://177.124.60.170:8087/painelDeControle.php?corpo=buscaOficial&listarNaoAtuantes=1][Chrome]
[07-09-15][00:44:17][189.82.104.90][189-82-104-90.user.veloxzone.com.br][trib][http://177.124.60.170:8087/painelDeControle.php?corpo=buscaMembroOA][Chrome]
[07-09-15][00:44:17][189.82.104.90][189-82-104-90.user.veloxzone.com.br][trib][http://177.124.60.170:8087/painelDeControle.php?corpo=buscaMembroOA][Chrome]
[07-09-15][00:44:42][189.82.104.90][189-82-104-90.user.veloxzone.com.br][trib][http://177.124.60.170:8087/painelDeControle.php?][Chrome]
[07-09-15][00:44:42][189.82.104.90][189-82-104-90.user.veloxzone.com.br][trib][http://177.124.60.170:8087/painelDeControle.php?][Chrome]
[07-09-15][00:44:44][189.82.104.90][189-82-104-90.user.veloxzone.com.br][][http://177.124.60.170:8087/login.php?][Chrome]
[07-09-15][01:51:40][179.126.80.171][179-126-080-171.xd-dynamic.algartelecom.com.br][][http://177.124.60.170:8087/login.php?][other]
[07-09-15][02:14:00][177.158.243.171][177.158.243.171.dynamic.adsl.gvt.net.br][][http://177.124.60.170:8087/index.php?][Chrome]
[07-09-15][02:14:17][177.158.243.171][177.158.243.171.dynamic.adsl.gvt.net.br][wmei][http://177.124.60.170:8087/painelDeControle.php?][Chrome]
[07-09-15][02:14:17][177.158.243.171][177.158.243.171.dynamic.adsl.gvt.net.br][wmei][http://177.124.60.170:8087/painelDeControle.php?][Chrome]
[07-09-15][02:14:52][177.158.243.171][177.158.243.171.dynamic.adsl.gvt.net.br][wmei][http://177.124.60.170:8087/painelDeControle.php?corpo=biblioteca][Chrome]
[07-09-15][02:14:52][177.158.243.171][177.158.243.171.dynamic.adsl.gvt.net.br][wmei][http://177.124.60.170:8087/painelDeControle.php?corpo=biblioteca][Chrome]
[07-09-15][06:54:26][186.205.15.241][bacd0ff1.virtua.com.br][][http://177.124.60.170:8087/index.php?][Chrome]
[07-09-15][06:54:40][186.205.15.241][bacd0ff1.virtua.com.br][cran][http://177.124.60.170:8087/painelDeControle.php?][Chrome]
[07-09-15][06:54:40][186.205.15.241][bacd0ff1.virtua.com.br][cran][http://177.124.60.170:8087/painelDeControle.php?][Chrome]
[07-09-15][06:55:09][186.205.15.241][bacd0ff1.virtua.com.br][cran][http://177.124.60.170:8087/painelDeControle.php?corpo=][Chrome]
[07-09-15][06:55:09][186.205.15.241][bacd0ff1.virtua.com.br][cran][http://177.124.60.170:8087/painelDeControle.php?corpo=][Chrome]
[07-09-15][06:55:37][186.205.15.241][bacd0ff1.virtua.com.br][cran][http://177.124.60.170:8087/painelDeControle.php?corpo=buscaMembroOA][Chrome]
[07-09-15][06:55:37][186.205.15.241][bacd0ff1.virtua.com.br][cran][http://177.124.60.170:8087/painelDeControle.php?corpo=buscaMembroOA][Chrome]
[07-09-15][06:57:30][186.205.15.241][bacd0ff1.virtua.com.br][cran][http://177.124.60.170:8087/painelDeControle.php?][Chrome]
[07-09-15][06:57:30][186.205.15.241][bacd0ff1.virtua.com.br][cran][http://177.124.60.170:8087/painelDeControle.php?][Chrome]
[07-09-15][06:58:05][186.205.15.241][bacd0ff1.virtua.com.br][cran][http://177.124.60.170:8087/painelDeControle.php?corpo=][Chrome]
[07-09-15][06:58:05][186.205.15.241][bacd0ff1.virtua.com.br][cran][http://177.124.60.170:8087/painelDeControle.php?corpo=][Chrome]
[07-09-15][06:58:16][186.205.15.241][bacd0ff1.virtua.com.br][cran][http://177.124.60.170:8087/painelDeControle.php?corpo=buscaMembroOA][Chrome]
[07-09-15][06:58:16][186.205.15.241][bacd0ff1.virtua.com.br][cran][http://177.124.60.170:8087/painelDeControle.php?corpo=buscaMembroOA][Chrome]
[07-09-15][06:58:56][186.205.15.241][bacd0ff1.virtua.com.br][cran][http://177.124.60.170:8087/painelDeControle.php?][Chrome]
[07-09-15][06:58:56][186.205.15.241][bacd0ff1.virtua.com.br][cran][http://177.124.60.170:8087/painelDeControle.php?][Chrome]
[07-09-15][06:59:27][186.205.15.241][bacd0ff1.virtua.com.br][cran][http://177.124.60.170:8087/painelDeControle.php?corpo=buscaAtaReuniaoMensal][Chrome]
[07-09-15][06:59:27][186.205.15.241][bacd0ff1.virtua.com.br][cran][http://177.124.60.170:8087/painelDeControle.php?corpo=buscaAtaReuniaoMensal][Chrome]
[07-09-15][07:00:02][186.205.15.241][bacd0ff1.virtua.com.br][cran][http://177.124.60.170:8087/painelDeControle.php?corpo=buscaMembroAMORC][Chrome]
[07-09-15][07:00:50][186.205.15.241][bacd0ff1.virtua.com.br][cran][http://177.124.60.170:8087/painelDeControle.php?][Chrome]
[07-09-15][07:00:50][186.205.15.241][bacd0ff1.virtua.com.br][cran][http://177.124.60.170:8087/painelDeControle.php?][Chrome]
[07-09-15][07:00:58][186.205.15.241][bacd0ff1.virtua.com.br][cran][http://177.124.60.170:8087/painelDeControle.php?corpo=buscaMembroOA][Chrome]
[07-09-15][07:00:58][186.205.15.241][bacd0ff1.virtua.com.br][cran][http://177.124.60.170:8087/painelDeControle.php?corpo=buscaMembroOA][Chrome]
[07-09-15][07:01:28][186.205.15.241][bacd0ff1.virtua.com.br][cran][http://177.124.60.170:8087/painelDeControle.php?corpo=buscaRecebimentos][Chrome]
[07-09-15][07:01:36][186.205.15.241][bacd0ff1.virtua.com.br][cran][http://177.124.60.170:8087/painelDeControle.php?corpo=BuscaRecebimentos&mesAtual=08&anoAtual=2015][Chrome]
[07-09-15][07:01:46][186.205.15.241][bacd0ff1.virtua.com.br][cran][http://177.124.60.170:8087/painelDeControle.php?corpo=buscaRelatorioMensalFinanceiro][Chrome]
[07-09-15][07:01:55][186.205.15.241][bacd0ff1.virtua.com.br][cran][http://177.124.60.170:8087/painelDeControle.php?corpo=buscaRelatorioMensalFinanceiro&mesAtual=08&anoAtual=2015][Chrome]
[07-09-15][07:02:17][186.205.15.241][bacd0ff1.virtua.com.br][cran][http://177.124.60.170:8087/painelDeControle.php?corpo=buscaRelatorioMensalFinanceiro&mesAtual=07&anoAtual=2015][Chrome]
[07-09-15][07:02:21][186.205.15.241][bacd0ff1.virtua.com.br][][http://177.124.60.170:8087/login.php?][Chrome]
[07-09-15][08:17:13][189.71.56.106][189-71-56-106.user.veloxzone.com.br][][http://177.124.60.170:8087/index.php?][Chrome]
[07-09-15][08:19:24][189.71.56.106][189-71-56-106.user.veloxzone.com.br][][http://177.124.60.170:8087/login.php?][Chrome]
[07-09-15][08:39:50][200.149.80.44][200-149-80-44.user.veloxzone.com.br][][http://177.124.60.170:8087/login.php?][Chrome]
[07-09-15][09:13:03][177.184.99.18][177-184-99-18.viareal.com.br][][http://177.124.60.170:8087/index.php?][Chrome]
[07-09-15][09:13:15][177.184.99.18][177-184-99-18.viareal.com.br][opan][http://177.124.60.170:8087/painelDeControle.php?][Chrome]
[07-09-15][09:13:15][177.184.99.18][177-184-99-18.viareal.com.br][opan][http://177.124.60.170:8087/painelDeControle.php?][Chrome]
[07-09-15][09:13:30][177.184.99.18][177-184-99-18.viareal.com.br][opan][http://177.124.60.170:8087/painelDeControle.php?corpo=buscaMembroOA][Chrome]
[07-09-15][09:13:30][177.184.99.18][177-184-99-18.viareal.com.br][opan][http://177.124.60.170:8087/painelDeControle.php?corpo=buscaMembroOA][Chrome]
[07-09-15][09:14:03][177.184.99.18][177-184-99-18.viareal.com.br][opan][http://177.124.60.170:8087/painelDeControle.php?][Chrome]
[07-09-15][09:14:03][177.184.99.18][177-184-99-18.viareal.com.br][opan][http://177.124.60.170:8087/painelDeControle.php?][Chrome]
[07-09-15][09:14:45][177.184.99.18][177-184-99-18.viareal.com.br][opan][http://177.124.60.170:8087/painelDeControle.php?corpo=][Chrome]
[07-09-15][09:14:45][177.184.99.18][177-184-99-18.viareal.com.br][opan][http://177.124.60.170:8087/painelDeControle.php?corpo=][Chrome]
[07-09-15][09:15:55][177.184.99.18][177-184-99-18.viareal.com.br][opan][http://177.124.60.170:8087/painelDeControle.php?corpo=][Chrome]
[07-09-15][09:15:55][177.184.99.18][177-184-99-18.viareal.com.br][opan][http://177.124.60.170:8087/painelDeControle.php?corpo=][Chrome]
[07-09-15][09:16:06][177.184.99.18][177-184-99-18.viareal.com.br][opan][http://177.124.60.170:8087/painelDeControle.php?corpo=buscaMembroOA][Chrome]
[07-09-15][09:16:06][177.184.99.18][177-184-99-18.viareal.com.br][opan][http://177.124.60.170:8087/painelDeControle.php?corpo=buscaMembroOA][Chrome]
[07-09-15][09:18:47][177.184.99.18][177-184-99-18.viareal.com.br][opan][http://177.124.60.170:8087/painelDeControle.php?corpo=buscaAutorizacaoTemplo][Chrome]
[07-09-15][09:20:34][177.184.99.18][177-184-99-18.viareal.com.br][opan][http://177.124.60.170:8087/painelDeControle.php?][Chrome]
[07-09-15][09:20:34][177.184.99.18][177-184-99-18.viareal.com.br][opan][http://177.124.60.170:8087/painelDeControle.php?][Chrome]
[07-09-15][09:20:45][177.184.99.18][177-184-99-18.viareal.com.br][opan][http://177.124.60.170:8087/painelDeControle.php?corpo=buscaAutorizacaoTemplo][Chrome]
[07-09-15][09:21:16][177.184.99.18][177-184-99-18.viareal.com.br][opan][http://177.124.60.170:8087/painelDeControle.php?corpo=buscaSaldoInicial][Chrome]
[07-09-15][09:21:16][177.184.99.18][177-184-99-18.viareal.com.br][opan][http://177.124.60.170:8087/painelDeControle.php?corpo=buscaSaldoInicial][Chrome]
[07-09-15][09:22:15][177.184.99.18][177-184-99-18.viareal.com.br][opan][http://177.124.60.170:8087/painelDeControle.php?corpo=buscaSaldoInicial][Chrome]
[07-09-15][09:22:15][177.184.99.18][177-184-99-18.viareal.com.br][opan][http://177.124.60.170:8087/painelDeControle.php?corpo=buscaSaldoInicial][Chrome]
[07-09-15][09:22:30][177.184.99.18][177-184-99-18.viareal.com.br][opan][http://177.124.60.170:8087/painelDeControle.php?corpo=buscaSaldoInicial][Chrome]
[07-09-15][09:22:30][177.184.99.18][177-184-99-18.viareal.com.br][opan][http://177.124.60.170:8087/painelDeControle.php?corpo=buscaSaldoInicial][Chrome]
[07-09-15][09:22:56][177.184.99.18][177-184-99-18.viareal.com.br][opan][http://177.124.60.170:8087/painelDeControle.php?corpo=buscaSaldoInicial][Chrome]
[07-09-15][09:22:56][177.184.99.18][177-184-99-18.viareal.com.br][opan][http://177.124.60.170:8087/painelDeControle.php?corpo=buscaSaldoInicial][Chrome]
[07-09-15][09:23:11][177.184.99.18][177-184-99-18.viareal.com.br][opan][http://177.124.60.170:8087/painelDeControle.php?][Chrome]
[07-09-15][09:23:11][177.184.99.18][177-184-99-18.viareal.com.br][opan][http://177.124.60.170:8087/painelDeControle.php?][Chrome]
[07-09-15][09:23:16][177.184.99.18][177-184-99-18.viareal.com.br][opan][http://177.124.60.170:8087/painelDeControle.php?corpo=buscaMembroOA][Chrome]
[07-09-15][09:23:16][177.184.99.18][177-184-99-18.viareal.com.br][opan][http://177.124.60.170:8087/painelDeControle.php?corpo=buscaMembroOA][Chrome]
[07-09-15][09:23:49][177.184.99.18][177-184-99-18.viareal.com.br][opan][http://177.124.60.170:8087/painelDeControle.php?][Chrome]
[07-09-15][09:23:49][177.184.99.18][177-184-99-18.viareal.com.br][opan][http://177.124.60.170:8087/painelDeControle.php?][Chrome]
[07-09-15][09:26:06][177.184.99.18][177-184-99-18.viareal.com.br][opan][http://177.124.60.170:8087/painelDeControle.php?corpo=][Chrome]
[07-09-15][09:26:06][177.184.99.18][177-184-99-18.viareal.com.br][opan][http://177.124.60.170:8087/painelDeControle.php?corpo=][Chrome]
[07-09-15][09:28:06][177.184.99.18][177-184-99-18.viareal.com.br][opan][http://177.124.60.170:8087/painelDeControle.php?corpo=][Chrome]
[07-09-15][09:28:06][177.184.99.18][177-184-99-18.viareal.com.br][opan][http://177.124.60.170:8087/painelDeControle.php?corpo=][Chrome]
[07-09-15][09:28:14][177.184.99.18][177-184-99-18.viareal.com.br][][http://177.124.60.170:8087/login.php?][Chrome]
[07-09-15][09:31:55][191.184.27.73][bfb81b49.virtua.com.br][][http://177.124.60.170:8087/index.php?][Firefox]
[07-09-15][09:32:09][191.184.27.73][bfb81b49.virtua.com.br][dlis][http://177.124.60.170:8087/painelDeControle.php?][Firefox]
[07-09-15][09:32:09][191.184.27.73][bfb81b49.virtua.com.br][dlis][http://177.124.60.170:8087/painelDeControle.php?][Firefox]
[07-09-15][09:36:36][191.184.27.73][bfb81b49.virtua.com.br][dlis][http://177.124.60.170:8087/painelDeControle.php?corpo=buscaSaldoInicial][Firefox]
[07-09-15][09:36:36][191.184.27.73][bfb81b49.virtua.com.br][dlis][http://177.124.60.170:8087/painelDeControle.php?corpo=buscaSaldoInicial][Firefox]
[07-09-15][09:37:42][191.184.27.73][bfb81b49.virtua.com.br][dlis][http://177.124.60.170:8087/painelDeControle.php?corpo=buscaSaldoInicial&salvo=1][Firefox]
[07-09-15][09:37:42][191.184.27.73][bfb81b49.virtua.com.br][dlis][http://177.124.60.170:8087/painelDeControle.php?corpo=buscaSaldoInicial&salvo=1][Firefox]
[07-09-15][09:37:49][191.184.27.73][bfb81b49.virtua.com.br][dlis][http://177.124.60.170:8087/painelDeControle.php?corpo=buscaRecebimentos][Firefox]
[07-09-15][09:37:53][191.184.27.73][bfb81b49.virtua.com.br][dlis][http://177.124.60.170:8087/painelDeControle.php?corpo=BuscaRecebimentos&mesAtual=08&anoAtual=2015][Firefox]
[07-09-15][09:37:57][191.184.27.73][bfb81b49.virtua.com.br][dlis][http://177.124.60.170:8087/painelDeControle.php?corpo=BuscaRecebimentos&mesAtual=07&anoAtual=2015][Firefox]
[07-09-15][09:38:00][191.184.27.73][bfb81b49.virtua.com.br][dlis][http://177.124.60.170:8087/painelDeControle.php?corpo=BuscaRecebimentos&mesAtual=06&anoAtual=2015][Firefox]
[07-09-15][09:38:02][191.184.27.73][bfb81b49.virtua.com.br][dlis][http://177.124.60.170:8087/painelDeControle.php?corpo=BuscaRecebimentos&mesAtual=05&anoAtual=2015][Firefox]
[07-09-15][09:38:04][191.184.27.73][bfb81b49.virtua.com.br][dlis][http://177.124.60.170:8087/painelDeControle.php?corpo=BuscaRecebimentos&mesAtual=04&anoAtual=2015][Firefox]
[07-09-15][09:38:07][191.184.27.73][bfb81b49.virtua.com.br][dlis][http://177.124.60.170:8087/painelDeControle.php?corpo=BuscaRecebimentos&mesAtual=03&anoAtual=2015][Firefox]
[07-09-15][09:38:09][191.184.27.73][bfb81b49.virtua.com.br][dlis][http://177.124.60.170:8087/painelDeControle.php?corpo=BuscaRecebimentos&mesAtual=02&anoAtual=2015][Firefox]
[07-09-15][09:38:12][191.184.27.73][bfb81b49.virtua.com.br][dlis][http://177.124.60.170:8087/painelDeControle.php?corpo=BuscaRecebimentos&mesAtual=01&anoAtual=2015][Firefox]
[07-09-15][09:40:43][191.184.27.73][bfb81b49.virtua.com.br][dlis][http://177.124.60.170:8087/painelDeControle.php?][Firefox]
[07-09-15][09:40:43][191.184.27.73][bfb81b49.virtua.com.br][dlis][http://177.124.60.170:8087/painelDeControle.php?][Firefox]
[07-09-15][09:40:48][191.184.27.73][bfb81b49.virtua.com.br][dlis][http://177.124.60.170:8087/painelDeControle.php?corpo=buscaRecebimentos][Firefox]
[07-09-15][09:45:59][191.184.27.73][bfb81b49.virtua.com.br][dlis][http://177.124.60.170:8087/painelDeControle.php?corpo=buscaDespesas][Firefox]
[07-09-15][09:46:02][191.184.27.73][bfb81b49.virtua.com.br][dlis][http://177.124.60.170:8087/painelDeControle.php?corpo=buscaRecebimentos][Firefox]
[07-09-15][09:46:16][191.184.27.73][bfb81b49.virtua.com.br][dlis][http://177.124.60.170:8087/painelDeControle.php?corpo=buscaDespesas][Firefox]
[07-09-15][09:49:52][191.184.27.73][bfb81b49.virtua.com.br][dlis][http://177.124.60.170:8087/painelDeControle.php?corpo=BuscaDespesas&mesAtual=08&anoAtual=2015][Firefox]
[07-09-15][09:49:54][191.184.27.73][bfb81b49.virtua.com.br][dlis][http://177.124.60.170:8087/painelDeControle.php?corpo=BuscaDespesas&mesAtual=07&anoAtual=2015][Firefox]
[07-09-15][09:49:56][191.184.27.73][bfb81b49.virtua.com.br][dlis][http://177.124.60.170:8087/painelDeControle.php?corpo=BuscaDespesas&mesAtual=06&anoAtual=2015][Firefox]
[07-09-15][09:49:59][191.184.27.73][bfb81b49.virtua.com.br][dlis][http://177.124.60.170:8087/painelDeControle.php?corpo=BuscaDespesas&mesAtual=05&anoAtual=2015][Firefox]
[07-09-15][09:50:01][191.184.27.73][bfb81b49.virtua.com.br][dlis][http://177.124.60.170:8087/painelDeControle.php?corpo=BuscaDespesas&mesAtual=04&anoAtual=2015][Firefox]
[07-09-15][09:50:03][191.184.27.73][bfb81b49.virtua.com.br][dlis][http://177.124.60.170:8087/painelDeControle.php?corpo=BuscaDespesas&mesAtual=03&anoAtual=2015][Firefox]
[07-09-15][09:50:05][191.184.27.73][bfb81b49.virtua.com.br][dlis][http://177.124.60.170:8087/painelDeControle.php?corpo=BuscaDespesas&mesAtual=02&anoAtual=2015][Firefox]
[07-09-15][09:50:08][191.184.27.73][bfb81b49.virtua.com.br][dlis][http://177.124.60.170:8087/painelDeControle.php?corpo=BuscaDespesas&mesAtual=01&anoAtual=2015][Firefox]
[07-09-15][09:54:38][191.184.27.73][bfb81b49.virtua.com.br][dlis][http://177.124.60.170:8087/painelDeControle.php?corpo=buscaSaldoInicial][Firefox]
[07-09-15][09:54:38][191.184.27.73][bfb81b49.virtua.com.br][dlis][http://177.124.60.170:8087/painelDeControle.php?corpo=buscaSaldoInicial][Firefox]
[07-09-15][09:55:58][191.184.27.73][bfb81b49.virtua.com.br][dlis][http://177.124.60.170:8087/painelDeControle.php?corpo=buscaSaldoInicial][Firefox]
[07-09-15][09:55:58][191.184.27.73][bfb81b49.virtua.com.br][dlis][http://177.124.60.170:8087/painelDeControle.php?corpo=buscaSaldoInicial][Firefox]
[07-09-15][09:56:28][191.184.27.73][bfb81b49.virtua.com.br][dlis][http://177.124.60.170:8087/painelDeControle.php?corpo=buscaRecebimentos][Firefox]
[07-09-15][09:56:36][191.184.27.73][bfb81b49.virtua.com.br][dlis][http://177.124.60.170:8087/painelDeControle.php?corpo=buscaDespesas][Firefox]
[07-09-15][09:56:37][191.184.27.73][bfb81b49.virtua.com.br][dlis][http://177.124.60.170:8087/painelDeControle.php?corpo=buscaRecebimentos][Firefox]
[07-09-15][09:56:41][191.184.27.73][bfb81b49.virtua.com.br][dlis][http://177.124.60.170:8087/painelDeControle.php?corpo=buscaSaldoInicial][Firefox]
[07-09-15][09:56:41][191.184.27.73][bfb81b49.virtua.com.br][dlis][http://177.124.60.170:8087/painelDeControle.php?corpo=buscaSaldoInicial][Firefox]
[07-09-15][09:57:10][191.184.27.73][bfb81b49.virtua.com.br][dlis][http://177.124.60.170:8087/painelDeControle.php?corpo=buscaSaldoInicial][Firefox]
[07-09-15][09:57:10][191.184.27.73][bfb81b49.virtua.com.br][dlis][http://177.124.60.170:8087/painelDeControle.php?corpo=buscaSaldoInicial][Firefox]
[07-09-15][10:03:13][191.184.27.73][bfb81b49.virtua.com.br][dlis][http://177.124.60.170:8087/painelDeControle.php?corpo=buscaRecebimentos][Firefox]
[07-09-15][10:04:13][191.184.27.73][bfb81b49.virtua.com.br][dlis][http://177.124.60.170:8087/painelDeControle.php?corpo=buscaSaldoInicial][Firefox]
[07-09-15][10:04:13][191.184.27.73][bfb81b49.virtua.com.br][dlis][http://177.124.60.170:8087/painelDeControle.php?corpo=buscaSaldoInicial][Firefox]
[07-09-15][10:04:24][191.184.27.73][bfb81b49.virtua.com.br][dlis][http://177.124.60.170:8087/painelDeControle.php?corpo=buscaRecebimentos][Firefox]
[07-09-15][10:04:34][201.95.12.111][201-95-12-111.dsl.telesp.net.br][][http://177.124.60.170:8087/index.php?][other]
[07-09-15][10:04:42][191.184.27.73][bfb81b49.virtua.com.br][dlis][http://177.124.60.170:8087/painelDeControle.php?corpo=buscaDespesas][Firefox]
[07-09-15][10:04:45][201.95.12.111][201-95-12-111.dsl.telesp.net.br][aant][http://177.124.60.170:8087/painelDeControle.php?][other]
[07-09-15][10:04:45][201.95.12.111][201-95-12-111.dsl.telesp.net.br][aant][http://177.124.60.170:8087/painelDeControle.php?][other]
[07-09-15][10:05:10][191.184.27.73][bfb81b49.virtua.com.br][dlis][http://177.124.60.170:8087/painelDeControle.php?corpo=buscaRecebimentos][Firefox]
[07-09-15][10:05:14][191.184.27.73][bfb81b49.virtua.com.br][dlis][http://177.124.60.170:8087/painelDeControle.php?corpo=buscaSaldoInicial][Firefox]
[07-09-15][10:05:14][191.184.27.73][bfb81b49.virtua.com.br][dlis][http://177.124.60.170:8087/painelDeControle.php?corpo=buscaSaldoInicial][Firefox]
[07-09-15][10:05:22][201.95.12.111][201-95-12-111.dsl.telesp.net.br][aant][http://177.124.60.170:8087/painelDeControle.php?corpo=buscaAtaReuniaoMensal][other]
[07-09-15][10:05:22][201.95.12.111][201-95-12-111.dsl.telesp.net.br][aant][http://177.124.60.170:8087/painelDeControle.php?corpo=buscaAtaReuniaoMensal][other]
[07-09-15][10:05:31][201.95.12.111][201-95-12-111.dsl.telesp.net.br][aant][http://177.124.60.170:8087/painelDeControle.php?corpo=cadastroAtaReuniaoMensal][other]
[07-09-15][10:05:31][201.95.12.111][201-95-12-111.dsl.telesp.net.br][aant][http://177.124.60.170:8087/painelDeControle.php?corpo=cadastroAtaReuniaoMensal][other]
[07-09-15][10:09:11][201.95.12.111][201-95-12-111.dsl.telesp.net.br][aant][http://177.124.60.170:8087/painelDeControle.php?corpo=buscaSaldoInicial][other]
[07-09-15][10:09:11][201.95.12.111][201-95-12-111.dsl.telesp.net.br][aant][http://177.124.60.170:8087/painelDeControle.php?corpo=buscaSaldoInicial][other]
[07-09-15][10:12:52][191.184.27.73][bfb81b49.virtua.com.br][dlis][http://177.124.60.170:8087/painelDeControle.php?corpo=buscaSaldoInicial][Firefox]
[07-09-15][10:12:52][191.184.27.73][bfb81b49.virtua.com.br][dlis][http://177.124.60.170:8087/painelDeControle.php?corpo=buscaSaldoInicial][Firefox]
[07-09-15][10:15:34][191.184.27.73][bfb81b49.virtua.com.br][dlis][http://177.124.60.170:8087/painelDeControle.php?corpo=buscaSaldoInicial][Firefox]
[07-09-15][10:15:34][191.184.27.73][bfb81b49.virtua.com.br][dlis][http://177.124.60.170:8087/painelDeControle.php?corpo=buscaSaldoInicial][Firefox]
[07-09-15][10:15:41][191.184.27.73][bfb81b49.virtua.com.br][dlis][http://177.124.60.170:8087/painelDeControle.php?][Firefox]
[07-09-15][10:15:41][191.184.27.73][bfb81b49.virtua.com.br][dlis][http://177.124.60.170:8087/painelDeControle.php?][Firefox]
[07-09-15][10:16:23][191.184.27.73][bfb81b49.virtua.com.br][dlis][http://177.124.60.170:8087/painelDeControle.php?corpo=buscaRecebimentos][Firefox]
[07-09-15][10:16:29][191.184.27.73][bfb81b49.virtua.com.br][dlis][http://177.124.60.170:8087/painelDeControle.php?corpo=buscaSaldoInicial][Firefox]
[07-09-15][10:16:29][191.184.27.73][bfb81b49.virtua.com.br][dlis][http://177.124.60.170:8087/painelDeControle.php?corpo=buscaSaldoInicial][Firefox]
[07-09-15][10:24:34][179.64.44.92][179-64-44-92.user3g.veloxzone.com.br][][http://177.124.60.170:8087/index.php?][Chrome]
[07-09-15][10:27:40][191.184.27.73][bfb81b49.virtua.com.br][dlis][http://177.124.60.170:8087/index.php?][Firefox]
[07-09-15][10:27:49][191.184.27.73][bfb81b49.virtua.com.br][dlis][http://177.124.60.170:8087/painelDeControle.php?][Firefox]
[07-09-15][10:27:49][191.184.27.73][bfb81b49.virtua.com.br][dlis][http://177.124.60.170:8087/painelDeControle.php?][Firefox]
[07-09-15][10:27:54][191.184.27.73][bfb81b49.virtua.com.br][dlis][http://177.124.60.170:8087/painelDeControle.php?corpo=buscaSaldoInicial][Firefox]
[07-09-15][10:27:54][191.184.27.73][bfb81b49.virtua.com.br][dlis][http://177.124.60.170:8087/painelDeControle.php?corpo=buscaSaldoInicial][Firefox]
[07-09-15][10:30:10][189.33.141.135][bd218d87.virtua.com.br][][http://177.124.60.170:8087/index.php?][Chrome]
[07-09-15][10:49:49][186.205.15.241][bacd0ff1.virtua.com.br][][http://177.124.60.170:8087/index.php?][Chrome]
[07-09-15][10:50:02][186.205.15.241][bacd0ff1.virtua.com.br][cran][http://177.124.60.170:8087/painelDeControle.php?][Chrome]
[07-09-15][10:50:02][186.205.15.241][bacd0ff1.virtua.com.br][cran][http://177.124.60.170:8087/painelDeControle.php?][Chrome]
[07-09-15][10:50:18][186.205.15.241][bacd0ff1.virtua.com.br][cran][http://177.124.60.170:8087/painelDeControle.php?corpo=chat][Chrome]
[07-09-15][10:50:18][186.205.15.241][bacd0ff1.virtua.com.br][cran][http://177.124.60.170:8087/painelDeControle.php?corpo=chat][Chrome]
[07-09-15][10:54:40][152.238.141.79][152.238.141.79][][http://177.124.60.170:8087/index.php?][Chrome]
[07-09-15][11:05:30][186.205.15.241][bacd0ff1.virtua.com.br][cran][http://177.124.60.170:8087/painelDeControle.php?corpo=chat&para=489366][Chrome]
[07-09-15][11:05:30][186.205.15.241][bacd0ff1.virtua.com.br][cran][http://177.124.60.170:8087/painelDeControle.php?corpo=chat&para=489366][Chrome]
[07-09-15][11:06:19][186.205.15.241][bacd0ff1.virtua.com.br][cran][http://177.124.60.170:8087/painelDeControle.php?corpo=buscaMembroOA][Chrome]
[07-09-15][11:06:19][186.205.15.241][bacd0ff1.virtua.com.br][cran][http://177.124.60.170:8087/painelDeControle.php?corpo=buscaMembroOA][Chrome]
[07-09-15][11:06:27][186.205.15.241][bacd0ff1.virtua.com.br][cran][http://177.124.60.170:8087/painelDeControle.php?corpo=buscaMembroAMORC][Chrome]
[07-09-15][11:06:42][186.205.15.241][bacd0ff1.virtua.com.br][cran][http://177.124.60.170:8087/painelDeControle.php?corpo=buscaOficial][Chrome]
[07-09-15][11:06:42][186.205.15.241][bacd0ff1.virtua.com.br][cran][http://177.124.60.170:8087/painelDeControle.php?corpo=buscaOficial][Chrome]
[07-09-15][11:10:03][186.205.15.241][bacd0ff1.virtua.com.br][cran][http://177.124.60.170:8087/painelDeControle.php?corpo=buscaMembroOA][Chrome]
[07-09-15][11:10:03][186.205.15.241][bacd0ff1.virtua.com.br][cran][http://177.124.60.170:8087/painelDeControle.php?corpo=buscaMembroOA][Chrome]
[07-09-15][11:10:22][186.205.15.241][bacd0ff1.virtua.com.br][cran][http://177.124.60.170:8087/painelDeControle.php?][Chrome]
[07-09-15][11:10:22][186.205.15.241][bacd0ff1.virtua.com.br][cran][http://177.124.60.170:8087/painelDeControle.php?][Chrome]
[07-09-15][11:11:40][186.205.15.241][bacd0ff1.virtua.com.br][cran][http://177.124.60.170:8087/painelDeControle.php?corpo=buscaOficial][Chrome]
[07-09-15][11:11:40][186.205.15.241][bacd0ff1.virtua.com.br][cran][http://177.124.60.170:8087/painelDeControle.php?corpo=buscaOficial][Chrome]
[07-09-15][11:11:48][186.205.15.241][bacd0ff1.virtua.com.br][cran][http://177.124.60.170:8087/painelDeControle.php?corpo=buscaOficial&listarAtuantes=1][Chrome]
[07-09-15][11:11:48][186.205.15.241][bacd0ff1.virtua.com.br][cran][http://177.124.60.170:8087/painelDeControle.php?corpo=buscaOficial&listarAtuantes=1][Chrome]
[07-09-15][11:12:01][186.205.15.241][bacd0ff1.virtua.com.br][cran][http://177.124.60.170:8087/painelDeControle.php?corpo=buscaOficial&listarNaoAtuantes=1][Chrome]
[07-09-15][11:12:01][186.205.15.241][bacd0ff1.virtua.com.br][cran][http://177.124.60.170:8087/painelDeControle.php?corpo=buscaOficial&listarNaoAtuantes=1][Chrome]
[07-09-15][11:12:13][186.205.15.241][bacd0ff1.virtua.com.br][cran][http://177.124.60.170:8087/painelDeControle.php?corpo=buscaMembroOA][Chrome]
[07-09-15][11:12:13][186.205.15.241][bacd0ff1.virtua.com.br][cran][http://177.124.60.170:8087/painelDeControle.php?corpo=buscaMembroOA][Chrome]
[07-09-15][11:12:34][186.205.15.241][bacd0ff1.virtua.com.br][][http://177.124.60.170:8087/login.php?][Chrome]
[07-09-15][11:54:46][200.149.80.44][200-149-80-44.user.veloxzone.com.br][][http://177.124.60.170:8087/login.php?][Chrome]
[07-09-15][11:57:42][191.184.27.73][bfb81b49.virtua.com.br][][http://177.124.60.170:8087/index.php?][Firefox]
[07-09-15][11:57:56][191.184.27.73][bfb81b49.virtua.com.br][dlis][http://177.124.60.170:8087/painelDeControle.php?][Firefox]
[07-09-15][11:57:56][191.184.27.73][bfb81b49.virtua.com.br][dlis][http://177.124.60.170:8087/painelDeControle.php?][Firefox]
[07-09-15][11:58:06][191.184.27.73][bfb81b49.virtua.com.br][dlis][http://177.124.60.170:8087/painelDeControle.php?corpo=buscaSaldoInicial][Firefox]
[07-09-15][11:58:06][191.184.27.73][bfb81b49.virtua.com.br][dlis][http://177.124.60.170:8087/painelDeControle.php?corpo=buscaSaldoInicial][Firefox]
[07-09-15][11:58:15][191.184.27.73][bfb81b49.virtua.com.br][dlis][http://177.124.60.170:8087/painelDeControle.php?corpo=buscaSaldoInicial][Firefox]
[07-09-15][11:58:15][191.184.27.73][bfb81b49.virtua.com.br][dlis][http://177.124.60.170:8087/painelDeControle.php?corpo=buscaSaldoInicial][Firefox]
[07-09-15][11:58:18][191.184.27.73][bfb81b49.virtua.com.br][dlis][http://177.124.60.170:8087/painelDeControle.php?][Firefox]
[07-09-15][11:58:18][191.184.27.73][bfb81b49.virtua.com.br][dlis][http://177.124.60.170:8087/painelDeControle.php?][Firefox]
[07-09-15][12:04:11][186.221.124.217][badd7cd9.virtua.com.br][][http://177.124.60.170:8087/index.php?][other]
[07-09-15][12:07:18][186.221.124.217][badd7cd9.virtua.com.br][][http://177.124.60.170:8087/login.php?][other]
[07-09-15][12:09:03][186.221.124.217][badd7cd9.virtua.com.br][][http://177.124.60.170:8087/login.php?][other]
[07-09-15][12:09:08][186.221.124.217][badd7cd9.virtua.com.br][][http://177.124.60.170:8087/index.php?][other]
[07-09-15][13:53:54][177.158.177.204][177.158.177.204.dynamic.adsl.gvt.net.br][][http://177.124.60.170:8087/index.php?][Chrome]
[07-09-15][13:54:22][177.158.177.204][177.158.177.204.dynamic.adsl.gvt.net.br][jofilho][http://177.124.60.170:8087/painelDeControle.php?][Chrome]
[07-09-15][13:54:22][177.158.177.204][177.158.177.204.dynamic.adsl.gvt.net.br][jofilho][http://177.124.60.170:8087/painelDeControle.php?][Chrome]
[07-09-15][13:54:32][177.158.177.204][177.158.177.204.dynamic.adsl.gvt.net.br][jofilho][http://177.124.60.170:8087/painelDeControle.php?corpo=biblioteca][Chrome]
[07-09-15][13:54:32][177.158.177.204][177.158.177.204.dynamic.adsl.gvt.net.br][jofilho][http://177.124.60.170:8087/painelDeControle.php?corpo=biblioteca][Chrome]
[07-09-15][14:23:41][187.65.10.12][bb410a0c.virtua.com.br][][http://177.124.60.170:8087/index.php?][Firefox]
[07-09-15][14:32:57][187.123.60.113][187.123.60.113][][http://177.124.60.170:8087/index.php?][Firefox]
[07-09-15][14:33:17][187.123.60.113][187.123.60.113][eeli][http://177.124.60.170:8087/painelDeControle.php?][Firefox]
[07-09-15][14:33:22][187.123.60.113][187.123.60.113][eeli][http://177.124.60.170:8087/painelDeControle.php?][Firefox]
[07-09-15][14:33:39][187.123.60.113][187.123.60.113][][http://177.124.60.170:8087/login.php?][Firefox]
[07-09-15][14:34:07][177.158.177.204][177.158.177.204.dynamic.adsl.gvt.net.br][][http://177.124.60.170:8087/index.php?][Chrome]
[07-09-15][14:34:22][177.158.177.204][177.158.177.204.dynamic.adsl.gvt.net.br][][http://177.124.60.170:8087/login.php?incorreto=1][Chrome]
[07-09-15][14:34:45][177.158.177.204][177.158.177.204.dynamic.adsl.gvt.net.br][jofilho][http://177.124.60.170:8087/painelDeControle.php?][Chrome]
[07-09-15][14:34:45][177.158.177.204][177.158.177.204.dynamic.adsl.gvt.net.br][jofilho][http://177.124.60.170:8087/painelDeControle.php?][Chrome]
[07-09-15][14:34:54][177.158.177.204][177.158.177.204.dynamic.adsl.gvt.net.br][jofilho][http://177.124.60.170:8087/painelDeControle.php?corpo=biblioteca][Chrome]
[07-09-15][14:34:54][177.158.177.204][177.158.177.204.dynamic.adsl.gvt.net.br][jofilho][http://177.124.60.170:8087/painelDeControle.php?corpo=biblioteca][Chrome]
[07-09-15][14:45:02][186.205.13.94][bacd0d5e.virtua.com.br][][http://177.124.60.170:8087/login.php?][Chrome]
[07-09-15][15:07:33][200.204.228.243][200-204-228-243.customer.telesp.net.br][][http://177.124.60.170:8087/index.php?][other]
[07-09-15][15:08:09][200.204.228.243][200-204-228-243.customer.telesp.net.br][aant][http://177.124.60.170:8087/painelDeControle.php?][other]
[07-09-15][15:08:09][200.204.228.243][200-204-228-243.customer.telesp.net.br][aant][http://177.124.60.170:8087/painelDeControle.php?][other]
[07-09-15][15:08:17][200.204.228.243][200-204-228-243.customer.telesp.net.br][aant][http://177.124.60.170:8087/painelDeControle.php?][other]
[07-09-15][15:08:17][200.204.228.243][200-204-228-243.customer.telesp.net.br][aant][http://177.124.60.170:8087/painelDeControle.php?][other]
[07-09-15][15:08:49][200.204.228.243][200-204-228-243.customer.telesp.net.br][aant][http://177.124.60.170:8087/painelDeControle.php?corpo=buscaAtaReuniaoMensal][other]
[07-09-15][15:08:49][200.204.228.243][200-204-228-243.customer.telesp.net.br][aant][http://177.124.60.170:8087/painelDeControle.php?corpo=buscaAtaReuniaoMensal][other]
[07-09-15][15:08:57][200.204.228.243][200-204-228-243.customer.telesp.net.br][aant][http://177.124.60.170:8087/painelDeControle.php?corpo=cadastroAtaReuniaoMensal][other]
[07-09-15][15:08:57][200.204.228.243][200-204-228-243.customer.telesp.net.br][aant][http://177.124.60.170:8087/painelDeControle.php?corpo=cadastroAtaReuniaoMensal][other]
[07-09-15][15:28:32][200.204.228.243][200-204-228-243.customer.telesp.net.br][][http://177.124.60.170:8087/index.php?][other]
[07-09-15][15:28:49][200.204.228.243][200-204-228-243.customer.telesp.net.br][aant][http://177.124.60.170:8087/painelDeControle.php?][other]
[07-09-15][15:28:49][200.204.228.243][200-204-228-243.customer.telesp.net.br][aant][http://177.124.60.170:8087/painelDeControle.php?][other]
[07-09-15][15:29:00][200.204.228.243][200-204-228-243.customer.telesp.net.br][aant][http://177.124.60.170:8087/painelDeControle.php?corpo=buscaSaldoInicial][other]
[07-09-15][15:29:00][200.204.228.243][200-204-228-243.customer.telesp.net.br][aant][http://177.124.60.170:8087/painelDeControle.php?corpo=buscaSaldoInicial][other]
[07-09-15][15:30:40][200.204.228.243][200-204-228-243.customer.telesp.net.br][aant][http://177.124.60.170:8087/painelDeControle.php?corpo=buscaRecebimentos][other]
[07-09-15][15:32:57][177.83.192.106][b153c06a.virtua.com.br][][http://177.124.60.170:8087/index.php?][Chrome]
[07-09-15][15:34:49][177.83.192.106][b153c06a.virtua.com.br][mcar][http://177.124.60.170:8087/painelDeControle.php?][Chrome]
[07-09-15][15:34:49][177.83.192.106][b153c06a.virtua.com.br][mcar][http://177.124.60.170:8087/painelDeControle.php?][Chrome]
[07-09-15][15:35:19][177.83.192.106][b153c06a.virtua.com.br][mcar][http://177.124.60.170:8087/painelDeControle.php?corpo=biblioteca][Chrome]
[07-09-15][15:35:20][177.83.192.106][b153c06a.virtua.com.br][mcar][http://177.124.60.170:8087/painelDeControle.php?corpo=biblioteca][Chrome]
[07-09-15][15:39:07][200.204.228.243][200-204-228-243.customer.telesp.net.br][aant][http://177.124.60.170:8087/painelDeControle.php?corpo=buscaRecebimentos][other]
[07-09-15][15:39:31][200.204.228.243][200-204-228-243.customer.telesp.net.br][aant][http://177.124.60.170:8087/painelDeControle.php?corpo=buscaDespesas][other]
[07-09-15][15:39:32][200.204.228.243][200-204-228-243.customer.telesp.net.br][aant][http://177.124.60.170:8087/painelDeControle.php?corpo=buscaDespesas][other]
[07-09-15][15:39:34][200.204.228.243][200-204-228-243.customer.telesp.net.br][aant][http://177.124.60.170:8087/painelDeControle.php?corpo=buscaDespesas][other]
[07-09-15][15:39:35][200.204.228.243][200-204-228-243.customer.telesp.net.br][aant][http://177.124.60.170:8087/painelDeControle.php?corpo=buscaDespesas][other]
[07-09-15][15:39:37][200.204.228.243][200-204-228-243.customer.telesp.net.br][aant][http://177.124.60.170:8087/painelDeControle.php?corpo=buscaDespesas][other]
[07-09-15][15:42:06][200.204.228.243][200-204-228-243.customer.telesp.net.br][aant][http://177.124.60.170:8087/painelDeControle.php?corpo=buscaRecebimentos][other]
[07-09-15][15:42:50][177.83.192.106][b153c06a.virtua.com.br][mcar][http://177.124.60.170:8087/painelDeControle.php?corpo=buscaRecebimentos][Chrome]
[07-09-15][15:42:52][177.83.192.106][b153c06a.virtua.com.br][mcar][http://177.124.60.170:8087/painelDeControle.php?corpo=][Chrome]
[07-09-15][15:42:52][177.83.192.106][b153c06a.virtua.com.br][mcar][http://177.124.60.170:8087/painelDeControle.php?corpo=][Chrome]
[07-09-15][15:43:00][177.83.192.106][b153c06a.virtua.com.br][mcar][http://177.124.60.170:8087/painelDeControle.php?corpo=buscaRecebimentos][Chrome]
[07-09-15][15:43:03][177.83.192.106][b153c06a.virtua.com.br][mcar][http://177.124.60.170:8087/painelDeControle.php?corpo=buscaRecebimentos][Chrome]
[07-09-15][15:43:14][177.83.192.106][b153c06a.virtua.com.br][mcar][http://177.124.60.170:8087/painelDeControle.php?corpo=BuscaRecebimentos&mesAtual=08&anoAtual=2015][Chrome]
[07-09-15][15:43:24][177.83.192.106][b153c06a.virtua.com.br][mcar][http://177.124.60.170:8087/painelDeControle.php?corpo=BuscaRecebimentos&mesAtual=07&anoAtual=2015][Chrome]
[07-09-15][15:45:01][177.83.192.106][b153c06a.virtua.com.br][mcar][http://177.124.60.170:8087/painelDeControle.php?corpo=BuscaRecebimentos&mesAtual=08&anoAtual=2015][Chrome]
[07-09-15][15:45:20][189.33.141.135][bd218d87.virtua.com.br][][http://177.124.60.170:8087/index.php?][Firefox]
[07-09-15][15:45:45][189.33.141.135][bd218d87.virtua.com.br][rric][http://177.124.60.170:8087/painelDeControle.php?][Firefox]
[07-09-15][15:45:45][189.33.141.135][bd218d87.virtua.com.br][rric][http://177.124.60.170:8087/painelDeControle.php?][Firefox]
[07-09-15][15:46:09][189.33.141.135][bd218d87.virtua.com.br][rric][http://177.124.60.170:8087/painelDeControle.php?][Firefox]
[07-09-15][15:46:09][189.33.141.135][bd218d87.virtua.com.br][rric][http://177.124.60.170:8087/painelDeControle.php?][Firefox]
[07-09-15][15:46:16][189.33.141.135][bd218d87.virtua.com.br][rric][http://177.124.60.170:8087/painelDeControle.php?corpo=chat][Firefox]
[07-09-15][15:46:16][189.33.141.135][bd218d87.virtua.com.br][rric][http://177.124.60.170:8087/painelDeControle.php?corpo=chat][Firefox]
[07-09-15][15:46:21][177.83.192.106][b153c06a.virtua.com.br][mcar][http://177.124.60.170:8087/painelDeControle.php?corpo=BuscaRecebimentos&mesAtual=07&anoAtual=2015][Chrome]
[07-09-15][15:46:36][189.33.141.135][bd218d87.virtua.com.br][rric][http://177.124.60.170:8087/painelDeControle.php?corpo=chat&para=38507][Firefox]
[07-09-15][15:46:36][189.33.141.135][bd218d87.virtua.com.br][rric][http://177.124.60.170:8087/painelDeControle.php?corpo=chat&para=38507][Firefox]
[07-09-15][15:46:41][177.83.192.106][b153c06a.virtua.com.br][mcar][http://177.124.60.170:8087/painelDeControle.php?corpo=BuscaRecebimentos&mesAtual=06&anoAtual=2015][Chrome]
[07-09-15][15:46:59][177.83.192.106][b153c06a.virtua.com.br][mcar][http://177.124.60.170:8087/painelDeControle.php?corpo=BuscaRecebimentos&mesAtual=05&anoAtual=2015][Chrome]
[07-09-15][15:47:12][200.204.228.243][200-204-228-243.customer.telesp.net.br][aant][http://177.124.60.170:8087/painelDeControle.php?corpo=buscaDespesas][other]
[07-09-15][15:47:15][177.83.192.106][b153c06a.virtua.com.br][mcar][http://177.124.60.170:8087/painelDeControle.php?corpo=BuscaRecebimentos&mesAtual=04&anoAtual=2015][Chrome]
[07-09-15][15:47:32][189.33.141.135][bd218d87.virtua.com.br][rric][http://177.124.60.170:8087/painelDeControle.php?corpo=chat&para=450285][Firefox]
[07-09-15][15:47:32][189.33.141.135][bd218d87.virtua.com.br][rric][http://177.124.60.170:8087/painelDeControle.php?corpo=chat&para=450285][Firefox]
[07-09-15][15:47:34][177.83.192.106][b153c06a.virtua.com.br][mcar][http://177.124.60.170:8087/painelDeControle.php?corpo=BuscaRecebimentos&mesAtual=05&anoAtual=2015][Chrome]
[07-09-15][15:47:45][177.83.192.106][b153c06a.virtua.com.br][mcar][http://177.124.60.170:8087/painelDeControle.php?corpo=BuscaRecebimentos&mesAtual=06&anoAtual=2015][Chrome]
[07-09-15][15:47:53][177.83.192.106][b153c06a.virtua.com.br][mcar][http://177.124.60.170:8087/painelDeControle.php?corpo=BuscaRecebimentos&mesAtual=07&anoAtual=2015][Chrome]
[07-09-15][15:48:04][177.83.192.106][b153c06a.virtua.com.br][mcar][http://177.124.60.170:8087/painelDeControle.php?corpo=BuscaRecebimentos&mesAtual=08&anoAtual=2015][Chrome]
[07-09-15][15:48:28][189.33.141.135][bd218d87.virtua.com.br][rric][http://177.124.60.170:8087/painelDeControle.php?corpo=perfilUsuario][Firefox]
[07-09-15][15:48:28][189.33.141.135][bd218d87.virtua.com.br][rric][http://177.124.60.170:8087/painelDeControle.php?corpo=perfilUsuario][Firefox]
[07-09-15][15:48:53][189.33.141.135][bd218d87.virtua.com.br][][http://177.124.60.170:8087/login.php?][Firefox]
[07-09-15][15:49:06][189.33.141.135][bd218d87.virtua.com.br][cfur][http://177.124.60.170:8087/painelDeControle.php?][Firefox]
[07-09-15][15:49:06][189.33.141.135][bd218d87.virtua.com.br][cfur][http://177.124.60.170:8087/painelDeControle.php?][Firefox]
[07-09-15][15:49:30][189.33.141.135][bd218d87.virtua.com.br][cfur][http://177.124.60.170:8087/painelDeControle.php?corpo=][Firefox]
[07-09-15][15:49:30][189.33.141.135][bd218d87.virtua.com.br][cfur][http://177.124.60.170:8087/painelDeControle.php?corpo=][Firefox]
[07-09-15][15:49:37][186.221.240.68][baddf044.virtua.com.br][][http://177.124.60.170:8087/index.php?][Chrome]
[07-09-15][15:49:44][189.33.141.135][bd218d87.virtua.com.br][cfur][http://177.124.60.170:8087/painelDeControle.php?corpo=buscaSaldoInicial][Firefox]
[07-09-15][15:49:44][189.33.141.135][bd218d87.virtua.com.br][cfur][http://177.124.60.170:8087/painelDeControle.php?corpo=buscaSaldoInicial][Firefox]
[07-09-15][15:49:48][186.221.240.68][baddf044.virtua.com.br][wwas][http://177.124.60.170:8087/painelDeControle.php?][Chrome]
[07-09-15][15:49:48][186.221.240.68][baddf044.virtua.com.br][wwas][http://177.124.60.170:8087/painelDeControle.php?][Chrome]
[07-09-15][15:49:56][189.33.141.135][bd218d87.virtua.com.br][cfur][http://177.124.60.170:8087/painelDeControle.php?corpo=buscaRecebimentos][Firefox]
[07-09-15][15:50:02][189.33.141.135][bd218d87.virtua.com.br][cfur][http://177.124.60.170:8087/painelDeControle.php?corpo=BuscaRecebimentos&mesAtual=08&anoAtual=2015][Firefox]
[07-09-15][15:50:05][186.221.240.68][baddf044.virtua.com.br][wwas][http://177.124.60.170:8087/painelDeControle.php?corpo=listaDeAtualizacoesServer][Chrome]
[07-09-15][15:50:05][186.221.240.68][baddf044.virtua.com.br][wwas][http://177.124.60.170:8087/painelDeControle.php?corpo=listaDeAtualizacoesServer][Chrome]
[07-09-15][15:50:10][189.33.141.135][bd218d87.virtua.com.br][cfur][http://177.124.60.170:8087/painelDeControle.php?corpo=buscaRelatorioMensalFinanceiro][Firefox]
[07-09-15][15:50:16][186.221.240.68][baddf044.virtua.com.br][wwas][http://177.124.60.170:8087/painelDeControle.php?corpo=chat][Chrome]
[07-09-15][15:50:16][186.221.240.68][baddf044.virtua.com.br][wwas][http://177.124.60.170:8087/painelDeControle.php?corpo=chat][Chrome]
[07-09-15][15:50:29][189.33.141.135][bd218d87.virtua.com.br][cfur][http://177.124.60.170:8087/painelDeControle.php?corpo=listaDeAtualizacoesServer][Firefox]
[07-09-15][15:50:29][189.33.141.135][bd218d87.virtua.com.br][cfur][http://177.124.60.170:8087/painelDeControle.php?corpo=listaDeAtualizacoesServer][Firefox]
[07-09-15][15:50:32][186.221.240.68][baddf044.virtua.com.br][wwas][http://177.124.60.170:8087/painelDeControle.php?][Chrome]
[07-09-15][15:50:32][186.221.240.68][baddf044.virtua.com.br][wwas][http://177.124.60.170:8087/painelDeControle.php?][Chrome]
[07-09-15][15:50:33][177.83.192.106][b153c06a.virtua.com.br][mcar][http://177.124.60.170:8087/painelDeControle.php?corpo=BuscaRecebimentos&mesAtual=07&anoAtual=2015][Chrome]
[07-09-15][15:50:34][189.33.141.135][bd218d87.virtua.com.br][][http://177.124.60.170:8087/login.php?][Firefox]
[07-09-15][15:50:40][186.221.240.68][baddf044.virtua.com.br][wwas][http://177.124.60.170:8087/painelDeControle.php?corpo=buscaOficial][Chrome]
[07-09-15][15:50:40][186.221.240.68][baddf044.virtua.com.br][wwas][http://177.124.60.170:8087/painelDeControle.php?corpo=buscaOficial][Chrome]
[07-09-15][15:50:55][186.221.240.68][baddf044.virtua.com.br][wwas][http://177.124.60.170:8087/painelDeControle.php?corpo=cadastroAtaReuniaoMensal][Chrome]
[07-09-15][15:50:55][186.221.240.68][baddf044.virtua.com.br][wwas][http://177.124.60.170:8087/painelDeControle.php?corpo=cadastroAtaReuniaoMensal][Chrome]
[07-09-15][15:51:33][200.204.228.243][200-204-228-243.customer.telesp.net.br][aant][http://177.124.60.170:8087/painelDeControle.php?][other]
[07-09-15][15:51:33][200.204.228.243][200-204-228-243.customer.telesp.net.br][aant][http://177.124.60.170:8087/painelDeControle.php?][other]
[07-09-15][15:51:48][200.204.228.243][200-204-228-243.customer.telesp.net.br][aant][http://177.124.60.170:8087/painelDeControle.php?corpo=chat][other]
[07-09-15][15:51:48][200.204.228.243][200-204-228-243.customer.telesp.net.br][aant][http://177.124.60.170:8087/painelDeControle.php?corpo=chat][other]
[07-09-15][15:52:25][200.204.228.243][200-204-228-243.customer.telesp.net.br][aant][http://177.124.60.170:8087/painelDeControle.php?corpo=buscaSaldoInicial][other]
[07-09-15][15:52:25][200.204.228.243][200-204-228-243.customer.telesp.net.br][aant][http://177.124.60.170:8087/painelDeControle.php?corpo=buscaSaldoInicial][other]
[07-09-15][15:52:34][200.204.228.243][200-204-228-243.customer.telesp.net.br][aant][http://177.124.60.170:8087/painelDeControle.php?corpo=buscaSaldoInicial&jaCadastrado=1][other]
[07-09-15][15:52:34][200.204.228.243][200-204-228-243.customer.telesp.net.br][aant][http://177.124.60.170:8087/painelDeControle.php?corpo=buscaSaldoInicial&jaCadastrado=1][other]
[07-09-15][15:52:57][200.204.228.243][200-204-228-243.customer.telesp.net.br][aant][http://177.124.60.170:8087/painelDeControle.php?corpo=buscaDespesas][other]
[07-09-15][15:52:59][200.204.228.243][200-204-228-243.customer.telesp.net.br][aant][http://177.124.60.170:8087/painelDeControle.php?corpo=buscaDespesas][other]
[07-09-15][15:53:00][200.204.228.243][200-204-228-243.customer.telesp.net.br][aant][http://177.124.60.170:8087/painelDeControle.php?corpo=buscaDespesas][other]
[07-09-15][15:53:01][200.204.228.243][200-204-228-243.customer.telesp.net.br][aant][http://177.124.60.170:8087/painelDeControle.php?corpo=buscaDespesas][other]
[07-09-15][15:53:03][200.204.228.243][200-204-228-243.customer.telesp.net.br][aant][http://177.124.60.170:8087/painelDeControle.php?corpo=buscaDespesas][other]
[07-09-15][15:53:04][200.204.228.243][200-204-228-243.customer.telesp.net.br][aant][http://177.124.60.170:8087/painelDeControle.php?corpo=buscaDespesas][other]
[07-09-15][15:53:05][200.204.228.243][200-204-228-243.customer.telesp.net.br][aant][http://177.124.60.170:8087/painelDeControle.php?corpo=buscaDespesas][other]
[07-09-15][15:53:06][200.204.228.243][200-204-228-243.customer.telesp.net.br][aant][http://177.124.60.170:8087/painelDeControle.php?corpo=buscaDespesas][other]
[07-09-15][15:53:09][200.204.228.243][200-204-228-243.customer.telesp.net.br][aant][http://177.124.60.170:8087/painelDeControle.php?corpo=buscaDespesas][other]
[07-09-15][15:53:10][200.204.228.243][200-204-228-243.customer.telesp.net.br][aant][http://177.124.60.170:8087/painelDeControle.php?corpo=buscaDespesas][other]
[07-09-15][15:53:11][200.204.228.243][200-204-228-243.customer.telesp.net.br][aant][http://177.124.60.170:8087/painelDeControle.php?corpo=buscaDespesas][other]
[07-09-15][15:53:13][200.204.228.243][200-204-228-243.customer.telesp.net.br][aant][http://177.124.60.170:8087/painelDeControle.php?corpo=buscaSaldoInicial&jaCadastrado=1][other]
[07-09-15][15:53:13][200.204.228.243][200-204-228-243.customer.telesp.net.br][aant][http://177.124.60.170:8087/painelDeControle.php?corpo=buscaSaldoInicial&jaCadastrado=1][other]
[07-09-15][15:53:34][200.204.228.243][200-204-228-243.customer.telesp.net.br][aant][http://177.124.60.170:8087/painelDeControle.php?corpo=buscaDespesas][other]
[07-09-15][15:55:39][200.204.228.243][200-204-228-243.customer.telesp.net.br][][http://177.124.60.170:8087/index.php?][other]
[07-09-15][15:55:54][200.204.228.243][200-204-228-243.customer.telesp.net.br][aant][http://177.124.60.170:8087/painelDeControle.php?][other]
[07-09-15][15:55:54][200.204.228.243][200-204-228-243.customer.telesp.net.br][aant][http://177.124.60.170:8087/painelDeControle.php?][other]
[07-09-15][15:56:04][200.204.228.243][200-204-228-243.customer.telesp.net.br][aant][http://177.124.60.170:8087/painelDeControle.php?corpo=buscaSaldoInicial][other]
[07-09-15][15:56:04][200.204.228.243][200-204-228-243.customer.telesp.net.br][aant][http://177.124.60.170:8087/painelDeControle.php?corpo=buscaSaldoInicial][other]
[07-09-15][15:56:12][200.204.228.243][200-204-228-243.customer.telesp.net.br][aant][http://177.124.60.170:8087/painelDeControle.php?corpo=buscaAtaPosse][other]
[07-09-15][15:56:12][200.204.228.243][200-204-228-243.customer.telesp.net.br][aant][http://177.124.60.170:8087/painelDeControle.php?corpo=buscaAtaPosse][other]
[07-09-15][15:56:20][200.204.228.243][200-204-228-243.customer.telesp.net.br][aant][http://177.124.60.170:8087/painelDeControle.php?][other]
[07-09-15][15:56:20][200.204.228.243][200-204-228-243.customer.telesp.net.br][aant][http://177.124.60.170:8087/painelDeControle.php?][other]
[07-09-15][15:56:24][200.204.228.243][200-204-228-243.customer.telesp.net.br][aant][http://177.124.60.170:8087/painelDeControle.php?][other]
[07-09-15][15:56:24][200.204.228.243][200-204-228-243.customer.telesp.net.br][aant][http://177.124.60.170:8087/painelDeControle.php?][other]
[07-09-15][15:56:36][200.204.228.243][200-204-228-243.customer.telesp.net.br][aant][http://177.124.60.170:8087/painelDeControle.php?corpo=buscaSaldoInicial][other]
[07-09-15][15:56:36][200.204.228.243][200-204-228-243.customer.telesp.net.br][aant][http://177.124.60.170:8087/painelDeControle.php?corpo=buscaSaldoInicial][other]
[07-09-15][15:56:47][200.204.228.243][200-204-228-243.customer.telesp.net.br][aant][http://177.124.60.170:8087/painelDeControle.php?corpo=buscaDespesas][other]
[07-09-15][15:57:21][177.83.192.106][b153c06a.virtua.com.br][mcar][http://177.124.60.170:8087/painelDeControle.php?corpo=BuscaRecebimentos&mesAtual=08&anoAtual=2015][Chrome]
[07-09-15][16:00:05][200.204.228.243][200-204-228-243.customer.telesp.net.br][aant][http://177.124.60.170:8087/painelDeControle.php?][other]
[07-09-15][16:00:05][200.204.228.243][200-204-228-243.customer.telesp.net.br][aant][http://177.124.60.170:8087/painelDeControle.php?][other]
[07-09-15][16:00:18][200.204.228.243][200-204-228-243.customer.telesp.net.br][aant][http://177.124.60.170:8087/painelDeControle.php?corpo=buscaDespesas][other]
[07-09-15][16:03:54][187.80.59.199][199.59.80.187.isp.timbrasil.com.br][][http://177.124.60.170:8087/index.php?][Chrome]
[07-09-15][16:04:08][187.80.59.199][199.59.80.187.isp.timbrasil.com.br][opan][http://177.124.60.170:8087/painelDeControle.php?][Chrome]
[07-09-15][16:04:08][187.80.59.199][199.59.80.187.isp.timbrasil.com.br][opan][http://177.124.60.170:8087/painelDeControle.php?][Chrome]
[07-09-15][16:04:18][187.80.59.199][199.59.80.187.isp.timbrasil.com.br][opan][http://177.124.60.170:8087/painelDeControle.php?corpo=][Chrome]
[07-09-15][16:04:18][187.80.59.199][199.59.80.187.isp.timbrasil.com.br][opan][http://177.124.60.170:8087/painelDeControle.php?corpo=][Chrome]
[07-09-15][16:04:44][187.80.59.199][199.59.80.187.isp.timbrasil.com.br][][http://177.124.60.170:8087/login.php?][Chrome]
[07-09-15][16:07:53][186.221.240.68][baddf044.virtua.com.br][wwas][http://177.124.60.170:8087/painelDeControle.php?][Chrome]
[07-09-15][16:07:53][186.221.240.68][baddf044.virtua.com.br][wwas][http://177.124.60.170:8087/painelDeControle.php?][Chrome]
[07-09-15][16:08:07][186.221.240.68][baddf044.virtua.com.br][wwas][http://177.124.60.170:8087/painelDeControle.php?corpo=cadastroAtaReuniaoMensal][Chrome]
[07-09-15][16:08:07][186.221.240.68][baddf044.virtua.com.br][wwas][http://177.124.60.170:8087/painelDeControle.php?corpo=cadastroAtaReuniaoMensal][Chrome]
[07-09-15][16:09:17][186.221.240.68][baddf044.virtua.com.br][wwas][http://177.124.60.170:8087/painelDeControle.php?corpo=buscaAtaReuniaoMensal][Chrome]
[07-09-15][16:09:17][186.221.240.68][baddf044.virtua.com.br][wwas][http://177.124.60.170:8087/painelDeControle.php?corpo=buscaAtaReuniaoMensal][Chrome]
[07-09-15][16:09:30][186.221.240.68][baddf044.virtua.com.br][wwas][http://177.124.60.170:8087/painelDeControle.php?corpo=cadastroAtaReuniaoMensal][Chrome]
[07-09-15][16:09:30][186.221.240.68][baddf044.virtua.com.br][wwas][http://177.124.60.170:8087/painelDeControle.php?corpo=cadastroAtaReuniaoMensal][Chrome]
[07-09-15][16:16:30][177.83.192.106][b153c06a.virtua.com.br][mcar][http://177.124.60.170:8087/painelDeControle.php?corpo=BuscaRecebimentos&mesAtual=09&anoAtual=2015][Chrome]
[07-09-15][16:24:01][177.83.192.106][b153c06a.virtua.com.br][mcar][http://177.124.60.170:8087/painelDeControle.php?corpo=BuscaRecebimentos&mesAtual=08&anoAtual=2015][Chrome]
[07-09-15][16:25:06][177.83.192.106][b153c06a.virtua.com.br][mcar][http://177.124.60.170:8087/painelDeControle.php?corpo=buscaMembros][Chrome]
[07-09-15][16:26:13][177.83.192.106][b153c06a.virtua.com.br][mcar][http://177.124.60.170:8087/painelDeControle.php?corpo=buscaMembros][Chrome]
[07-09-15][16:26:16][177.83.192.106][b153c06a.virtua.com.br][mcar][http://177.124.60.170:8087/painelDeControle.php?corpo=buscaMembros][Chrome]
[07-09-15][16:28:35][177.83.192.106][b153c06a.virtua.com.br][][http://177.124.60.170:8087/login.php?][Chrome]
[07-09-15][16:34:43][189.32.2.105][bd200269.virtua.com.br][][http://177.124.60.170:8087/index.php?][Firefox]
[07-09-15][16:34:51][189.32.2.105][bd200269.virtua.com.br][osan][http://177.124.60.170:8087/painelDeControle.php?][Firefox]
[07-09-15][16:34:51][189.32.2.105][bd200269.virtua.com.br][osan][http://177.124.60.170:8087/painelDeControle.php?][Firefox]
[07-09-15][16:35:53][189.32.2.105][bd200269.virtua.com.br][osan][http://177.124.60.170:8087/painelDeControle.php?corpo=biblioteca][Firefox]
[07-09-15][16:35:53][189.32.2.105][bd200269.virtua.com.br][osan][http://177.124.60.170:8087/painelDeControle.php?corpo=biblioteca][Firefox]
[07-09-15][16:41:21][186.221.240.68][baddf044.virtua.com.br][][http://177.124.60.170:8087/index.php?][other]
[07-09-15][16:41:41][186.221.240.68][baddf044.virtua.com.br][ammelo][http://177.124.60.170:8087/painelDeControle.php?][other]
[07-09-15][16:41:41][186.221.240.68][baddf044.virtua.com.br][ammelo][http://177.124.60.170:8087/painelDeControle.php?][other]
[07-09-15][16:42:09][186.221.240.68][baddf044.virtua.com.br][ammelo][http://177.124.60.170:8087/painelDeControle.php?corpo=cadastroAtaReuniaoMensal][other]
[07-09-15][16:42:09][186.221.240.68][baddf044.virtua.com.br][ammelo][http://177.124.60.170:8087/painelDeControle.php?corpo=cadastroAtaReuniaoMensal][other]
[07-09-15][16:45:10][186.221.240.68][baddf044.virtua.com.br][][http://177.124.60.170:8087/login.php?][other]
[07-09-15][16:45:28][186.221.240.68][baddf044.virtua.com.br][wwas][http://177.124.60.170:8087/painelDeControle.php?][other]
[07-09-15][16:45:28][186.221.240.68][baddf044.virtua.com.br][wwas][http://177.124.60.170:8087/painelDeControle.php?][other]
[07-09-15][16:45:41][186.221.240.68][baddf044.virtua.com.br][wwas][http://177.124.60.170:8087/painelDeControle.php?corpo=cadastroAtaReuniaoMensal][other]
[07-09-15][16:45:41][186.221.240.68][baddf044.virtua.com.br][wwas][http://177.124.60.170:8087/painelDeControle.php?corpo=cadastroAtaReuniaoMensal][other]
[07-09-15][17:01:32][187.114.168.97][187.114.168.97.static.host.gvt.net.br][][http://177.124.60.170:8087/telaDeBloqueio.php?][Safari]
[07-09-15][17:01:33][187.114.168.97][187.114.168.97.static.host.gvt.net.br][][http://177.124.60.170:8087/login.php?][Safari]
[07-09-15][17:01:39][187.114.168.97][187.114.168.97.static.host.gvt.net.br][][http://177.124.60.170:8087/telaDeBloqueio.php?][Safari]
[07-09-15][17:01:39][187.114.168.97][187.114.168.97.static.host.gvt.net.br][][http://177.124.60.170:8087/login.php?][Safari]
[07-09-15][17:01:46][187.114.168.97][187.114.168.97.static.host.gvt.net.br][][http://177.124.60.170:8087/telaDeBloqueio.php?][Safari]
[07-09-15][17:01:47][187.114.168.97][187.114.168.97.static.host.gvt.net.br][][http://177.124.60.170:8087/login.php?][Safari]
[07-09-15][17:01:52][187.114.168.97][187.114.168.97.static.host.gvt.net.br][][http://177.124.60.170:8087/login.php?incorreto=1][Safari]
[07-09-15][17:02:04][187.114.168.97][187.114.168.97.static.host.gvt.net.br][][http://177.124.60.170:8087/login.php?incorreto=1][Safari]
[07-09-15][17:03:09][186.205.13.94][bacd0d5e.virtua.com.br][cran][http://177.124.60.170:8087/painelDeControle.php?][Chrome]
[07-09-15][17:03:09][186.205.13.94][bacd0d5e.virtua.com.br][cran][http://177.124.60.170:8087/painelDeControle.php?][Chrome]
[07-09-15][17:03:30][186.205.13.94][bacd0d5e.virtua.com.br][cran][http://177.124.60.170:8087/painelDeControle.php?corpo=][Chrome]
[07-09-15][17:03:30][186.205.13.94][bacd0d5e.virtua.com.br][cran][http://177.124.60.170:8087/painelDeControle.php?corpo=][Chrome]
[07-09-15][17:04:46][186.205.13.94][bacd0d5e.virtua.com.br][cran][http://177.124.60.170:8087/painelDeControle.php?corpo=buscaAtaReuniaoMensal][Chrome]
[07-09-15][17:04:46][186.205.13.94][bacd0d5e.virtua.com.br][cran][http://177.124.60.170:8087/painelDeControle.php?corpo=buscaAtaReuniaoMensal][Chrome]
[07-09-15][17:05:34][186.205.13.94][bacd0d5e.virtua.com.br][][http://177.124.60.170:8087/login.php?][Chrome]
[07-09-15][17:15:28][189.82.104.90][189-82-104-90.user.veloxzone.com.br][][http://177.124.60.170:8087/index.php?][Chrome]
[07-09-15][17:15:40][189.82.104.90][189-82-104-90.user.veloxzone.com.br][trib][http://177.124.60.170:8087/painelDeControle.php?][Chrome]
[07-09-15][17:15:40][189.82.104.90][189-82-104-90.user.veloxzone.com.br][trib][http://177.124.60.170:8087/painelDeControle.php?][Chrome]
[07-09-15][17:16:14][189.82.104.90][189-82-104-90.user.veloxzone.com.br][trib][http://177.124.60.170:8087/painelDeControle.php?corpo=biblioteca][Chrome]
[07-09-15][17:16:14][189.82.104.90][189-82-104-90.user.veloxzone.com.br][trib][http://177.124.60.170:8087/painelDeControle.php?corpo=biblioteca][Chrome]
[07-09-15][17:18:06][189.82.104.90][189-82-104-90.user.veloxzone.com.br][trib][http://177.124.60.170:8087/painelDeControle.php?corpo=biblioteca][Chrome]
[07-09-15][17:18:06][189.82.104.90][189-82-104-90.user.veloxzone.com.br][trib][http://177.124.60.170:8087/painelDeControle.php?corpo=biblioteca][Chrome]
[07-09-15][18:20:52][191.180.224.243][bfb4e0f3.virtua.com.br][][http://177.124.60.170:8087/index.php?][Chrome]
[07-09-15][18:21:51][191.180.224.243][bfb4e0f3.virtua.com.br][][http://177.124.60.170:8087/login.php?incorreto=1][Chrome]
[07-09-15][18:22:07][191.180.224.243][bfb4e0f3.virtua.com.br][][http://177.124.60.170:8087/esqueciSenha.php?][Chrome]
[07-09-15][18:22:15][191.180.224.243][bfb4e0f3.virtua.com.br][][http://177.124.60.170:8087/login.php?incorreto=1][Chrome]
[07-09-15][18:22:19][191.180.224.243][bfb4e0f3.virtua.com.br][][http://177.124.60.170:8087/index.php?][Chrome]
[07-09-15][18:23:01][191.180.224.243][bfb4e0f3.virtua.com.br][][http://177.124.60.170:8087/login.php?incorreto=1][Chrome]
[07-09-15][18:23:04][191.180.224.243][bfb4e0f3.virtua.com.br][][http://177.124.60.170:8087/esqueciSenha.php?][Chrome]
[07-09-15][18:23:39][191.180.224.243][bfb4e0f3.virtua.com.br][][http://177.124.60.170:8087/esqueciSenha.php?][Chrome]
[07-09-15][18:24:08][191.180.224.243][bfb4e0f3.virtua.com.br][][http://177.124.60.170:8087/esqueciSenha.php?][Chrome]
[07-09-15][18:24:15][191.180.224.243][bfb4e0f3.virtua.com.br][][http://177.124.60.170:8087/login.php?incorreto=1][Chrome]
[07-09-15][18:24:21][191.180.224.243][bfb4e0f3.virtua.com.br][][http://177.124.60.170:8087/index.php?][Chrome]
[07-09-15][18:26:01][191.180.224.243][bfb4e0f3.virtua.com.br][][http://177.124.60.170:8087/login.php?][Chrome]
[07-09-15][18:26:19][191.180.224.243][bfb4e0f3.virtua.com.br][][http://177.124.60.170:8087/index.php?][Chrome]
[07-09-15][18:55:50][177.177.33.163][177-177-33-163.user.veloxzone.com.br][][http://177.124.60.170:8087/index.php?][Chrome]
[07-09-15][18:56:02][177.177.33.163][177-177-33-163.user.veloxzone.com.br][][http://177.124.60.170:8087/login.php?incorreto=1][Chrome]
[07-09-15][18:56:14][177.177.33.163][177-177-33-163.user.veloxzone.com.br][cpum][http://177.124.60.170:8087/painelDeControle.php?][Chrome]
[07-09-15][18:56:14][177.177.33.163][177-177-33-163.user.veloxzone.com.br][cpum][http://177.124.60.170:8087/painelDeControle.php?][Chrome]
[07-09-15][18:56:27][177.177.33.163][177-177-33-163.user.veloxzone.com.br][cpum][http://177.124.60.170:8087/login.php?incorreto=1][Chrome]
[07-09-15][18:56:32][177.177.33.163][177-177-33-163.user.veloxzone.com.br][cpum][http://177.124.60.170:8087/painelDeControle.php?][Chrome]
[07-09-15][18:56:32][177.177.33.163][177-177-33-163.user.veloxzone.com.br][cpum][http://177.124.60.170:8087/painelDeControle.php?][Chrome]
[07-09-15][18:56:44][177.177.33.163][177-177-33-163.user.veloxzone.com.br][cpum][http://177.124.60.170:8087/painelDeControle.php?corpo=chat][Chrome]
[07-09-15][18:56:44][177.177.33.163][177-177-33-163.user.veloxzone.com.br][cpum][http://177.124.60.170:8087/painelDeControle.php?corpo=chat][Chrome]
[07-09-15][18:57:07][177.177.33.163][177-177-33-163.user.veloxzone.com.br][cpum][http://177.124.60.170:8087/painelDeControle.php?corpo=chat&para=23040][Chrome]
[07-09-15][18:57:07][177.177.33.163][177-177-33-163.user.veloxzone.com.br][cpum][http://177.124.60.170:8087/painelDeControle.php?corpo=chat&para=23040][Chrome]
[07-09-15][18:57:22][177.177.33.163][177-177-33-163.user.veloxzone.com.br][cpum][http://177.124.60.170:8087/painelDeControle.php?corpo=detalheAtualizacoesServer&idNotificacao=8][Chrome]
[07-09-15][18:57:22][177.177.33.163][177-177-33-163.user.veloxzone.com.br][cpum][http://177.124.60.170:8087/painelDeControle.php?corpo=detalheAtualizacoesServer&idNotificacao=8][Chrome]
[07-09-15][18:57:57][177.177.33.163][177-177-33-163.user.veloxzone.com.br][cpum][http://177.124.60.170:8087/painelDeControle.php?corpo=detalheAtualizacoesServer&idNotificacao=7][Chrome]
[07-09-15][18:57:57][177.177.33.163][177-177-33-163.user.veloxzone.com.br][cpum][http://177.124.60.170:8087/painelDeControle.php?corpo=detalheAtualizacoesServer&idNotificacao=7][Chrome]
[07-09-15][18:58:22][177.177.33.163][177-177-33-163.user.veloxzone.com.br][cpum][http://177.124.60.170:8087/painelDeControle.php?corpo=detalheAtualizacoesServer&idNotificacao=8][Chrome]
[07-09-15][18:58:22][177.177.33.163][177-177-33-163.user.veloxzone.com.br][cpum][http://177.124.60.170:8087/painelDeControle.php?corpo=detalheAtualizacoesServer&idNotificacao=8][Chrome]
[07-09-15][18:58:36][177.177.33.163][177-177-33-163.user.veloxzone.com.br][cpum][http://177.124.60.170:8087/painelDeControle.php?corpo=chat&para=23040][Chrome]
[07-09-15][18:58:36][177.177.33.163][177-177-33-163.user.veloxzone.com.br][cpum][http://177.124.60.170:8087/painelDeControle.php?corpo=chat&para=23040][Chrome]
[07-09-15][18:58:44][177.177.33.163][177-177-33-163.user.veloxzone.com.br][cpum][http://177.124.60.170:8087/painelDeControle.php?corpo=chat][Chrome]
[07-09-15][18:58:44][177.177.33.163][177-177-33-163.user.veloxzone.com.br][cpum][http://177.124.60.170:8087/painelDeControle.php?corpo=chat][Chrome]
[07-09-15][18:59:05][177.177.33.163][177-177-33-163.user.veloxzone.com.br][cpum][http://177.124.60.170:8087/painelDeControle.php?][Chrome]
[07-09-15][18:59:05][177.177.33.163][177-177-33-163.user.veloxzone.com.br][cpum][http://177.124.60.170:8087/painelDeControle.php?][Chrome]
[07-09-15][18:59:37][177.177.33.163][177-177-33-163.user.veloxzone.com.br][cpum][http://177.124.60.170:8087/painelDeControle.php?][Chrome]
[07-09-15][18:59:37][177.177.33.163][177-177-33-163.user.veloxzone.com.br][cpum][http://177.124.60.170:8087/painelDeControle.php?][Chrome]
[07-09-15][19:22:41][177.65.106.213][177.65.106.213][][http://177.124.60.170:8087/index.php?][Chrome]
[07-09-15][19:22:46][177.65.106.213][177.65.106.213][][http://177.124.60.170:8087/index.php?][Chrome]
[07-09-15][20:22:57][179.157.49.59][b39d313b.virtua.com.br][][http://177.124.60.170:8087/index.php?][Chrome]
[07-09-15][20:23:10][179.157.49.59][b39d313b.virtua.com.br][lmai][http://177.124.60.170:8087/painelDeControle.php?][Chrome]
[07-09-15][20:23:10][179.157.49.59][b39d313b.virtua.com.br][lmai][http://177.124.60.170:8087/painelDeControle.php?][Chrome]
[07-09-15][20:23:29][179.157.49.59][b39d313b.virtua.com.br][][http://177.124.60.170:8087/login.php?][Chrome]
[07-09-15][20:31:31][179.122.32.58][58.32.122.179.isp.timbrasil.com.br][][http://177.124.60.170:8087/index.php?][Chrome]
[07-09-15][20:33:20][187.39.231.130][bb27e782.virtua.com.br][][http://177.124.60.170:8087/index.php?][other]
[07-09-15][20:33:36][187.39.231.130][bb27e782.virtua.com.br][jmei][http://177.124.60.170:8087/painelDeControle.php?][other]
[07-09-15][20:33:36][187.39.231.130][bb27e782.virtua.com.br][jmei][http://177.124.60.170:8087/painelDeControle.php?][other]
[07-09-15][20:33:47][187.39.231.130][bb27e782.virtua.com.br][jmei][http://177.124.60.170:8087/painelDeControle.php?corpo=biblioteca][other]
[07-09-15][20:33:47][187.39.231.130][bb27e782.virtua.com.br][jmei][http://177.124.60.170:8087/painelDeControle.php?corpo=biblioteca][other]
[07-09-15][20:34:16][187.39.231.130][bb27e782.virtua.com.br][jmei][http://177.124.60.170:8087/painelDeControle.php?corpo=buscaAnotacoes][other]
[07-09-15][20:34:16][187.39.231.130][bb27e782.virtua.com.br][jmei][http://177.124.60.170:8087/painelDeControle.php?corpo=buscaAnotacoes][other]
[07-09-15][20:34:36][201.76.73.141][c94c498d.virtua.com.br][][http://177.124.60.170:8087/index.php?][Chrome]
[07-09-15][20:34:43][187.39.231.130][bb27e782.virtua.com.br][jmei][http://177.124.60.170:8087/painelDeControle.php?][other]
[07-09-15][20:34:43][187.39.231.130][bb27e782.virtua.com.br][jmei][http://177.124.60.170:8087/painelDeControle.php?][other]
[07-09-15][20:34:57][187.39.231.130][bb27e782.virtua.com.br][jmei][http://177.124.60.170:8087/painelDeControle.php?corpo=biblioteca][other]
[07-09-15][20:34:57][187.39.231.130][bb27e782.virtua.com.br][jmei][http://177.124.60.170:8087/painelDeControle.php?corpo=biblioteca][other]
[07-09-15][20:36:44][201.76.73.141][c94c498d.virtua.com.br][][http://177.124.60.170:8087/login.php?][Chrome]
[07-09-15][20:37:19][187.39.231.130][bb27e782.virtua.com.br][jmei][http://177.124.60.170:8087/painelDeControle.php?corpo=buscaMembros][other]
[07-09-15][20:37:24][187.39.231.130][bb27e782.virtua.com.br][jmei][http://177.124.60.170:8087/painelDeControle.php?][other]
[07-09-15][20:37:24][187.39.231.130][bb27e782.virtua.com.br][jmei][http://177.124.60.170:8087/painelDeControle.php?][other]
[07-09-15][20:37:36][201.76.73.141][c94c498d.virtua.com.br][][http://177.124.60.170:8087/login.php?incorreto=1][Chrome]
[07-09-15][20:37:50][179.122.32.58][58.32.122.179.isp.timbrasil.com.br][][http://177.124.60.170:8087/index.php?][Chrome]
[07-09-15][20:37:59][201.76.73.141][c94c498d.virtua.com.br][][http://177.124.60.170:8087/login.php?incorreto=1][Chrome]
[07-09-15][20:38:01][187.39.231.130][bb27e782.virtua.com.br][jmei][http://177.124.60.170:8087/painelDeControle.php?corpo=buscaImpressao][other]
[07-09-15][20:38:01][187.39.231.130][bb27e782.virtua.com.br][jmei][http://177.124.60.170:8087/painelDeControle.php?corpo=buscaImpressao][other]
[07-09-15][20:38:15][179.122.32.58][58.32.122.179.isp.timbrasil.com.br][][http://177.124.60.170:8087/index.php?][Chrome]
[07-09-15][20:38:33][179.122.32.58][58.32.122.179.isp.timbrasil.com.br][opan][http://177.124.60.170:8087/painelDeControle.php?][Chrome]
[07-09-15][20:38:33][179.122.32.58][58.32.122.179.isp.timbrasil.com.br][opan][http://177.124.60.170:8087/painelDeControle.php?][Chrome]
[07-09-15][20:38:39][187.39.231.130][bb27e782.virtua.com.br][jmei][http://177.124.60.170:8087/painelDeControle.php?corpo=buscaOrganismo][other]
[07-09-15][20:38:39][187.39.231.130][bb27e782.virtua.com.br][jmei][http://177.124.60.170:8087/painelDeControle.php?corpo=buscaOrganismo][other]
[07-09-15][20:38:52][201.76.73.141][c94c498d.virtua.com.br][][http://177.124.60.170:8087/login.php?][Chrome]
[07-09-15][20:39:02][187.39.231.130][bb27e782.virtua.com.br][jmei][http://177.124.60.170:8087/painelDeControle.php?corpo=buscaAutorizacaoTemplo][other]
[07-09-15][20:39:14][179.122.32.58][58.32.122.179.isp.timbrasil.com.br][opan][http://177.124.60.170:8087/painelDeControle.php?corpo=buscaRelatorioAnualFinanceiro][Chrome]
[07-09-15][20:39:23][187.39.231.130][bb27e782.virtua.com.br][jmei][http://177.124.60.170:8087/painelDeControle.php?corpo=buscaEmail][other]
[07-09-15][20:39:32][187.39.231.130][bb27e782.virtua.com.br][jmei][http://177.124.60.170:8087/painelDeControle.php?corpo=buscaAnotacoes][other]
[07-09-15][20:39:32][187.39.231.130][bb27e782.virtua.com.br][jmei][http://177.124.60.170:8087/painelDeControle.php?corpo=buscaAnotacoes][other]
[07-09-15][20:39:40][187.39.231.130][bb27e782.virtua.com.br][jmei][http://177.124.60.170:8087/painelDeControle.php?corpo=biblioteca][other]
[07-09-15][20:39:40][187.39.231.130][bb27e782.virtua.com.br][jmei][http://177.124.60.170:8087/painelDeControle.php?corpo=biblioteca][other]
[07-09-15][20:39:58][179.122.32.58][58.32.122.179.isp.timbrasil.com.br][opan][http://177.124.60.170:8087/painelDeControle.php?][Chrome]
[07-09-15][20:39:58][179.122.32.58][58.32.122.179.isp.timbrasil.com.br][opan][http://177.124.60.170:8087/painelDeControle.php?][Chrome]
[07-09-15][20:40:02][201.76.73.141][c94c498d.virtua.com.br][][http://177.124.60.170:8087/login.php?][Chrome]
[07-09-15][20:40:05][201.76.73.141][c94c498d.virtua.com.br][][http://177.124.60.170:8087/esqueciSenha.php?][Chrome]
[07-09-15][20:40:08][179.122.32.58][58.32.122.179.isp.timbrasil.com.br][opan][http://177.124.60.170:8087/painelDeControle.php?corpo=][Chrome]
[07-09-15][20:40:08][179.122.32.58][58.32.122.179.isp.timbrasil.com.br][opan][http://177.124.60.170:8087/painelDeControle.php?corpo=][Chrome]
[07-09-15][20:40:21][179.122.32.58][58.32.122.179.isp.timbrasil.com.br][opan][http://177.124.60.170:8087/painelDeControle.php?corpo=buscaSaldoInicial][Chrome]
[07-09-15][20:40:21][179.122.32.58][58.32.122.179.isp.timbrasil.com.br][opan][http://177.124.60.170:8087/painelDeControle.php?corpo=buscaSaldoInicial][Chrome]
[07-09-15][20:40:30][201.76.73.141][c94c498d.virtua.com.br][][http://177.124.60.170:8087/esqueciSenha.php?][Chrome]
[07-09-15][20:40:40][201.76.73.141][c94c498d.virtua.com.br][][http://177.124.60.170:8087/esqueciSenha.php?][Chrome]
[07-09-15][20:40:51][201.76.73.141][c94c498d.virtua.com.br][][http://177.124.60.170:8087/esqueciSenha.php?][Chrome]
[07-09-15][20:41:23][179.122.32.58][58.32.122.179.isp.timbrasil.com.br][opan][http://177.124.60.170:8087/painelDeControle.php?corpo=buscaSaldoInicial&salvo=1][Chrome]
[07-09-15][20:41:23][179.122.32.58][58.32.122.179.isp.timbrasil.com.br][opan][http://177.124.60.170:8087/painelDeControle.php?corpo=buscaSaldoInicial&salvo=1][Chrome]
[07-09-15][20:41:44][179.122.32.58][58.32.122.179.isp.timbrasil.com.br][opan][http://177.124.60.170:8087/painelDeControle.php?corpo=buscaRecebimentos][Chrome]
[07-09-15][20:42:06][201.76.73.141][c94c498d.virtua.com.br][][http://177.124.60.170:8087/esqueciSenha.php?][Chrome]
[07-09-15][20:42:21][179.122.32.58][58.32.122.179.isp.timbrasil.com.br][opan][http://177.124.60.170:8087/painelDeControle.php?corpo=BuscaRecebimentos&mesAtual=08&anoAtual=2015][Chrome]
[07-09-15][20:42:24][179.122.32.58][58.32.122.179.isp.timbrasil.com.br][opan][http://177.124.60.170:8087/painelDeControle.php?corpo=BuscaRecebimentos&mesAtual=07&anoAtual=2015][Chrome]
[07-09-15][20:42:26][179.122.32.58][58.32.122.179.isp.timbrasil.com.br][opan][http://177.124.60.170:8087/painelDeControle.php?corpo=BuscaRecebimentos&mesAtual=06&anoAtual=2015][Chrome]
[07-09-15][20:42:28][179.122.32.58][58.32.122.179.isp.timbrasil.com.br][opan][http://177.124.60.170:8087/painelDeControle.php?corpo=BuscaRecebimentos&mesAtual=05&anoAtual=2015][Chrome]
[07-09-15][20:42:30][179.122.32.58][58.32.122.179.isp.timbrasil.com.br][opan][http://177.124.60.170:8087/painelDeControle.php?corpo=BuscaRecebimentos&mesAtual=04&anoAtual=2015][Chrome]
[07-09-15][20:42:32][179.122.32.58][58.32.122.179.isp.timbrasil.com.br][opan][http://177.124.60.170:8087/painelDeControle.php?corpo=BuscaRecebimentos&mesAtual=03&anoAtual=2015][Chrome]
[07-09-15][20:42:34][179.122.32.58][58.32.122.179.isp.timbrasil.com.br][opan][http://177.124.60.170:8087/painelDeControle.php?corpo=BuscaRecebimentos&mesAtual=02&anoAtual=2015][Chrome]
[07-09-15][20:44:21][201.76.73.141][c94c498d.virtua.com.br][][http://177.124.60.170:8087/index.php?][Chrome]
[07-09-15][20:44:44][201.76.73.141][c94c498d.virtua.com.br][][http://177.124.60.170:8087/index.php?][Chrome]
[07-09-15][20:45:34][187.39.231.130][bb27e782.virtua.com.br][jmei][http://177.124.60.170:8087/painelDeControle.php?corpo=biblioteca][other]
[07-09-15][20:45:34][187.39.231.130][bb27e782.virtua.com.br][jmei][http://177.124.60.170:8087/painelDeControle.php?corpo=biblioteca][other]
[07-09-15][20:46:00][187.39.231.130][bb27e782.virtua.com.br][jmei][http://177.124.60.170:8087/painelDeControle.php?corpo=biblioteca][other]
[07-09-15][20:46:00][187.39.231.130][bb27e782.virtua.com.br][jmei][http://177.124.60.170:8087/painelDeControle.php?corpo=biblioteca][other]
[07-09-15][20:46:16][187.39.231.130][bb27e782.virtua.com.br][jmei][http://177.124.60.170:8087/painelDeControle.php?corpo=videoAulas][other]
[07-09-15][20:46:21][201.76.73.141][c94c498d.virtua.com.br][][http://177.124.60.170:8087/index.php?][Chrome]
[07-09-15][20:48:56][179.122.32.58][58.32.122.179.isp.timbrasil.com.br][opan][http://177.124.60.170:8087/painelDeControle.php?corpo=buscaDespesas][Chrome]
[07-09-15][20:49:44][187.39.231.130][bb27e782.virtua.com.br][jmei][http://177.124.60.170:8087/painelDeControle.php?corpo=buscaDiscurso][other]
[07-09-15][20:49:44][187.39.231.130][bb27e782.virtua.com.br][jmei][http://177.124.60.170:8087/painelDeControle.php?corpo=buscaDiscurso][other]
[07-09-15][20:51:32][179.122.32.58][58.32.122.179.isp.timbrasil.com.br][opan][http://177.124.60.170:8087/painelDeControle.php?corpo=buscaRendimentos][Chrome]
[07-09-15][20:53:01][179.122.32.58][58.32.122.179.isp.timbrasil.com.br][opan][http://177.124.60.170:8087/painelDeControle.php?corpo=buscaMembrosRosacruzesAtivos][Chrome]
[07-09-15][20:53:47][179.122.32.58][58.32.122.179.isp.timbrasil.com.br][opan][http://177.124.60.170:8087/painelDeControle.php?corpo=buscaMembroOA][Chrome]
[07-09-15][20:53:47][179.122.32.58][58.32.122.179.isp.timbrasil.com.br][opan][http://177.124.60.170:8087/painelDeControle.php?corpo=buscaMembroOA][Chrome]
[07-09-15][20:54:05][179.122.32.58][58.32.122.179.isp.timbrasil.com.br][opan][http://177.124.60.170:8087/painelDeControle.php?corpo=cadastroMembroOA][Chrome]
[07-09-15][20:54:05][179.122.32.58][58.32.122.179.isp.timbrasil.com.br][opan][http://177.124.60.170:8087/painelDeControle.php?corpo=cadastroMembroOA][Chrome]
[07-09-15][20:58:30][187.39.231.130][bb27e782.virtua.com.br][][http://177.124.60.170:8087/login.php?][other]
[07-09-15][21:04:50][187.14.99.106][187-14-99-106.user.veloxzone.com.br][][http://177.124.60.170:8087/index.php?][Chrome]
[07-09-15][21:05:10][187.14.99.106][187-14-99-106.user.veloxzone.com.br][ssou][http://177.124.60.170:8087/painelDeControle.php?][Chrome]
[07-09-15][21:05:10][187.14.99.106][187-14-99-106.user.veloxzone.com.br][ssou][http://177.124.60.170:8087/painelDeControle.php?][Chrome]
[07-09-15][21:05:33][187.14.99.106][187-14-99-106.user.veloxzone.com.br][ssou][http://177.124.60.170:8087/painelDeControle.php?corpo=chat][Chrome]
[07-09-15][21:05:33][187.14.99.106][187-14-99-106.user.veloxzone.com.br][ssou][http://177.124.60.170:8087/painelDeControle.php?corpo=chat][Chrome]
[07-09-15][21:05:44][187.14.99.106][187-14-99-106.user.veloxzone.com.br][ssou][http://177.124.60.170:8087/painelDeControle.php?corpo=chat&para=160137][Chrome]
[07-09-15][21:05:44][187.14.99.106][187-14-99-106.user.veloxzone.com.br][ssou][http://177.124.60.170:8087/painelDeControle.php?corpo=chat&para=160137][Chrome]
[07-09-15][21:08:13][179.122.32.58][58.32.122.179.isp.timbrasil.com.br][opan][http://177.124.60.170:8087/painelDeControle.php?corpo=buscaMembroOA][Chrome]
[07-09-15][21:08:13][179.122.32.58][58.32.122.179.isp.timbrasil.com.br][opan][http://177.124.60.170:8087/painelDeControle.php?corpo=buscaMembroOA][Chrome]
[07-09-15][21:08:48][179.122.32.58][58.32.122.179.isp.timbrasil.com.br][opan][http://177.124.60.170:8087/painelDeControle.php?corpo=buscaMembroAMORC][Chrome]
[07-09-15][21:09:28][187.14.99.106][187-14-99-106.user.veloxzone.com.br][ssou][http://177.124.60.170:8087/painelDeControle.php?corpo=perfilUsuario][Chrome]
[07-09-15][21:09:28][187.14.99.106][187-14-99-106.user.veloxzone.com.br][ssou][http://177.124.60.170:8087/painelDeControle.php?corpo=perfilUsuario][Chrome]
[07-09-15][21:10:12][179.122.32.58][58.32.122.179.isp.timbrasil.com.br][opan][http://177.124.60.170:8087/painelDeControle.php?corpo=buscaDividas][Chrome]
[07-09-15][21:11:38][187.14.99.106][187-14-99-106.user.veloxzone.com.br][ssou][http://177.124.60.170:8087/painelDeControle.php?corpo=perfilUsuario][Chrome]
[07-09-15][21:11:38][187.14.99.106][187-14-99-106.user.veloxzone.com.br][ssou][http://177.124.60.170:8087/painelDeControle.php?corpo=perfilUsuario][Chrome]
[07-09-15][21:11:56][179.122.32.58][58.32.122.179.isp.timbrasil.com.br][opan][http://177.124.60.170:8087/painelDeControle.php?corpo=buscaMensalidadeOA][Chrome]
[07-09-15][21:11:56][179.122.32.58][58.32.122.179.isp.timbrasil.com.br][opan][http://177.124.60.170:8087/painelDeControle.php?corpo=buscaMensalidadeOA][Chrome]
[07-09-15][21:12:20][187.14.99.106][187-14-99-106.user.veloxzone.com.br][ssou][http://177.124.60.170:8087/painelDeControle.php?][Chrome]
[07-09-15][21:12:20][187.14.99.106][187-14-99-106.user.veloxzone.com.br][ssou][http://177.124.60.170:8087/painelDeControle.php?][Chrome]
[07-09-15][21:12:29][187.14.99.106][187-14-99-106.user.veloxzone.com.br][ssou][http://177.124.60.170:8087/painelDeControle.php?corpo=chat][Chrome]
[07-09-15][21:12:29][187.14.99.106][187-14-99-106.user.veloxzone.com.br][ssou][http://177.124.60.170:8087/painelDeControle.php?corpo=chat][Chrome]
[07-09-15][21:12:52][187.14.99.106][187-14-99-106.user.veloxzone.com.br][ssou][http://177.124.60.170:8087/painelDeControle.php?corpo=perfilUsuario][Chrome]
[07-09-15][21:12:52][187.14.99.106][187-14-99-106.user.veloxzone.com.br][ssou][http://177.124.60.170:8087/painelDeControle.php?corpo=perfilUsuario][Chrome]
[07-09-15][21:12:57][179.122.32.58][58.32.122.179.isp.timbrasil.com.br][opan][http://177.124.60.170:8087/painelDeControle.php?corpo=buscaMensalidadeOA&anoAtual=2015&idOrganismoAfiliado=147&semestre=2][Chrome]
[07-09-15][21:12:57][179.122.32.58][58.32.122.179.isp.timbrasil.com.br][opan][http://177.124.60.170:8087/painelDeControle.php?corpo=buscaMensalidadeOA&anoAtual=2015&idOrganismoAfiliado=147&semestre=2][Chrome]
[07-09-15][21:13:07][179.122.32.58][58.32.122.179.isp.timbrasil.com.br][opan][http://177.124.60.170:8087/painelDeControle.php?corpo=buscaMensalidadeOA&anoAtual=2015&idOrganismoAfiliado=147&semestre=1][Chrome]
[07-09-15][21:13:07][179.122.32.58][58.32.122.179.isp.timbrasil.com.br][opan][http://177.124.60.170:8087/painelDeControle.php?corpo=buscaMensalidadeOA&anoAtual=2015&idOrganismoAfiliado=147&semestre=1][Chrome]
[07-09-15][21:13:18][179.122.32.58][58.32.122.179.isp.timbrasil.com.br][opan][http://177.124.60.170:8087/painelDeControle.php?corpo=buscaIsencaoOA][Chrome]
[07-09-15][21:13:18][179.122.32.58][58.32.122.179.isp.timbrasil.com.br][opan][http://177.124.60.170:8087/painelDeControle.php?corpo=buscaIsencaoOA][Chrome]
[07-09-15][21:13:26][187.14.99.106][187-14-99-106.user.veloxzone.com.br][][http://177.124.60.170:8087/login.php?][Chrome]
[07-09-15][21:13:36][179.122.32.58][58.32.122.179.isp.timbrasil.com.br][opan][http://177.124.60.170:8087/painelDeControle.php?corpo=buscaRelatorioMensalFinanceiro][Chrome]
[07-09-15][21:13:45][179.122.32.58][58.32.122.179.isp.timbrasil.com.br][opan][http://177.124.60.170:8087/painelDeControle.php?corpo=buscaRelatorioMensalFinanceiro&mesAtual=08&anoAtual=2015][Chrome]
[07-09-15][21:13:47][179.122.32.58][58.32.122.179.isp.timbrasil.com.br][opan][http://177.124.60.170:8087/painelDeControle.php?corpo=buscaRelatorioMensalFinanceiro&mesAtual=07&anoAtual=2015][Chrome]
[07-09-15][21:13:51][179.122.32.58][58.32.122.179.isp.timbrasil.com.br][opan][http://177.124.60.170:8087/painelDeControle.php?corpo=buscaRelatorioMensalFinanceiro&mesAtual=06&anoAtual=2015][Chrome]
[07-09-15][21:13:54][179.122.32.58][58.32.122.179.isp.timbrasil.com.br][opan][http://177.124.60.170:8087/painelDeControle.php?corpo=buscaRelatorioMensalFinanceiro&mesAtual=05&anoAtual=2015][Chrome]
[07-09-15][21:13:57][179.122.32.58][58.32.122.179.isp.timbrasil.com.br][opan][http://177.124.60.170:8087/painelDeControle.php?corpo=buscaRelatorioMensalFinanceiro&mesAtual=04&anoAtual=2015][Chrome]
[07-09-15][21:13:59][179.122.32.58][58.32.122.179.isp.timbrasil.com.br][opan][http://177.124.60.170:8087/painelDeControle.php?corpo=buscaRelatorioMensalFinanceiro&mesAtual=03&anoAtual=2015][Chrome]
[07-09-15][21:14:01][179.122.32.58][58.32.122.179.isp.timbrasil.com.br][opan][http://177.124.60.170:8087/painelDeControle.php?corpo=buscaRelatorioMensalFinanceiro&mesAtual=02&anoAtual=2015][Chrome]
[07-09-15][21:14:13][179.122.32.58][58.32.122.179.isp.timbrasil.com.br][opan][http://177.124.60.170:8087/painelDeControle.php?corpo=buscaRelatorioMensalFinanceiro&mesAtual=01&anoAtual=2015][Chrome]
[07-09-15][21:14:46][187.14.99.106][187-14-99-106.user.veloxzone.com.br][][http://177.124.60.170:8087/login.php?incorreto=1][Chrome]
[07-09-15][21:14:52][179.122.32.58][58.32.122.179.isp.timbrasil.com.br][opan][http://177.124.60.170:8087/painelDeControle.php?corpo=buscaRendimentos][Chrome]
[07-09-15][21:14:56][187.14.99.106][187-14-99-106.user.veloxzone.com.br][][http://177.124.60.170:8087/esqueciSenha.php?][Chrome]
[07-09-15][21:15:00][179.122.32.58][58.32.122.179.isp.timbrasil.com.br][opan][http://177.124.60.170:8087/painelDeControle.php?corpo=BuscaRendimentos&mesAtual=08&anoAtual=2015][Chrome]
[07-09-15][21:15:03][179.122.32.58][58.32.122.179.isp.timbrasil.com.br][opan][http://177.124.60.170:8087/painelDeControle.php?corpo=BuscaRendimentos&mesAtual=07&anoAtual=2015][Chrome]
[07-09-15][21:15:04][179.122.32.58][58.32.122.179.isp.timbrasil.com.br][opan][http://177.124.60.170:8087/painelDeControle.php?corpo=BuscaRendimentos&mesAtual=06&anoAtual=2015][Chrome]
[07-09-15][21:15:06][179.122.32.58][58.32.122.179.isp.timbrasil.com.br][opan][http://177.124.60.170:8087/painelDeControle.php?corpo=BuscaRendimentos&mesAtual=05&anoAtual=2015][Chrome]
[07-09-15][21:15:08][179.122.32.58][58.32.122.179.isp.timbrasil.com.br][opan][http://177.124.60.170:8087/painelDeControle.php?corpo=BuscaRendimentos&mesAtual=04&anoAtual=2015][Chrome]
[07-09-15][21:15:10][179.122.32.58][58.32.122.179.isp.timbrasil.com.br][opan][http://177.124.60.170:8087/painelDeControle.php?corpo=BuscaRendimentos&mesAtual=03&anoAtual=2015][Chrome]
[07-09-15][21:15:14][179.122.32.58][58.32.122.179.isp.timbrasil.com.br][opan][http://177.124.60.170:8087/painelDeControle.php?corpo=BuscaRendimentos&mesAtual=02&anoAtual=2015][Chrome]
[07-09-15][21:15:16][179.122.32.58][58.32.122.179.isp.timbrasil.com.br][opan][http://177.124.60.170:8087/painelDeControle.php?corpo=BuscaRendimentos&mesAtual=02&anoAtual=2015][Chrome]
[07-09-15][21:15:18][187.14.99.106][187-14-99-106.user.veloxzone.com.br][][http://177.124.60.170:8087/esqueciSenha.php?][Chrome]
[07-09-15][21:15:22][179.122.32.58][58.32.122.179.isp.timbrasil.com.br][opan][http://177.124.60.170:8087/painelDeControle.php?corpo=BuscaRendimentos&mesAtual=01&anoAtual=2015][Chrome]
[07-09-15][21:15:24][187.14.99.106][187-14-99-106.user.veloxzone.com.br][][http://177.124.60.170:8087/login.php?incorreto=1][Chrome]
[07-09-15][21:15:24][187.14.99.106][187-14-99-106.user.veloxzone.com.br][][http://177.124.60.170:8087/login.php?][Chrome]
[07-09-15][21:16:32][179.122.32.58][58.32.122.179.isp.timbrasil.com.br][opan][http://177.124.60.170:8087/painelDeControle.php?corpo=BuscaRendimentos&mesAtual=02&anoAtual=2015][Chrome]
[07-09-15][21:16:35][187.14.99.106][187-14-99-106.user.veloxzone.com.br][][http://177.124.60.170:8087/login.php?][Chrome]
[07-09-15][21:16:45][179.122.32.58][58.32.122.179.isp.timbrasil.com.br][opan][http://177.124.60.170:8087/painelDeControle.php?corpo=buscaRelatorioMensalFinanceiro][Chrome]
[07-09-15][21:18:43][187.14.99.106][187-14-99-106.user.veloxzone.com.br][][http://177.124.60.170:8087/login.php?][Chrome]
[07-09-15][21:19:01][179.122.32.58][58.32.122.179.isp.timbrasil.com.br][opan][http://177.124.60.170:8087/painelDeControle.php?corpo=buscaMembrosRosacruzesAtivos][Chrome]
[07-09-15][21:19:08][187.7.20.162][187-7-20-162.bnut3703.dsl.brasiltelecom.net.br][][http://177.124.60.170:8087/index.php?][Chrome]
[07-09-15][21:19:09][179.122.32.58][58.32.122.179.isp.timbrasil.com.br][opan][http://177.124.60.170:8087/painelDeControle.php?corpo=buscaMembrosRosacruzesAtivos&mesAtual=08&anoAtual=2015][Chrome]
[07-09-15][21:19:12][179.122.32.58][58.32.122.179.isp.timbrasil.com.br][opan][http://177.124.60.170:8087/painelDeControle.php?corpo=buscaMembrosRosacruzesAtivos&mesAtual=07&anoAtual=2015][Chrome]
[07-09-15][21:19:15][187.7.20.162][187-7-20-162.bnut3703.dsl.brasiltelecom.net.br][ffor][http://177.124.60.170:8087/painelDeControle.php?][Chrome]
[07-09-15][21:19:15][187.7.20.162][187-7-20-162.bnut3703.dsl.brasiltelecom.net.br][ffor][http://177.124.60.170:8087/painelDeControle.php?][Chrome]
[07-09-15][21:19:16][179.122.32.58][58.32.122.179.isp.timbrasil.com.br][opan][http://177.124.60.170:8087/painelDeControle.php?corpo=buscaMembrosRosacruzesAtivos&mesAtual=06&anoAtual=2015][Chrome]
[07-09-15][21:19:18][179.122.32.58][58.32.122.179.isp.timbrasil.com.br][opan][http://177.124.60.170:8087/painelDeControle.php?corpo=buscaMembrosRosacruzesAtivos&mesAtual=05&anoAtual=2015][Chrome]
[07-09-15][21:19:21][179.122.32.58][58.32.122.179.isp.timbrasil.com.br][opan][http://177.124.60.170:8087/painelDeControle.php?corpo=buscaMembrosRosacruzesAtivos&mesAtual=04&anoAtual=2015][Chrome]
[07-09-15][21:19:23][179.122.32.58][58.32.122.179.isp.timbrasil.com.br][opan][http://177.124.60.170:8087/painelDeControle.php?corpo=buscaMembrosRosacruzesAtivos&mesAtual=03&anoAtual=2015][Chrome]
[07-09-15][21:19:25][179.122.32.58][58.32.122.179.isp.timbrasil.com.br][opan][http://177.124.60.170:8087/painelDeControle.php?corpo=buscaMembrosRosacruzesAtivos&mesAtual=02&anoAtual=2015][Chrome]
[07-09-15][21:19:30][179.122.32.58][58.32.122.179.isp.timbrasil.com.br][opan][http://177.124.60.170:8087/painelDeControle.php?corpo=buscaMembrosRosacruzesAtivos&mesAtual=01&anoAtual=2015][Chrome]
[07-09-15][21:19:41][187.7.20.162][187-7-20-162.bnut3703.dsl.brasiltelecom.net.br][ffor][http://177.124.60.170:8087/painelDeControle.php?corpo=cadastroAtaReuniaoMensal][Chrome]
[07-09-15][21:19:41][187.7.20.162][187-7-20-162.bnut3703.dsl.brasiltelecom.net.br][ffor][http://177.124.60.170:8087/painelDeControle.php?corpo=cadastroAtaReuniaoMensal][Chrome]
[07-09-15][21:20:24][187.7.20.162][187-7-20-162.bnut3703.dsl.brasiltelecom.net.br][ffor][http://177.124.60.170:8087/painelDeControle.php?corpo=buscaAtaReuniaoMensal][Chrome]
[07-09-15][21:20:24][187.7.20.162][187-7-20-162.bnut3703.dsl.brasiltelecom.net.br][ffor][http://177.124.60.170:8087/painelDeControle.php?corpo=buscaAtaReuniaoMensal][Chrome]
[07-09-15][21:20:41][187.7.20.162][187-7-20-162.bnut3703.dsl.brasiltelecom.net.br][ffor][http://177.124.60.170:8087/painelDeControle.php?corpo=cadastroAtaReuniaoMensal][Chrome]
[07-09-15][21:20:41][187.7.20.162][187-7-20-162.bnut3703.dsl.brasiltelecom.net.br][ffor][http://177.124.60.170:8087/painelDeControle.php?corpo=cadastroAtaReuniaoMensal][Chrome]
[07-09-15][21:20:46][187.7.20.162][187-7-20-162.bnut3703.dsl.brasiltelecom.net.br][ffor][http://177.124.60.170:8087/painelDeControle.php?][Chrome]
[07-09-15][21:20:46][187.7.20.162][187-7-20-162.bnut3703.dsl.brasiltelecom.net.br][ffor][http://177.124.60.170:8087/painelDeControle.php?][Chrome]
[07-09-15][21:20:57][187.7.20.162][187-7-20-162.bnut3703.dsl.brasiltelecom.net.br][ffor][http://177.124.60.170:8087/painelDeControle.php?corpo=listaDeAtualizacoesServer][Chrome]
[07-09-15][21:20:57][187.7.20.162][187-7-20-162.bnut3703.dsl.brasiltelecom.net.br][ffor][http://177.124.60.170:8087/painelDeControle.php?corpo=listaDeAtualizacoesServer][Chrome]
[07-09-15][21:21:43][187.7.20.162][187-7-20-162.bnut3703.dsl.brasiltelecom.net.br][ffor][http://177.124.60.170:8087/painelDeControle.php?corpo=detalheAtualizacoesServer&idNotificacao=5][Chrome]
[07-09-15][21:21:43][187.7.20.162][187-7-20-162.bnut3703.dsl.brasiltelecom.net.br][ffor][http://177.124.60.170:8087/painelDeControle.php?corpo=detalheAtualizacoesServer&idNotificacao=5][Chrome]
[07-09-15][21:22:26][187.14.99.106][187-14-99-106.user.veloxzone.com.br][][http://177.124.60.170:8087/index.php?][Chrome]
[07-09-15][21:22:44][187.7.20.162][187-7-20-162.bnut3703.dsl.brasiltelecom.net.br][ffor][http://177.124.60.170:8087/painelDeControle.php?corpo=listaDeAtualizacoesServer][Chrome]
[07-09-15][21:22:44][187.7.20.162][187-7-20-162.bnut3703.dsl.brasiltelecom.net.br][ffor][http://177.124.60.170:8087/painelDeControle.php?corpo=listaDeAtualizacoesServer][Chrome]
[07-09-15][21:22:58][187.7.20.162][187-7-20-162.bnut3703.dsl.brasiltelecom.net.br][ffor][http://177.124.60.170:8087/painelDeControle.php?corpo=detalheAtualizacoesServer&idNotificacao=7][Chrome]
[07-09-15][21:22:58][187.7.20.162][187-7-20-162.bnut3703.dsl.brasiltelecom.net.br][ffor][http://177.124.60.170:8087/painelDeControle.php?corpo=detalheAtualizacoesServer&idNotificacao=7][Chrome]
[07-09-15][21:23:32][187.7.20.162][187-7-20-162.bnut3703.dsl.brasiltelecom.net.br][ffor][http://177.124.60.170:8087/painelDeControle.php?corpo=buscaMembroAMORC][Chrome]
[07-09-15][21:24:21][187.7.20.162][187-7-20-162.bnut3703.dsl.brasiltelecom.net.br][ffor][http://177.124.60.170:8087/painelDeControle.php?corpo=buscaMembroOA][Chrome]
[07-09-15][21:24:21][187.7.20.162][187-7-20-162.bnut3703.dsl.brasiltelecom.net.br][ffor][http://177.124.60.170:8087/painelDeControle.php?corpo=buscaMembroOA][Chrome]
[07-09-15][21:24:45][187.7.20.162][187-7-20-162.bnut3703.dsl.brasiltelecom.net.br][ffor][http://177.124.60.170:8087/painelDeControle.php?corpo=buscaOrganismo][Chrome]
[07-09-15][21:24:45][187.7.20.162][187-7-20-162.bnut3703.dsl.brasiltelecom.net.br][ffor][http://177.124.60.170:8087/painelDeControle.php?corpo=buscaOrganismo][Chrome]
[07-09-15][21:24:54][187.7.20.162][187-7-20-162.bnut3703.dsl.brasiltelecom.net.br][ffor][http://177.124.60.170:8087/painelDeControle.php?corpo=buscaDiscurso][Chrome]
[07-09-15][21:24:54][187.7.20.162][187-7-20-162.bnut3703.dsl.brasiltelecom.net.br][ffor][http://177.124.60.170:8087/painelDeControle.php?corpo=buscaDiscurso][Chrome]
[07-09-15][21:25:34][179.122.32.58][58.32.122.179.isp.timbrasil.com.br][opan][http://177.124.60.170:8087/painelDeControle.php?corpo=buscaMembrosRosacruzesAtivos&mesAtual=02&anoAtual=2015][Chrome]
[07-09-15][21:25:48][179.122.32.58][58.32.122.179.isp.timbrasil.com.br][opan][http://177.124.60.170:8087/painelDeControle.php?corpo=buscaMembrosRosacruzesAtivos&mesAtual=03&anoAtual=2015][Chrome]
[07-09-15][21:25:58][179.122.32.58][58.32.122.179.isp.timbrasil.com.br][opan][http://177.124.60.170:8087/painelDeControle.php?corpo=buscaMembrosRosacruzesAtivos&mesAtual=04&anoAtual=2015][Chrome]
[07-09-15][21:26:28][179.122.32.58][58.32.122.179.isp.timbrasil.com.br][opan][http://177.124.60.170:8087/painelDeControle.php?corpo=buscaMembrosRosacruzesAtivos&mesAtual=05&anoAtual=2015][Chrome]
[07-09-15][21:26:47][179.122.32.58][58.32.122.179.isp.timbrasil.com.br][opan][http://177.124.60.170:8087/painelDeControle.php?corpo=buscaMembrosRosacruzesAtivos&mesAtual=06&anoAtual=2015][Chrome]
[07-09-15][21:26:58][179.122.32.58][58.32.122.179.isp.timbrasil.com.br][opan][http://177.124.60.170:8087/painelDeControle.php?corpo=buscaMembrosRosacruzesAtivos&mesAtual=07&anoAtual=2015][Chrome]
[07-09-15][21:27:15][179.122.32.58][58.32.122.179.isp.timbrasil.com.br][opan][http://177.124.60.170:8087/painelDeControle.php?corpo=buscaRelatorioMensalFinanceiro][Chrome]
[07-09-15][21:27:39][179.122.32.58][58.32.122.179.isp.timbrasil.com.br][opan][http://177.124.60.170:8087/painelDeControle.php?corpo=buscaRelatorioMensalFinanceiro&mesAtual=02&anoAtual=2015][Chrome]
[07-09-15][21:28:12][187.7.20.162][187-7-20-162.bnut3703.dsl.brasiltelecom.net.br][ffor][http://177.124.60.170:8087/painelDeControle.php?corpo=buscaRecebimentos][Chrome]
[07-09-15][21:28:25][179.122.32.58][58.32.122.179.isp.timbrasil.com.br][opan][http://177.124.60.170:8087/painelDeControle.php?][Chrome]
[07-09-15][21:28:25][179.122.32.58][58.32.122.179.isp.timbrasil.com.br][opan][http://177.124.60.170:8087/painelDeControle.php?][Chrome]
[07-09-15][21:28:37][187.7.20.162][187-7-20-162.bnut3703.dsl.brasiltelecom.net.br][ffor][http://177.124.60.170:8087/painelDeControle.php?corpo=perfilUsuario][Chrome]
[07-09-15][21:28:37][187.7.20.162][187-7-20-162.bnut3703.dsl.brasiltelecom.net.br][ffor][http://177.124.60.170:8087/painelDeControle.php?corpo=perfilUsuario][Chrome]
[07-09-15][21:29:26][179.122.32.58][58.32.122.179.isp.timbrasil.com.br][opan][http://177.124.60.170:8087/painelDeControle.php?corpo=buscaRelatorioAnualFinanceiro][Chrome]
[07-09-15][21:32:07][179.122.32.58][58.32.122.179.isp.timbrasil.com.br][opan][http://177.124.60.170:8087/painelDeControle.php?corpo=buscaRecebimentos][Chrome]
[07-09-15][21:32:13][179.122.32.58][58.32.122.179.isp.timbrasil.com.br][opan][http://177.124.60.170:8087/painelDeControle.php?corpo=BuscaRecebimentos&mesAtual=03&anoAtual=2015][Chrome]
[07-09-15][21:33:10][187.7.20.162][187-7-20-162.bnut3703.dsl.brasiltelecom.net.br][ffor][http://177.124.60.170:8087/painelDeControle.php?corpo=videoAulas][Chrome]
[07-09-15][21:34:01][179.122.32.58][58.32.122.179.isp.timbrasil.com.br][opan][http://177.124.60.170:8087/painelDeControle.php?corpo=buscaDespesas][Chrome]
[07-09-15][21:34:14][179.122.32.58][58.32.122.179.isp.timbrasil.com.br][opan][http://177.124.60.170:8087/painelDeControle.php?corpo=BuscaDespesas&mesAtual=08&anoAtual=2015][Chrome]
[07-09-15][21:34:17][179.122.32.58][58.32.122.179.isp.timbrasil.com.br][opan][http://177.124.60.170:8087/painelDeControle.php?corpo=BuscaDespesas&mesAtual=07&anoAtual=2015][Chrome]
[07-09-15][21:34:20][179.122.32.58][58.32.122.179.isp.timbrasil.com.br][opan][http://177.124.60.170:8087/painelDeControle.php?corpo=BuscaDespesas&mesAtual=06&anoAtual=2015][Chrome]
[07-09-15][21:34:23][179.122.32.58][58.32.122.179.isp.timbrasil.com.br][opan][http://177.124.60.170:8087/painelDeControle.php?corpo=BuscaDespesas&mesAtual=05&anoAtual=2015][Chrome]
[07-09-15][21:34:26][179.122.32.58][58.32.122.179.isp.timbrasil.com.br][opan][http://177.124.60.170:8087/painelDeControle.php?corpo=BuscaDespesas&mesAtual=04&anoAtual=2015][Chrome]
[07-09-15][21:34:30][179.122.32.58][58.32.122.179.isp.timbrasil.com.br][opan][http://177.124.60.170:8087/painelDeControle.php?corpo=BuscaDespesas&mesAtual=03&anoAtual=2015][Chrome]
[07-09-15][21:34:35][179.122.32.58][58.32.122.179.isp.timbrasil.com.br][opan][http://177.124.60.170:8087/painelDeControle.php?corpo=BuscaDespesas&mesAtual=02&anoAtual=2015][Chrome]
[07-09-15][21:34:42][179.122.32.58][58.32.122.179.isp.timbrasil.com.br][opan][http://177.124.60.170:8087/painelDeControle.php?corpo=BuscaDespesas&mesAtual=03&anoAtual=2015][Chrome]
[07-09-15][21:35:39][179.122.32.58][58.32.122.179.isp.timbrasil.com.br][opan][http://177.124.60.170:8087/painelDeControle.php?corpo=buscaRendimentos][Chrome]
[07-09-15][21:36:07][179.122.32.58][58.32.122.179.isp.timbrasil.com.br][opan][http://177.124.60.170:8087/painelDeControle.php?corpo=BuscaRendimentos&mesAtual=03&anoAtual=2015][Chrome]
[07-09-15][21:37:18][179.122.32.58][58.32.122.179.isp.timbrasil.com.br][opan][http://177.124.60.170:8087/painelDeControle.php?corpo=buscaRelatorioMensalFinanceiro][Chrome]
[07-09-15][21:37:46][179.122.32.58][58.32.122.179.isp.timbrasil.com.br][opan][http://177.124.60.170:8087/painelDeControle.php?corpo=buscaRelatorioMensalFinanceiro&mesAtual=03&anoAtual=2015][Chrome]
[07-09-15][21:40:52][187.24.255.199][187-24-255-199.3g.claro.net.br][][http://177.124.60.170:8087/index.php?][Chrome]
[07-09-15][21:41:07][187.24.255.199][187-24-255-199.3g.claro.net.br][mcar][http://177.124.60.170:8087/painelDeControle.php?][Chrome]
[07-09-15][21:41:07][187.24.255.199][187-24-255-199.3g.claro.net.br][mcar][http://177.124.60.170:8087/painelDeControle.php?][Chrome]
[07-09-15][21:41:38][187.24.255.199][187-24-255-199.3g.claro.net.br][mcar][http://177.124.60.170:8087/painelDeControle.php?corpo=biblioteca][Chrome]
[07-09-15][21:41:38][187.24.255.199][187-24-255-199.3g.claro.net.br][mcar][http://177.124.60.170:8087/painelDeControle.php?corpo=biblioteca][Chrome]
[07-09-15][21:41:49][179.122.32.58][58.32.122.179.isp.timbrasil.com.br][][http://177.124.60.170:8087/login.php?][Chrome]
[07-09-15][21:42:34][179.122.32.58][58.32.122.179.isp.timbrasil.com.br][][http://177.124.60.170:8087/index.php?][Chrome]
[07-09-15][21:43:23][179.122.32.58][58.32.122.179.isp.timbrasil.com.br][][http://177.124.60.170:8087/login.php?][Chrome]
[07-09-15][21:51:30][187.24.255.199][187-24-255-199.3g.claro.net.br][mcar][http://177.124.60.170:8087/painelDeControle.php?corpo=biblioteca][Chrome]
[07-09-15][21:51:30][187.24.255.199][187-24-255-199.3g.claro.net.br][mcar][http://177.124.60.170:8087/painelDeControle.php?corpo=biblioteca][Chrome]
[07-09-15][21:55:47][177.158.177.204][177.158.177.204.dynamic.adsl.gvt.net.br][][http://177.124.60.170:8087/telaDeBloqueio.php?][Chrome]
[07-09-15][21:56:19][177.158.177.204][177.158.177.204.dynamic.adsl.gvt.net.br][][http://177.124.60.170:8087/login.php?incorreto=1][Chrome]
[07-09-15][21:57:17][177.158.177.204][177.158.177.204.dynamic.adsl.gvt.net.br][jofilho][http://177.124.60.170:8087/painelDeControle.php?][Chrome]
[07-09-15][21:57:17][177.158.177.204][177.158.177.204.dynamic.adsl.gvt.net.br][jofilho][http://177.124.60.170:8087/painelDeControle.php?][Chrome]
[07-09-15][21:58:43][177.158.177.204][177.158.177.204.dynamic.adsl.gvt.net.br][jofilho][http://177.124.60.170:8087/painelDeControle.php?corpo=biblioteca][Chrome]
[07-09-15][21:58:43][177.158.177.204][177.158.177.204.dynamic.adsl.gvt.net.br][jofilho][http://177.124.60.170:8087/painelDeControle.php?corpo=biblioteca][Chrome]
[07-09-15][22:04:40][187.24.255.199][187-24-255-199.3g.claro.net.br][mcar][http://177.124.60.170:8087/painelDeControle.php?corpo=biblioteca][Chrome]
[07-09-15][22:04:40][187.24.255.199][187-24-255-199.3g.claro.net.br][mcar][http://177.124.60.170:8087/painelDeControle.php?corpo=biblioteca][Chrome]
[07-09-15][22:14:25][187.24.255.199][187-24-255-199.3g.claro.net.br][][http://177.124.60.170:8087/login.php?][Chrome]
[07-09-15][23:50:26][177.158.177.204][177.158.177.204.dynamic.adsl.gvt.net.br][][http://177.124.60.170:8087/index.php?][Chrome]
[07-09-15][23:50:46][177.158.177.204][177.158.177.204.dynamic.adsl.gvt.net.br][][http://177.124.60.170:8087/login.php?incorreto=1][Chrome]
[07-09-15][23:51:02][177.158.177.204][177.158.177.204.dynamic.adsl.gvt.net.br][][http://177.124.60.170:8087/index.php?][Chrome]
[07-09-15][23:51:21][177.158.177.204][177.158.177.204.dynamic.adsl.gvt.net.br][jofilho][http://177.124.60.170:8087/painelDeControle.php?][Chrome]
[07-09-15][23:51:21][177.158.177.204][177.158.177.204.dynamic.adsl.gvt.net.br][jofilho][http://177.124.60.170:8087/painelDeControle.php?][Chrome]
[07-09-15][23:51:26][177.158.177.204][177.158.177.204.dynamic.adsl.gvt.net.br][jofilho][http://177.124.60.170:8087/painelDeControle.php?corpo=biblioteca][Chrome]
[07-09-15][23:51:26][177.158.177.204][177.158.177.204.dynamic.adsl.gvt.net.br][jofilho][http://177.124.60.170:8087/painelDeControle.php?corpo=biblioteca][Chrome]
