[09-07-15][08:05:08][179.184.37.5][179.184.37.5.static.gvt.net.br][][http://177.124.60.170:8087/index.php?][Chrome]
[09-07-15][08:05:12][179.184.37.5][179.184.37.5.static.gvt.net.br][eele][http://177.124.60.170:8087/painelDeControle.php?][Chrome]
[09-07-15][08:05:12][179.184.37.5][179.184.37.5.static.gvt.net.br][eele][http://177.124.60.170:8087/painelDeControle.php?][Chrome]
[09-07-15][08:05:22][179.184.37.5][179.184.37.5.static.gvt.net.br][eele][http://177.124.60.170:8087/painelDeControle.php?corpo=buscaAtaPosse][Chrome]
[09-07-15][08:05:22][179.184.37.5][179.184.37.5.static.gvt.net.br][eele][http://177.124.60.170:8087/painelDeControle.php?corpo=buscaAtaPosse][Chrome]
[09-07-15][08:05:44][179.184.37.5][179.184.37.5.static.gvt.net.br][eele][http://177.124.60.170:8087/painelDeControle.php?corpo=buscaAtaPosse][Chrome]
[09-07-15][08:05:44][179.184.37.5][179.184.37.5.static.gvt.net.br][eele][http://177.124.60.170:8087/painelDeControle.php?corpo=buscaAtaPosse][Chrome]
[09-07-15][08:05:54][179.184.37.5][179.184.37.5.static.gvt.net.br][eele][http://177.124.60.170:8087/painelDeControle.php?][Chrome]
[09-07-15][08:05:54][179.184.37.5][179.184.37.5.static.gvt.net.br][eele][http://177.124.60.170:8087/painelDeControle.php?][Chrome]
[09-07-15][08:05:59][179.184.37.5][179.184.37.5.static.gvt.net.br][eele][http://177.124.60.170:8087/painelDeControle.php?corpo=buscaAtaPosse][Chrome]
[09-07-15][08:05:59][179.184.37.5][179.184.37.5.static.gvt.net.br][eele][http://177.124.60.170:8087/painelDeControle.php?corpo=buscaAtaPosse][Chrome]
[09-07-15][08:08:52][179.184.37.5][179.184.37.5.static.gvt.net.br][eele][http://177.124.60.170:8087/painelDeControle.php?][Chrome]
[09-07-15][08:08:52][179.184.37.5][179.184.37.5.static.gvt.net.br][eele][http://177.124.60.170:8087/painelDeControle.php?][Chrome]
[09-07-15][08:08:56][179.184.37.5][179.184.37.5.static.gvt.net.br][eele][http://177.124.60.170:8087/painelDeControle.php?corpo=buscaAtaPosse][Chrome]
[09-07-15][08:08:56][179.184.37.5][179.184.37.5.static.gvt.net.br][eele][http://177.124.60.170:8087/painelDeControle.php?corpo=buscaAtaPosse][Chrome]
[09-07-15][08:09:23][179.184.37.5][179.184.37.5.static.gvt.net.br][eele][http://177.124.60.170:8087/painelDeControle.php?corpo=alteraAtaPosse&idata_posse=2][Chrome]
[09-07-15][08:09:23][179.184.37.5][179.184.37.5.static.gvt.net.br][eele][http://177.124.60.170:8087/painelDeControle.php?corpo=alteraAtaPosse&idata_posse=2][Chrome]
[09-07-15][08:11:12][179.184.37.5][179.184.37.5.static.gvt.net.br][eele][http://177.124.60.170:8087/painelDeControle.php?corpo=buscaAtaPosse][Chrome]
[09-07-15][08:11:12][179.184.37.5][179.184.37.5.static.gvt.net.br][eele][http://177.124.60.170:8087/painelDeControle.php?corpo=buscaAtaPosse][Chrome]
[09-07-15][08:12:00][179.184.37.5][179.184.37.5.static.gvt.net.br][eele][http://177.124.60.170:8087/painelDeControle.php?corpo=buscaAtaPosse][Chrome]
[09-07-15][08:12:00][179.184.37.5][179.184.37.5.static.gvt.net.br][eele][http://177.124.60.170:8087/painelDeControle.php?corpo=buscaAtaPosse][Chrome]
[09-07-15][08:15:57][179.184.37.5][179.184.37.5.static.gvt.net.br][][http://177.124.60.170:8087/login.php?][Chrome]
[09-07-15][08:16:12][179.184.37.5][179.184.37.5.static.gvt.net.br][lbas][http://177.124.60.170:8087/painelDeControle.php?][Chrome]
[09-07-15][08:16:12][179.184.37.5][179.184.37.5.static.gvt.net.br][lbas][http://177.124.60.170:8087/painelDeControle.php?][Chrome]
[09-07-15][08:16:27][179.184.37.5][179.184.37.5.static.gvt.net.br][lbas][http://177.124.60.170:8087/painelDeControle.php?][Chrome]
[09-07-15][08:16:27][179.184.37.5][179.184.37.5.static.gvt.net.br][lbas][http://177.124.60.170:8087/painelDeControle.php?][Chrome]
[09-07-15][08:18:16][179.184.37.5][179.184.37.5.static.gvt.net.br][lbas][http://177.124.60.170:8087/login.php?][Chrome]
[09-07-15][08:18:25][179.184.37.5][179.184.37.5.static.gvt.net.br][eele][http://177.124.60.170:8087/painelDeControle.php?][Chrome]
[09-07-15][08:18:25][179.184.37.5][179.184.37.5.static.gvt.net.br][eele][http://177.124.60.170:8087/painelDeControle.php?][Chrome]
[09-07-15][08:19:21][179.184.37.5][179.184.37.5.static.gvt.net.br][eele][http://177.124.60.170:8087/painelDeControle.php?corpo=buscaAtaPosse][Chrome]
[09-07-15][08:19:21][179.184.37.5][179.184.37.5.static.gvt.net.br][eele][http://177.124.60.170:8087/painelDeControle.php?corpo=buscaAtaPosse][Chrome]
[09-07-15][08:19:39][179.184.37.5][179.184.37.5.static.gvt.net.br][eele][http://177.124.60.170:8087/painelDeControle.php?][Chrome]
[09-07-15][08:19:39][179.184.37.5][179.184.37.5.static.gvt.net.br][eele][http://177.124.60.170:8087/painelDeControle.php?][Chrome]
[09-07-15][08:20:02][179.184.37.5][179.184.37.5.static.gvt.net.br][eele][http://177.124.60.170:8087/painelDeControle.php?corpo=buscaAtaPosse][Chrome]
[09-07-15][08:20:02][179.184.37.5][179.184.37.5.static.gvt.net.br][eele][http://177.124.60.170:8087/painelDeControle.php?corpo=buscaAtaPosse][Chrome]
[09-07-15][08:20:19][179.184.37.5][179.184.37.5.static.gvt.net.br][eele][http://177.124.60.170:8087/painelDeControle.php?corpo=alteraAtaPosse&idata_posse=2][Chrome]
[09-07-15][08:20:19][179.184.37.5][179.184.37.5.static.gvt.net.br][eele][http://177.124.60.170:8087/painelDeControle.php?corpo=alteraAtaPosse&idata_posse=2][Chrome]
[09-07-15][08:21:32][179.184.37.5][179.184.37.5.static.gvt.net.br][eele][http://177.124.60.170:8087/painelDeControle.php?corpo=buscaAtaPosse][Chrome]
[09-07-15][08:21:32][179.184.37.5][179.184.37.5.static.gvt.net.br][eele][http://177.124.60.170:8087/painelDeControle.php?corpo=buscaAtaPosse][Chrome]
[09-07-15][08:21:35][179.184.37.5][179.184.37.5.static.gvt.net.br][eele][http://177.124.60.170:8087/painelDeControle.php?corpo=cadastroAtaPosse][Chrome]
[09-07-15][08:21:35][179.184.37.5][179.184.37.5.static.gvt.net.br][eele][http://177.124.60.170:8087/painelDeControle.php?corpo=cadastroAtaPosse][Chrome]
[09-07-15][08:27:34][179.184.37.5][179.184.37.5.static.gvt.net.br][eele][http://177.124.60.170:8087/painelDeControle.php?corpo=buscaAtaPosse][Chrome]
[09-07-15][08:27:34][179.184.37.5][179.184.37.5.static.gvt.net.br][eele][http://177.124.60.170:8087/painelDeControle.php?corpo=buscaAtaPosse][Chrome]
[09-07-15][08:31:34][179.184.37.5][179.184.37.5.static.gvt.net.br][eele][http://177.124.60.170:8087/painelDeControle.php?corpo=cadastroAtaPosse][Chrome]
[09-07-15][08:31:34][179.184.37.5][179.184.37.5.static.gvt.net.br][eele][http://177.124.60.170:8087/painelDeControle.php?corpo=cadastroAtaPosse][Chrome]
[09-07-15][08:35:05][179.184.37.5][179.184.37.5.static.gvt.net.br][eele][http://177.124.60.170:8087/painelDeControle.php?corpo=buscaAtaPosse][Chrome]
[09-07-15][08:35:05][179.184.37.5][179.184.37.5.static.gvt.net.br][eele][http://177.124.60.170:8087/painelDeControle.php?corpo=buscaAtaPosse][Chrome]
[09-07-15][08:35:40][179.184.37.5][179.184.37.5.static.gvt.net.br][eele][http://177.124.60.170:8087/painelDeControle.php?][Chrome]
[09-07-15][08:35:40][179.184.37.5][179.184.37.5.static.gvt.net.br][eele][http://177.124.60.170:8087/painelDeControle.php?][Chrome]
[09-07-15][08:35:46][179.184.37.5][179.184.37.5.static.gvt.net.br][eele][http://177.124.60.170:8087/painelDeControle.php?corpo=buscaAtaPosse][Chrome]
[09-07-15][08:35:46][179.184.37.5][179.184.37.5.static.gvt.net.br][eele][http://177.124.60.170:8087/painelDeControle.php?corpo=buscaAtaPosse][Chrome]
[09-07-15][08:36:48][179.184.37.5][179.184.37.5.static.gvt.net.br][eele][http://177.124.60.170:8087/painelDeControle.php?corpo=alteraAtaPosse&idata_posse=1][Chrome]
[09-07-15][08:36:48][179.184.37.5][179.184.37.5.static.gvt.net.br][eele][http://177.124.60.170:8087/painelDeControle.php?corpo=alteraAtaPosse&idata_posse=1][Chrome]
[09-07-15][08:39:53][179.184.37.5][179.184.37.5.static.gvt.net.br][eele][http://177.124.60.170:8087/painelDeControle.php?][Chrome]
[09-07-15][08:39:53][179.184.37.5][179.184.37.5.static.gvt.net.br][eele][http://177.124.60.170:8087/painelDeControle.php?][Chrome]
[09-07-15][08:43:09][179.184.37.5][179.184.37.5.static.gvt.net.br][eele][http://177.124.60.170:8087/painelDeControle.php?corpo=buscaAtaPosse][Chrome]
[09-07-15][08:43:09][179.184.37.5][179.184.37.5.static.gvt.net.br][eele][http://177.124.60.170:8087/painelDeControle.php?corpo=buscaAtaPosse][Chrome]
[09-07-15][08:43:14][179.184.37.5][179.184.37.5.static.gvt.net.br][eele][http://177.124.60.170:8087/painelDeControle.php?corpo=alteraAtaPosse&idata_posse=1][Chrome]
[09-07-15][08:43:14][179.184.37.5][179.184.37.5.static.gvt.net.br][eele][http://177.124.60.170:8087/painelDeControle.php?corpo=alteraAtaPosse&idata_posse=1][Chrome]
[09-07-15][08:43:30][179.184.37.5][179.184.37.5.static.gvt.net.br][eele][http://177.124.60.170:8087/painelDeControle.php?corpo=buscaAtaPosse][Chrome]
[09-07-15][08:43:30][179.184.37.5][179.184.37.5.static.gvt.net.br][eele][http://177.124.60.170:8087/painelDeControle.php?corpo=buscaAtaPosse][Chrome]
[09-07-15][08:44:13][179.184.37.5][179.184.37.5.static.gvt.net.br][eele][http://177.124.60.170:8087/painelDeControle.php?corpo=alteraAtaPosse&idata_posse=1][Chrome]
[09-07-15][08:44:13][179.184.37.5][179.184.37.5.static.gvt.net.br][eele][http://177.124.60.170:8087/painelDeControle.php?corpo=alteraAtaPosse&idata_posse=1][Chrome]
[09-07-15][08:47:17][179.184.37.5][179.184.37.5.static.gvt.net.br][eele][http://177.124.60.170:8087/painelDeControle.php?corpo=buscaAtaReuniaoMensal][Chrome]
[09-07-15][08:47:17][179.184.37.5][179.184.37.5.static.gvt.net.br][eele][http://177.124.60.170:8087/painelDeControle.php?corpo=buscaAtaReuniaoMensal][Chrome]
[09-07-15][08:51:59][179.184.37.5][179.184.37.5.static.gvt.net.br][][http://177.124.60.170:8087/index.php?][other]
[09-07-15][08:52:08][179.184.37.5][179.184.37.5.static.gvt.net.br][eele][http://177.124.60.170:8087/painelDeControle.php?][other]
[09-07-15][08:52:08][179.184.37.5][179.184.37.5.static.gvt.net.br][eele][http://177.124.60.170:8087/painelDeControle.php?][other]
[09-07-15][08:52:21][179.184.37.5][179.184.37.5.static.gvt.net.br][eele][http://177.124.60.170:8087/painelDeControle.php?][other]
[09-07-15][08:52:21][179.184.37.5][179.184.37.5.static.gvt.net.br][eele][http://177.124.60.170:8087/painelDeControle.php?][other]
[09-07-15][08:52:26][179.184.37.5][179.184.37.5.static.gvt.net.br][eele][http://177.124.60.170:8087/painelDeControle.php?corpo=buscaAtaPosse][other]
[09-07-15][08:52:26][179.184.37.5][179.184.37.5.static.gvt.net.br][eele][http://177.124.60.170:8087/painelDeControle.php?corpo=buscaAtaPosse][other]
[09-07-15][09:23:53][179.184.37.5][179.184.37.5.static.gvt.net.br][eele][http://177.124.60.170:8087/painelDeControle.php?corpo=buscaMembrosRosacruzesAtivos][Chrome]
[09-07-15][09:40:03][179.184.37.5][179.184.37.5.static.gvt.net.br][eele][http://177.124.60.170:8087/index.php?][Chrome]
[09-07-15][09:40:11][179.184.37.5][179.184.37.5.static.gvt.net.br][lbas][http://177.124.60.170:8087/painelDeControle.php?][Chrome]
[09-07-15][09:40:11][179.184.37.5][179.184.37.5.static.gvt.net.br][lbas][http://177.124.60.170:8087/painelDeControle.php?][Chrome]
[09-07-15][09:47:34][179.184.37.5][179.184.37.5.static.gvt.net.br][lbas][http://177.124.60.170:8087/painelDeControle.php?corpo=buscaRecebimentos][Chrome]
[09-07-15][09:47:38][179.184.37.5][179.184.37.5.static.gvt.net.br][lbas][http://177.124.60.170:8087/painelDeControle.php?corpo=buscaMembrosRosacruzesAtivos][Chrome]
[09-07-15][10:00:36][179.184.37.5][179.184.37.5.static.gvt.net.br][lbas][http://177.124.60.170:8087/painelDeControle.php?corpo=buscaRegiaoRosacruz][Chrome]
[09-07-15][10:00:36][179.184.37.5][179.184.37.5.static.gvt.net.br][lbas][http://177.124.60.170:8087/painelDeControle.php?corpo=buscaRegiaoRosacruz][Chrome]
[09-07-15][10:03:15][179.184.37.5][179.184.37.5.static.gvt.net.br][lbas][http://177.124.60.170:8087/painelDeControle.php?corpo=buscaMembrosRosacruzesAtivos][Chrome]
[09-07-15][10:15:34][179.184.37.5][179.184.37.5.static.gvt.net.br][][http://177.124.60.170:8087/index.php?][Chrome]
[09-07-15][10:15:39][179.184.37.5][179.184.37.5.static.gvt.net.br][wwil][http://177.124.60.170:8087/painelDeControle.php?][Chrome]
[09-07-15][10:15:39][179.184.37.5][179.184.37.5.static.gvt.net.br][wwil][http://177.124.60.170:8087/painelDeControle.php?][Chrome]
[09-07-15][10:15:43][179.184.37.5][179.184.37.5.static.gvt.net.br][wwil][http://177.124.60.170:8087/painelDeControle.php?corpo=buscaImovel][Chrome]
[09-07-15][10:15:43][179.184.37.5][179.184.37.5.static.gvt.net.br][wwil][http://177.124.60.170:8087/painelDeControle.php?corpo=buscaImovel][Chrome]
[09-07-15][10:15:46][179.184.37.5][179.184.37.5.static.gvt.net.br][wwil][http://177.124.60.170:8087/painelDeControle.php?corpo=cadastroImovel][Chrome]
[09-07-15][10:15:46][179.184.37.5][179.184.37.5.static.gvt.net.br][wwil][http://177.124.60.170:8087/painelDeControle.php?corpo=cadastroImovel][Chrome]
[09-07-15][10:15:55][179.184.37.5][179.184.37.5.static.gvt.net.br][wwil][http://177.124.60.170:8087/painelDeControle.php?corpo=cadastroImovel][Chrome]
[09-07-15][10:15:55][179.184.37.5][179.184.37.5.static.gvt.net.br][wwil][http://177.124.60.170:8087/painelDeControle.php?corpo=cadastroImovel][Chrome]
[09-07-15][10:18:21][179.184.37.5][179.184.37.5.static.gvt.net.br][wwil][http://177.124.60.170:8087/painelDeControle.php?corpo=cadastroImovel][Chrome]
[09-07-15][10:18:21][179.184.37.5][179.184.37.5.static.gvt.net.br][wwil][http://177.124.60.170:8087/painelDeControle.php?corpo=cadastroImovel][Chrome]
[09-07-15][10:20:08][179.184.37.5][179.184.37.5.static.gvt.net.br][wwil][http://177.124.60.170:8087/painelDeControle.php?corpo=buscaImovel][Chrome]
[09-07-15][10:20:08][179.184.37.5][179.184.37.5.static.gvt.net.br][wwil][http://177.124.60.170:8087/painelDeControle.php?corpo=buscaImovel][Chrome]
[09-07-15][10:25:03][179.184.37.5][179.184.37.5.static.gvt.net.br][][http://177.124.60.170:8087/index.php?][Chrome]
[09-07-15][10:25:10][179.184.37.5][179.184.37.5.static.gvt.net.br][samuel.caldas][http://177.124.60.170:8087/painelDeControle.php?][Chrome]
[09-07-15][10:25:10][179.184.37.5][179.184.37.5.static.gvt.net.br][samuel.caldas][http://177.124.60.170:8087/painelDeControle.php?][Chrome]
[09-07-15][10:25:22][179.184.37.5][179.184.37.5.static.gvt.net.br][samuel.caldas][http://177.124.60.170:8087/painelDeControle.php?corpo=buscaAnotacoes][Chrome]
[09-07-15][10:25:22][179.184.37.5][179.184.37.5.static.gvt.net.br][samuel.caldas][http://177.124.60.170:8087/painelDeControle.php?corpo=buscaAnotacoes][Chrome]
[09-07-15][10:25:23][179.184.37.5][179.184.37.5.static.gvt.net.br][samuel.caldas][http://177.124.60.170:8087/painelDeControle.php?corpo=cadastroAnotacoes][Chrome]
[09-07-15][10:25:23][179.184.37.5][179.184.37.5.static.gvt.net.br][samuel.caldas][http://177.124.60.170:8087/painelDeControle.php?corpo=cadastroAnotacoes][Chrome]
[09-07-15][10:25:31][179.184.37.5][179.184.37.5.static.gvt.net.br][samuel.caldas][http://177.124.60.170:8087/painelDeControle.php?corpo=buscaAnotacoes][Chrome]
[09-07-15][10:25:31][179.184.37.5][179.184.37.5.static.gvt.net.br][samuel.caldas][http://177.124.60.170:8087/painelDeControle.php?corpo=buscaAnotacoes][Chrome]
[09-07-15][10:25:33][179.184.37.5][179.184.37.5.static.gvt.net.br][samuel.caldas][http://177.124.60.170:8087/painelDeControle.php?corpo=removeAnotacoes&idAnotacoes=5][Chrome]
[09-07-15][10:25:34][179.184.37.5][179.184.37.5.static.gvt.net.br][samuel.caldas][http://177.124.60.170:8087/painelDeControle.php?corpo=buscaAnotacoes][Chrome]
[09-07-15][10:25:34][179.184.37.5][179.184.37.5.static.gvt.net.br][samuel.caldas][http://177.124.60.170:8087/painelDeControle.php?corpo=buscaAnotacoes][Chrome]
[09-07-15][10:40:16][179.184.37.5][179.184.37.5.static.gvt.net.br][samuel.caldas][http://177.124.60.170:8087/painelDeControle.php?][Chrome]
[09-07-15][10:40:16][179.184.37.5][179.184.37.5.static.gvt.net.br][samuel.caldas][http://177.124.60.170:8087/painelDeControle.php?][Chrome]
[09-07-15][10:40:16][179.184.37.5][179.184.37.5.static.gvt.net.br][samuel.caldas][http://177.124.60.170:8087/login.php?][Chrome]
[09-07-15][10:40:21][179.184.37.5][179.184.37.5.static.gvt.net.br][ttat][http://177.124.60.170:8087/painelDeControle.php?][Chrome]
[09-07-15][10:40:21][179.184.37.5][179.184.37.5.static.gvt.net.br][ttat][http://177.124.60.170:8087/painelDeControle.php?][Chrome]
[09-07-15][10:40:32][179.184.37.5][179.184.37.5.static.gvt.net.br][ttat][http://177.124.60.170:8087/painelDeControle.php?corpo=buscaAnotacoes][Chrome]
[09-07-15][10:40:32][179.184.37.5][179.184.37.5.static.gvt.net.br][ttat][http://177.124.60.170:8087/painelDeControle.php?corpo=buscaAnotacoes][Chrome]
[09-07-15][10:40:34][179.184.37.5][179.184.37.5.static.gvt.net.br][ttat][http://177.124.60.170:8087/painelDeControle.php?corpo=cadastroAnotacoes][Chrome]
[09-07-15][10:40:34][179.184.37.5][179.184.37.5.static.gvt.net.br][ttat][http://177.124.60.170:8087/painelDeControle.php?corpo=cadastroAnotacoes][Chrome]
[09-07-15][10:40:39][179.184.37.5][179.184.37.5.static.gvt.net.br][ttat][http://177.124.60.170:8087/painelDeControle.php?corpo=buscaAnotacoes][Chrome]
[09-07-15][10:40:39][179.184.37.5][179.184.37.5.static.gvt.net.br][ttat][http://177.124.60.170:8087/painelDeControle.php?corpo=buscaAnotacoes][Chrome]
[09-07-15][10:40:42][179.184.37.5][179.184.37.5.static.gvt.net.br][ttat][http://177.124.60.170:8087/painelDeControle.php?corpo=removeAnotacoes&idAnotacoes=1][Chrome]
[09-07-15][10:40:43][179.184.37.5][179.184.37.5.static.gvt.net.br][ttat][http://177.124.60.170:8087/painelDeControle.php?corpo=buscaAnotacoes][Chrome]
[09-07-15][10:40:43][179.184.37.5][179.184.37.5.static.gvt.net.br][ttat][http://177.124.60.170:8087/painelDeControle.php?corpo=buscaAnotacoes][Chrome]
[09-07-15][10:40:45][179.184.37.5][179.184.37.5.static.gvt.net.br][ttat][http://177.124.60.170:8087/painelDeControle.php?][Chrome]
[09-07-15][10:40:45][179.184.37.5][179.184.37.5.static.gvt.net.br][ttat][http://177.124.60.170:8087/painelDeControle.php?][Chrome]
[09-07-15][10:41:10][179.184.37.5][179.184.37.5.static.gvt.net.br][ttat][http://177.124.60.170:8087/painelDeControle.php?corpo=buscaAnotacoes][Chrome]
[09-07-15][10:41:10][179.184.37.5][179.184.37.5.static.gvt.net.br][ttat][http://177.124.60.170:8087/painelDeControle.php?corpo=buscaAnotacoes][Chrome]
[09-07-15][10:42:02][179.184.37.5][179.184.37.5.static.gvt.net.br][ttat][http://177.124.60.170:8087/painelDeControle.php?][Chrome]
[09-07-15][10:42:02][179.184.37.5][179.184.37.5.static.gvt.net.br][ttat][http://177.124.60.170:8087/painelDeControle.php?][Chrome]
[09-07-15][10:42:18][179.184.37.5][179.184.37.5.static.gvt.net.br][ttat][http://177.124.60.170:8087/painelDeControle.php?corpo=buscaAnotacoes][Chrome]
[09-07-15][10:42:18][179.184.37.5][179.184.37.5.static.gvt.net.br][ttat][http://177.124.60.170:8087/painelDeControle.php?corpo=buscaAnotacoes][Chrome]
[09-07-15][10:42:47][179.184.37.5][179.184.37.5.static.gvt.net.br][ttat][http://177.124.60.170:8087/painelDeControle.php?][Chrome]
[09-07-15][10:42:47][179.184.37.5][179.184.37.5.static.gvt.net.br][ttat][http://177.124.60.170:8087/painelDeControle.php?][Chrome]
[09-07-15][10:43:23][179.184.37.5][179.184.37.5.static.gvt.net.br][ttat][http://177.124.60.170:8087/painelDeControle.php?corpo=buscaAnotacoes][Chrome]
[09-07-15][10:43:23][179.184.37.5][179.184.37.5.static.gvt.net.br][ttat][http://177.124.60.170:8087/painelDeControle.php?corpo=buscaAnotacoes][Chrome]
[09-07-15][10:43:53][179.184.37.5][179.184.37.5.static.gvt.net.br][ttat][http://177.124.60.170:8087/painelDeControle.php?corpo=cadastroAnotacoes][Chrome]
[09-07-15][10:43:53][179.184.37.5][179.184.37.5.static.gvt.net.br][ttat][http://177.124.60.170:8087/painelDeControle.php?corpo=cadastroAnotacoes][Chrome]
[09-07-15][10:44:47][179.184.37.5][179.184.37.5.static.gvt.net.br][ttat][http://177.124.60.170:8087/painelDeControle.php?corpo=buscaAnotacoes][Chrome]
[09-07-15][10:44:47][179.184.37.5][179.184.37.5.static.gvt.net.br][ttat][http://177.124.60.170:8087/painelDeControle.php?corpo=buscaAnotacoes][Chrome]
[09-07-15][10:45:16][179.184.37.5][179.184.37.5.static.gvt.net.br][ttat][http://177.124.60.170:8087/painelDeControle.php?corpo=alteraAnotacoes&idAnotacoes=2][Chrome]
[09-07-15][10:45:16][179.184.37.5][179.184.37.5.static.gvt.net.br][ttat][http://177.124.60.170:8087/painelDeControle.php?corpo=alteraAnotacoes&idAnotacoes=2][Chrome]
[09-07-15][10:45:34][179.184.37.5][179.184.37.5.static.gvt.net.br][ttat][http://177.124.60.170:8087/painelDeControle.php?corpo=buscaAnotacoes][Chrome]
[09-07-15][10:45:34][179.184.37.5][179.184.37.5.static.gvt.net.br][ttat][http://177.124.60.170:8087/painelDeControle.php?corpo=buscaAnotacoes][Chrome]
[09-07-15][10:45:55][179.184.37.5][179.184.37.5.static.gvt.net.br][ttat][http://177.124.60.170:8087/painelDeControle.php?corpo=removeAnotacoes&idAnotacoes=2][Chrome]
[09-07-15][10:45:55][179.184.37.5][179.184.37.5.static.gvt.net.br][ttat][http://177.124.60.170:8087/painelDeControle.php?corpo=buscaAnotacoes][Chrome]
[09-07-15][10:45:55][179.184.37.5][179.184.37.5.static.gvt.net.br][ttat][http://177.124.60.170:8087/painelDeControle.php?corpo=buscaAnotacoes][Chrome]
[09-07-15][10:48:04][179.184.37.5][179.184.37.5.static.gvt.net.br][ttat][http://177.124.60.170:8087/painelDeControle.php?][Chrome]
[09-07-15][10:48:04][179.184.37.5][179.184.37.5.static.gvt.net.br][ttat][http://177.124.60.170:8087/painelDeControle.php?][Chrome]
[09-07-15][10:48:29][179.184.37.5][179.184.37.5.static.gvt.net.br][ttat][http://177.124.60.170:8087/painelDeControle.php?corpo=buscaAnotacoes][Chrome]
[09-07-15][10:48:29][179.184.37.5][179.184.37.5.static.gvt.net.br][ttat][http://177.124.60.170:8087/painelDeControle.php?corpo=buscaAnotacoes][Chrome]
[09-07-15][10:48:54][179.184.37.5][179.184.37.5.static.gvt.net.br][ttat][http://177.124.60.170:8087/painelDeControle.php?corpo=cadastroAnotacoes][Chrome]
[09-07-15][10:48:54][179.184.37.5][179.184.37.5.static.gvt.net.br][ttat][http://177.124.60.170:8087/painelDeControle.php?corpo=cadastroAnotacoes][Chrome]
[09-07-15][10:49:41][179.184.37.5][179.184.37.5.static.gvt.net.br][ttat][http://177.124.60.170:8087/painelDeControle.php?corpo=buscaAnotacoes][Chrome]
[09-07-15][10:49:41][179.184.37.5][179.184.37.5.static.gvt.net.br][ttat][http://177.124.60.170:8087/painelDeControle.php?corpo=buscaAnotacoes][Chrome]
[09-07-15][10:50:10][179.184.37.5][179.184.37.5.static.gvt.net.br][ttat][http://177.124.60.170:8087/painelDeControle.php?corpo=alteraAnotacoes&idAnotacoes=3][Chrome]
[09-07-15][10:50:10][179.184.37.5][179.184.37.5.static.gvt.net.br][ttat][http://177.124.60.170:8087/painelDeControle.php?corpo=alteraAnotacoes&idAnotacoes=3][Chrome]
[09-07-15][10:50:26][179.184.37.5][179.184.37.5.static.gvt.net.br][ttat][http://177.124.60.170:8087/painelDeControle.php?corpo=buscaAnotacoes][Chrome]
[09-07-15][10:50:26][179.184.37.5][179.184.37.5.static.gvt.net.br][ttat][http://177.124.60.170:8087/painelDeControle.php?corpo=buscaAnotacoes][Chrome]
[09-07-15][10:51:06][179.184.37.5][179.184.37.5.static.gvt.net.br][ttat][http://177.124.60.170:8087/painelDeControle.php?corpo=removeAnotacoes&idAnotacoes=3][Chrome]
[09-07-15][10:51:06][179.184.37.5][179.184.37.5.static.gvt.net.br][ttat][http://177.124.60.170:8087/painelDeControle.php?corpo=buscaAnotacoes][Chrome]
[09-07-15][10:51:06][179.184.37.5][179.184.37.5.static.gvt.net.br][ttat][http://177.124.60.170:8087/painelDeControle.php?corpo=buscaAnotacoes][Chrome]
[09-07-15][10:54:43][179.184.37.5][179.184.37.5.static.gvt.net.br][ttat][http://177.124.60.170:8087/painelDeControle.php?][Chrome]
[09-07-15][10:54:43][179.184.37.5][179.184.37.5.static.gvt.net.br][ttat][http://177.124.60.170:8087/painelDeControle.php?][Chrome]
[09-07-15][10:54:45][179.184.37.5][179.184.37.5.static.gvt.net.br][ttat][http://177.124.60.170:8087/painelDeControle.php?corpo=buscaImovel][Chrome]
[09-07-15][10:54:45][179.184.37.5][179.184.37.5.static.gvt.net.br][ttat][http://177.124.60.170:8087/painelDeControle.php?corpo=buscaImovel][Chrome]
[09-07-15][10:56:20][179.184.37.5][179.184.37.5.static.gvt.net.br][ttat][http://177.124.60.170:8087/painelDeControle.php?corpo=buscaImovel][Chrome]
[09-07-15][10:56:20][179.184.37.5][179.184.37.5.static.gvt.net.br][ttat][http://177.124.60.170:8087/painelDeControle.php?corpo=buscaImovel][Chrome]
[09-07-15][10:56:24][179.184.37.5][179.184.37.5.static.gvt.net.br][ttat][http://177.124.60.170:8087/painelDeControle.php?][Chrome]
[09-07-15][10:56:24][179.184.37.5][179.184.37.5.static.gvt.net.br][ttat][http://177.124.60.170:8087/painelDeControle.php?][Chrome]
[09-07-15][10:57:48][179.184.37.5][179.184.37.5.static.gvt.net.br][ttat][http://177.124.60.170:8087/painelDeControle.php?corpo=buscaDiscurso][Chrome]
[09-07-15][10:57:48][179.184.37.5][179.184.37.5.static.gvt.net.br][ttat][http://177.124.60.170:8087/painelDeControle.php?corpo=buscaDiscurso][Chrome]
[09-07-15][10:58:17][179.184.37.5][179.184.37.5.static.gvt.net.br][ttat][http://177.124.60.170:8087/painelDeControle.php?corpo=buscaMembroOA][Chrome]
[09-07-15][10:58:17][179.184.37.5][179.184.37.5.static.gvt.net.br][ttat][http://177.124.60.170:8087/painelDeControle.php?corpo=buscaMembroOA][Chrome]
[09-07-15][10:58:27][179.184.37.5][179.184.37.5.static.gvt.net.br][ttat][http://177.124.60.170:8087/painelDeControle.php?][Chrome]
[09-07-15][10:58:27][179.184.37.5][179.184.37.5.static.gvt.net.br][ttat][http://177.124.60.170:8087/painelDeControle.php?][Chrome]
[09-07-15][11:13:39][179.184.37.5][179.184.37.5.static.gvt.net.br][ttat][http://177.124.60.170:8087/painelDeControle.php?corpo=buscaMembroOA][Chrome]
[09-07-15][11:13:39][179.184.37.5][179.184.37.5.static.gvt.net.br][ttat][http://177.124.60.170:8087/painelDeControle.php?corpo=buscaMembroOA][Chrome]
[09-07-15][13:07:16][179.184.37.5][179.184.37.5.static.gvt.net.br][][http://177.124.60.170:8087/index.php?][Chrome]
[09-07-15][13:07:23][179.184.37.5][179.184.37.5.static.gvt.net.br][ttat][http://177.124.60.170:8087/painelDeControle.php?][Chrome]
[09-07-15][13:07:23][179.184.37.5][179.184.37.5.static.gvt.net.br][ttat][http://177.124.60.170:8087/painelDeControle.php?][Chrome]
[09-07-15][13:08:35][179.184.37.5][179.184.37.5.static.gvt.net.br][ttat][http://177.124.60.170:8087/painelDeControle.php?corpo=buscaImovel][Chrome]
[09-07-15][13:08:35][179.184.37.5][179.184.37.5.static.gvt.net.br][ttat][http://177.124.60.170:8087/painelDeControle.php?corpo=buscaImovel][Chrome]
[09-07-15][13:08:37][179.184.37.5][179.184.37.5.static.gvt.net.br][ttat][http://177.124.60.170:8087/painelDeControle.php?][Chrome]
[09-07-15][13:08:37][179.184.37.5][179.184.37.5.static.gvt.net.br][ttat][http://177.124.60.170:8087/painelDeControle.php?][Chrome]
[09-07-15][13:11:24][179.184.37.5][179.184.37.5.static.gvt.net.br][ttat][http://177.124.60.170:8087/painelDeControle.php?corpo=buscaAnotacoes][Chrome]
[09-07-15][13:11:25][179.184.37.5][179.184.37.5.static.gvt.net.br][ttat][http://177.124.60.170:8087/painelDeControle.php?corpo=buscaAnotacoes][Chrome]
[09-07-15][13:11:27][179.184.37.5][179.184.37.5.static.gvt.net.br][ttat][http://177.124.60.170:8087/painelDeControle.php?corpo=cadastroAnotacoes][Chrome]
[09-07-15][13:11:27][179.184.37.5][179.184.37.5.static.gvt.net.br][ttat][http://177.124.60.170:8087/painelDeControle.php?corpo=cadastroAnotacoes][Chrome]
[09-07-15][13:11:39][179.184.37.5][179.184.37.5.static.gvt.net.br][ttat][http://177.124.60.170:8087/painelDeControle.php?corpo=buscaAnotacoes][Chrome]
[09-07-15][13:11:39][179.184.37.5][179.184.37.5.static.gvt.net.br][ttat][http://177.124.60.170:8087/painelDeControle.php?corpo=buscaAnotacoes][Chrome]
[09-07-15][13:12:52][179.184.37.5][179.184.37.5.static.gvt.net.br][ttat][http://177.124.60.170:8087/painelDeControle.php?corpo=removeAnotacoes&idAnotacoes=4][Chrome]
[09-07-15][13:12:53][179.184.37.5][179.184.37.5.static.gvt.net.br][ttat][http://177.124.60.170:8087/painelDeControle.php?corpo=buscaAnotacoes][Chrome]
[09-07-15][13:12:53][179.184.37.5][179.184.37.5.static.gvt.net.br][ttat][http://177.124.60.170:8087/painelDeControle.php?corpo=buscaAnotacoes][Chrome]
[09-07-15][13:12:55][179.184.37.5][179.184.37.5.static.gvt.net.br][ttat][http://177.124.60.170:8087/painelDeControle.php?][Chrome]
[09-07-15][13:12:55][179.184.37.5][179.184.37.5.static.gvt.net.br][ttat][http://177.124.60.170:8087/painelDeControle.php?][Chrome]
[09-07-15][13:13:28][179.184.37.5][179.184.37.5.static.gvt.net.br][ttat][http://177.124.60.170:8087/painelDeControle.php?corpo=buscaAtaReuniaoMensal][Chrome]
[09-07-15][13:13:28][179.184.37.5][179.184.37.5.static.gvt.net.br][ttat][http://177.124.60.170:8087/painelDeControle.php?corpo=buscaAtaReuniaoMensal][Chrome]
[09-07-15][13:13:36][179.184.37.5][179.184.37.5.static.gvt.net.br][ttat][http://177.124.60.170:8087/painelDeControle.php?][Chrome]
[09-07-15][13:13:36][179.184.37.5][179.184.37.5.static.gvt.net.br][ttat][http://177.124.60.170:8087/painelDeControle.php?][Chrome]
[09-07-15][13:13:38][179.184.37.5][179.184.37.5.static.gvt.net.br][ttat][http://177.124.60.170:8087/painelDeControle.php?corpo=buscaSaldoInicial][Chrome]
[09-07-15][13:13:38][179.184.37.5][179.184.37.5.static.gvt.net.br][ttat][http://177.124.60.170:8087/painelDeControle.php?corpo=buscaSaldoInicial][Chrome]
[09-07-15][13:14:08][179.184.37.5][179.184.37.5.static.gvt.net.br][ttat][http://177.124.60.170:8087/painelDeControle.php?][Chrome]
[09-07-15][13:14:08][179.184.37.5][179.184.37.5.static.gvt.net.br][ttat][http://177.124.60.170:8087/painelDeControle.php?][Chrome]
[09-07-15][13:16:57][179.184.37.5][179.184.37.5.static.gvt.net.br][ttat][http://177.124.60.170:8087/painelDeControle.php?corpo=buscaImovel][Chrome]
[09-07-15][13:16:57][179.184.37.5][179.184.37.5.static.gvt.net.br][ttat][http://177.124.60.170:8087/painelDeControle.php?corpo=buscaImovel][Chrome]
[09-07-15][13:17:06][179.184.37.5][179.184.37.5.static.gvt.net.br][ttat][http://177.124.60.170:8087/painelDeControle.php?][Chrome]
[09-07-15][13:17:06][179.184.37.5][179.184.37.5.static.gvt.net.br][ttat][http://177.124.60.170:8087/painelDeControle.php?][Chrome]
[09-07-15][13:18:07][179.184.37.5][179.184.37.5.static.gvt.net.br][ttat][http://177.124.60.170:8087/painelDeControle.php?corpo=buscaImovel][Chrome]
[09-07-15][13:18:07][179.184.37.5][179.184.37.5.static.gvt.net.br][ttat][http://177.124.60.170:8087/painelDeControle.php?corpo=buscaImovel][Chrome]
[09-07-15][13:18:29][179.184.37.5][179.184.37.5.static.gvt.net.br][ttat][http://177.124.60.170:8087/painelDeControle.php?corpo=cadastroImovel][Chrome]
[09-07-15][13:18:29][179.184.37.5][179.184.37.5.static.gvt.net.br][ttat][http://177.124.60.170:8087/painelDeControle.php?corpo=cadastroImovel][Chrome]
[09-07-15][13:24:27][179.184.37.5][179.184.37.5.static.gvt.net.br][ttat][http://177.124.60.170:8087/painelDeControle.php?corpo=buscaImovel][Chrome]
[09-07-15][13:24:27][179.184.37.5][179.184.37.5.static.gvt.net.br][ttat][http://177.124.60.170:8087/painelDeControle.php?corpo=buscaImovel][Chrome]
[09-07-15][13:25:13][179.184.37.5][179.184.37.5.static.gvt.net.br][ttat][http://177.124.60.170:8087/painelDeControle.php?corpo=buscaImovelGaleria&idImovel=3][Chrome]
[09-07-15][13:25:13][179.184.37.5][179.184.37.5.static.gvt.net.br][ttat][http://177.124.60.170:8087/painelDeControle.php?corpo=buscaImovelGaleria&idImovel=3][Chrome]
[09-07-15][13:25:46][179.184.37.5][179.184.37.5.static.gvt.net.br][ttat][http://177.124.60.170:8087/painelDeControle.php?][Chrome]
[09-07-15][13:25:46][179.184.37.5][179.184.37.5.static.gvt.net.br][ttat][http://177.124.60.170:8087/painelDeControle.php?][Chrome]
[09-07-15][13:28:44][179.184.37.5][179.184.37.5.static.gvt.net.br][ttat][http://177.124.60.170:8087/painelDeControle.php?corpo=buscaImovel][Chrome]
[09-07-15][13:28:44][179.184.37.5][179.184.37.5.static.gvt.net.br][ttat][http://177.124.60.170:8087/painelDeControle.php?corpo=buscaImovel][Chrome]
[09-07-15][13:29:03][179.184.37.5][179.184.37.5.static.gvt.net.br][ttat][http://177.124.60.170:8087/painelDeControle.php?corpo=cadastroImovel][Chrome]
[09-07-15][13:29:03][179.184.37.5][179.184.37.5.static.gvt.net.br][ttat][http://177.124.60.170:8087/painelDeControle.php?corpo=cadastroImovel][Chrome]
[09-07-15][13:32:41][179.217.79.232][b3d94fe8.virtua.com.br][ttat][http://177.124.60.170:8087/painelDeControle.php?corpo=cadastroImovel][Chrome]
[09-07-15][13:32:41][179.217.79.232][b3d94fe8.virtua.com.br][ttat][http://177.124.60.170:8087/painelDeControle.php?corpo=cadastroImovel][Chrome]
[09-07-15][13:32:47][179.217.79.232][b3d94fe8.virtua.com.br][ttat][http://177.124.60.170:8087/painelDeControle.php?corpo=cadastroImovel][Chrome]
[09-07-15][13:32:47][179.217.79.232][b3d94fe8.virtua.com.br][ttat][http://177.124.60.170:8087/painelDeControle.php?corpo=cadastroImovel][Chrome]
[09-07-15][13:32:50][179.217.79.232][b3d94fe8.virtua.com.br][ttat][http://177.124.60.170:8087/index.php?][Chrome]
[09-07-15][13:32:56][179.217.79.232][b3d94fe8.virtua.com.br][ttat][http://177.124.60.170:8087/index.php?][Chrome]
[09-07-15][13:33:07][179.217.79.232][b3d94fe8.virtua.com.br][ttat][http://177.124.60.170:8087/index.php?][Chrome]
[09-07-15][13:33:10][179.217.79.232][b3d94fe8.virtua.com.br][ttat][http://177.124.60.170:8087/painelDeControle.php?][Chrome]
[09-07-15][13:33:10][179.217.79.232][b3d94fe8.virtua.com.br][ttat][http://177.124.60.170:8087/painelDeControle.php?][Chrome]
[09-07-15][13:33:16][179.217.79.232][b3d94fe8.virtua.com.br][ttat][http://177.124.60.170:8087/painelDeControle.php?][Chrome]
[09-07-15][13:33:16][179.217.79.232][b3d94fe8.virtua.com.br][ttat][http://177.124.60.170:8087/painelDeControle.php?][Chrome]
[09-07-15][13:33:20][179.217.79.232][b3d94fe8.virtua.com.br][ttat][http://177.124.60.170:8087/painelDeControle.php?][Chrome]
[09-07-15][13:33:20][179.217.79.232][b3d94fe8.virtua.com.br][ttat][http://177.124.60.170:8087/painelDeControle.php?][Chrome]
[09-07-15][13:34:27][179.184.37.5][179.184.37.5.static.gvt.net.br][ttat][http://177.124.60.170:8087/painelDeControle.php?][Chrome]
[09-07-15][13:34:27][179.184.37.5][179.184.37.5.static.gvt.net.br][ttat][http://177.124.60.170:8087/painelDeControle.php?][Chrome]
[09-07-15][13:35:35][179.184.37.5][179.184.37.5.static.gvt.net.br][ttat][http://177.124.60.170:8087/painelDeControle.php?corpo=buscaImovel][Chrome]
[09-07-15][13:35:35][179.184.37.5][179.184.37.5.static.gvt.net.br][ttat][http://177.124.60.170:8087/painelDeControle.php?corpo=buscaImovel][Chrome]
[09-07-15][13:35:48][179.184.37.5][179.184.37.5.static.gvt.net.br][ttat][http://177.124.60.170:8087/painelDeControle.php?][Chrome]
[09-07-15][13:35:48][179.184.37.5][179.184.37.5.static.gvt.net.br][ttat][http://177.124.60.170:8087/painelDeControle.php?][Chrome]
[09-07-15][13:36:28][179.184.37.5][179.184.37.5.static.gvt.net.br][ttat][http://177.124.60.170:8087/painelDeControle.php?corpo=buscaImovel][Chrome]
[09-07-15][13:36:28][179.184.37.5][179.184.37.5.static.gvt.net.br][ttat][http://177.124.60.170:8087/painelDeControle.php?corpo=buscaImovel][Chrome]
[09-07-15][13:36:49][179.184.37.5][179.184.37.5.static.gvt.net.br][ttat][http://177.124.60.170:8087/painelDeControle.php?corpo=cadastroImovel][Chrome]
[09-07-15][13:36:49][179.184.37.5][179.184.37.5.static.gvt.net.br][ttat][http://177.124.60.170:8087/painelDeControle.php?corpo=cadastroImovel][Chrome]
[09-07-15][13:41:12][179.184.37.5][179.184.37.5.static.gvt.net.br][][http://177.124.60.170:8087/index.php?][Chrome]
[09-07-15][13:41:16][179.184.37.5][179.184.37.5.static.gvt.net.br][wwil][http://177.124.60.170:8087/painelDeControle.php?][Chrome]
[09-07-15][13:41:16][179.184.37.5][179.184.37.5.static.gvt.net.br][wwil][http://177.124.60.170:8087/painelDeControle.php?][Chrome]
[09-07-15][13:41:28][179.184.37.5][179.184.37.5.static.gvt.net.br][wwil][http://177.124.60.170:8087/painelDeControle.php?corpo=buscaOficial][Chrome]
[09-07-15][13:41:28][179.184.37.5][179.184.37.5.static.gvt.net.br][wwil][http://177.124.60.170:8087/painelDeControle.php?corpo=buscaOficial][Chrome]
[09-07-15][13:41:34][179.184.37.5][179.184.37.5.static.gvt.net.br][wwil][http://177.124.60.170:8087/painelDeControle.php?corpo=buscaMembroOA][Chrome]
[09-07-15][13:41:34][179.184.37.5][179.184.37.5.static.gvt.net.br][wwil][http://177.124.60.170:8087/painelDeControle.php?corpo=buscaMembroOA][Chrome]
[09-07-15][13:41:42][179.184.37.5][179.184.37.5.static.gvt.net.br][wwil][http://177.124.60.170:8087/painelDeControle.php?corpo=cadastroMembroOA][Chrome]
[09-07-15][13:41:42][179.184.37.5][179.184.37.5.static.gvt.net.br][wwil][http://177.124.60.170:8087/painelDeControle.php?corpo=cadastroMembroOA][Chrome]
[09-07-15][13:42:10][179.184.37.5][179.184.37.5.static.gvt.net.br][ttat][http://177.124.60.170:8087/painelDeControle.php?corpo=buscaImovel][Chrome]
[09-07-15][13:42:10][179.184.37.5][179.184.37.5.static.gvt.net.br][ttat][http://177.124.60.170:8087/painelDeControle.php?corpo=buscaImovel][Chrome]
[09-07-15][13:43:07][179.184.37.5][179.184.37.5.static.gvt.net.br][ttat][http://177.124.60.170:8087/painelDeControle.php?corpo=buscaImovelGaleria&idImovel=4][Chrome]
[09-07-15][13:43:07][179.184.37.5][179.184.37.5.static.gvt.net.br][ttat][http://177.124.60.170:8087/painelDeControle.php?corpo=buscaImovelGaleria&idImovel=4][Chrome]
[09-07-15][13:43:30][179.184.37.5][179.184.37.5.static.gvt.net.br][ttat][http://177.124.60.170:8087/index.php?][Chrome]
[09-07-15][13:44:57][179.184.37.5][179.184.37.5.static.gvt.net.br][ttat][http://177.124.60.170:8087/index.php?][Chrome]
[09-07-15][13:46:44][179.184.37.5][179.184.37.5.static.gvt.net.br][ttat][http://177.124.60.170:8087/index.php?][Chrome]
[09-07-15][13:46:45][179.184.37.5][179.184.37.5.static.gvt.net.br][ttat][http://177.124.60.170:8087/painelDeControle.php?corpo=buscaImovelGaleria&idImovel=4][Chrome]
[09-07-15][13:46:45][179.184.37.5][179.184.37.5.static.gvt.net.br][ttat][http://177.124.60.170:8087/painelDeControle.php?corpo=buscaImovelGaleria&idImovel=4][Chrome]
[09-07-15][13:46:49][179.184.37.5][179.184.37.5.static.gvt.net.br][ttat][http://177.124.60.170:8087/index.php?][Chrome]
[09-07-15][13:48:03][179.184.37.5][179.184.37.5.static.gvt.net.br][wwil][http://177.124.60.170:8087/painelDeControle.php?corpo=buscaAtaReuniaoMensal][Chrome]
[09-07-15][13:48:03][179.184.37.5][179.184.37.5.static.gvt.net.br][wwil][http://177.124.60.170:8087/painelDeControle.php?corpo=buscaAtaReuniaoMensal][Chrome]
[09-07-15][13:48:06][179.184.37.5][179.184.37.5.static.gvt.net.br][wwil][http://177.124.60.170:8087/painelDeControle.php?corpo=cadastroAtaReuniaoMensal][Chrome]
[09-07-15][13:48:06][179.184.37.5][179.184.37.5.static.gvt.net.br][wwil][http://177.124.60.170:8087/painelDeControle.php?corpo=cadastroAtaReuniaoMensal][Chrome]
[09-07-15][13:48:24][179.184.37.5][179.184.37.5.static.gvt.net.br][ttat][http://177.124.60.170:8087/painelDeControle.php?][Chrome]
[09-07-15][13:48:24][179.184.37.5][179.184.37.5.static.gvt.net.br][ttat][http://177.124.60.170:8087/painelDeControle.php?][Chrome]
[09-07-15][13:48:59][179.184.37.5][179.184.37.5.static.gvt.net.br][ttat][http://177.124.60.170:8087/painelDeControle.php?corpo=buscaImovel][Chrome]
[09-07-15][13:48:59][179.184.37.5][179.184.37.5.static.gvt.net.br][ttat][http://177.124.60.170:8087/painelDeControle.php?corpo=buscaImovel][Chrome]
[09-07-15][13:49:19][179.184.37.5][179.184.37.5.static.gvt.net.br][ttat][http://177.124.60.170:8087/painelDeControle.php?corpo=cadastroImovel][Chrome]
[09-07-15][13:49:19][179.184.37.5][179.184.37.5.static.gvt.net.br][ttat][http://177.124.60.170:8087/painelDeControle.php?corpo=cadastroImovel][Chrome]
[09-07-15][13:54:50][179.184.37.5][179.184.37.5.static.gvt.net.br][ttat][http://177.124.60.170:8087/painelDeControle.php?corpo=buscaImovel][Chrome]
[09-07-15][13:54:50][179.184.37.5][179.184.37.5.static.gvt.net.br][ttat][http://177.124.60.170:8087/painelDeControle.php?corpo=buscaImovel][Chrome]
[09-07-15][13:55:36][179.184.37.5][179.184.37.5.static.gvt.net.br][ttat][http://177.124.60.170:8087/painelDeControle.php?corpo=buscaImovelGaleria&idImovel=5][Chrome]
[09-07-15][13:55:36][179.184.37.5][179.184.37.5.static.gvt.net.br][ttat][http://177.124.60.170:8087/painelDeControle.php?corpo=buscaImovelGaleria&idImovel=5][Chrome]
[09-07-15][13:55:45][179.184.37.5][179.184.37.5.static.gvt.net.br][ttat][http://177.124.60.170:8087/index.php?][Chrome]
[09-07-15][13:56:48][179.184.37.5][179.184.37.5.static.gvt.net.br][ttat][http://177.124.60.170:8087/painelDeControle.php?corpo=buscaImovel][Chrome]
[09-07-15][13:56:48][179.184.37.5][179.184.37.5.static.gvt.net.br][ttat][http://177.124.60.170:8087/painelDeControle.php?corpo=buscaImovel][Chrome]
[09-07-15][13:57:01][179.184.37.5][179.184.37.5.static.gvt.net.br][ttat][http://177.124.60.170:8087/painelDeControle.php?corpo=cadastroImovel][Chrome]
[09-07-15][13:57:01][179.184.37.5][179.184.37.5.static.gvt.net.br][ttat][http://177.124.60.170:8087/painelDeControle.php?corpo=cadastroImovel][Chrome]
[09-07-15][13:57:06][179.184.37.5][179.184.37.5.static.gvt.net.br][ttat][http://177.124.60.170:8087/painelDeControle.php?corpo=buscaImovel][Chrome]
[09-07-15][13:57:06][179.184.37.5][179.184.37.5.static.gvt.net.br][ttat][http://177.124.60.170:8087/painelDeControle.php?corpo=buscaImovel][Chrome]
[09-07-15][14:13:05][179.184.37.5][179.184.37.5.static.gvt.net.br][][http://177.124.60.170:8087/index.php?][Chrome]
[09-07-15][14:13:08][179.184.37.5][179.184.37.5.static.gvt.net.br][admin][http://177.124.60.170:8087/painelDeControle.php?][Chrome]
[09-07-15][14:13:08][179.184.37.5][179.184.37.5.static.gvt.net.br][admin][http://177.124.60.170:8087/painelDeControle.php?][Chrome]
[09-07-15][14:13:13][179.184.37.5][179.184.37.5.static.gvt.net.br][admin][http://177.124.60.170:8087/painelDeControle.php?corpo=buscaAtaPosse][Chrome]
[09-07-15][14:13:13][179.184.37.5][179.184.37.5.static.gvt.net.br][admin][http://177.124.60.170:8087/painelDeControle.php?corpo=buscaAtaPosse][Chrome]
[09-07-15][14:13:26][179.184.37.5][179.184.37.5.static.gvt.net.br][admin][http://177.124.60.170:8087/painelDeControle.php?corpo=detalheNotificacao&idNotificacaoGlp=6][Chrome]
[09-07-15][14:13:26][179.184.37.5][179.184.37.5.static.gvt.net.br][admin][http://177.124.60.170:8087/painelDeControle.php?corpo=detalheNotificacao&idNotificacaoGlp=6][Chrome]
[09-07-15][14:13:37][179.184.37.5][179.184.37.5.static.gvt.net.br][admin][http://177.124.60.170:8087/painelDeControle.php?corpo=detalheNotificacao&idNotificacaoGlp=7][Chrome]
[09-07-15][14:13:37][179.184.37.5][179.184.37.5.static.gvt.net.br][admin][http://177.124.60.170:8087/painelDeControle.php?corpo=detalheNotificacao&idNotificacaoGlp=7][Chrome]
[09-07-15][14:13:45][179.184.37.5][179.184.37.5.static.gvt.net.br][admin][http://177.124.60.170:8087/painelDeControle.php?corpo=detalheNotificacao&idNotificacaoGlp=8][Chrome]
[09-07-15][14:13:45][179.184.37.5][179.184.37.5.static.gvt.net.br][admin][http://177.124.60.170:8087/painelDeControle.php?corpo=detalheNotificacao&idNotificacaoGlp=8][Chrome]
[09-07-15][14:13:48][179.184.37.5][179.184.37.5.static.gvt.net.br][admin][http://177.124.60.170:8087/login.php?][Chrome]
[09-07-15][14:22:30][179.184.37.5][179.184.37.5.static.gvt.net.br][wwil][http://177.124.60.170:8087/painelDeControle.php?corpo=cadastroAtaReuniaoMensal][Chrome]
[09-07-15][14:22:31][179.184.37.5][179.184.37.5.static.gvt.net.br][wwil][http://177.124.60.170:8087/painelDeControle.php?corpo=cadastroAtaReuniaoMensal][Chrome]
[09-07-15][14:42:22][179.184.37.5][179.184.37.5.static.gvt.net.br][][http://177.124.60.170:8087/index.php?][Chrome]
[09-07-15][14:42:25][179.184.37.5][179.184.37.5.static.gvt.net.br][ttat][http://177.124.60.170:8087/painelDeControle.php?][Chrome]
[09-07-15][14:42:25][179.184.37.5][179.184.37.5.static.gvt.net.br][ttat][http://177.124.60.170:8087/painelDeControle.php?][Chrome]
[09-07-15][14:42:27][179.184.37.5][179.184.37.5.static.gvt.net.br][ttat][http://177.124.60.170:8087/painelDeControle.php?corpo=buscaImovelControle][Chrome]
[09-07-15][14:42:28][179.184.37.5][179.184.37.5.static.gvt.net.br][ttat][http://177.124.60.170:8087/painelDeControle.php?corpo=buscaImovel][Chrome]
[09-07-15][14:42:28][179.184.37.5][179.184.37.5.static.gvt.net.br][ttat][http://177.124.60.170:8087/painelDeControle.php?corpo=buscaImovel][Chrome]
[09-07-15][14:42:31][179.184.37.5][179.184.37.5.static.gvt.net.br][ttat][http://177.124.60.170:8087/painelDeControle.php?corpo=buscaImovelControle&idOrganismoAfiliado=1][Chrome]
[09-07-15][14:42:38][179.184.37.5][179.184.37.5.static.gvt.net.br][ttat][http://177.124.60.170:8087/painelDeControle.php?corpo=cadastroImovelControle][Chrome]
[09-07-15][14:42:47][179.184.37.5][179.184.37.5.static.gvt.net.br][ttat][http://177.124.60.170:8087/painelDeControle.php?][Chrome]
[09-07-15][14:42:47][179.184.37.5][179.184.37.5.static.gvt.net.br][ttat][http://177.124.60.170:8087/painelDeControle.php?][Chrome]
[09-07-15][14:42:52][179.184.37.5][179.184.37.5.static.gvt.net.br][ttat][http://177.124.60.170:8087/painelDeControle.php?corpo=buscaImovel][Chrome]
[09-07-15][14:42:52][179.184.37.5][179.184.37.5.static.gvt.net.br][ttat][http://177.124.60.170:8087/painelDeControle.php?corpo=buscaImovel][Chrome]
[09-07-15][14:42:54][179.184.37.5][179.184.37.5.static.gvt.net.br][ttat][http://177.124.60.170:8087/painelDeControle.php?corpo=buscaImovelControle&idOrganismoAfiliado=1][Chrome]
[09-07-15][14:42:55][179.184.37.5][179.184.37.5.static.gvt.net.br][ttat][http://177.124.60.170:8087/painelDeControle.php?corpo=cadastroImovelControle][Chrome]
[09-07-15][14:43:51][179.184.37.5][179.184.37.5.static.gvt.net.br][ttat][http://177.124.60.170:8087/painelDeControle.php?corpo=buscaImovelControle&idOrganismoAfiliado=1&referenteAnoImovelControle=2015][Chrome]
[09-07-15][14:44:21][179.184.37.5][179.184.37.5.static.gvt.net.br][][http://177.124.60.170:8087/login.php?][Chrome]
[09-07-15][14:44:24][179.184.37.5][179.184.37.5.static.gvt.net.br][lbas][http://177.124.60.170:8087/painelDeControle.php?][Chrome]
[09-07-15][14:44:24][179.184.37.5][179.184.37.5.static.gvt.net.br][lbas][http://177.124.60.170:8087/painelDeControle.php?][Chrome]
[09-07-15][14:44:29][179.184.37.5][179.184.37.5.static.gvt.net.br][ttat][http://177.124.60.170:8087/painelDeControle.php?corpo=buscaImovelControle&idOrganismoAfiliado=1&referenteAnoImovelControle=2015][Chrome]
[09-07-15][14:44:35][179.184.37.5][179.184.37.5.static.gvt.net.br][ttat][http://177.124.60.170:8087/painelDeControle.php?][Chrome]
[09-07-15][14:44:35][179.184.37.5][179.184.37.5.static.gvt.net.br][ttat][http://177.124.60.170:8087/painelDeControle.php?][Chrome]
[09-07-15][14:45:47][179.184.37.5][179.184.37.5.static.gvt.net.br][ttat][http://177.124.60.170:8087/painelDeControle.php?corpo=buscaImovelControle][Chrome]
[09-07-15][14:45:48][179.184.37.5][179.184.37.5.static.gvt.net.br][ttat][http://177.124.60.170:8087/painelDeControle.php?corpo=buscaImovel][Chrome]
[09-07-15][14:45:48][179.184.37.5][179.184.37.5.static.gvt.net.br][ttat][http://177.124.60.170:8087/painelDeControle.php?corpo=buscaImovel][Chrome]
[09-07-15][14:46:01][179.184.37.5][179.184.37.5.static.gvt.net.br][ttat][http://177.124.60.170:8087/painelDeControle.php?corpo=buscaImovelControle&idOrganismoAfiliado=1][Chrome]
[09-07-15][14:47:22][179.184.37.5][179.184.37.5.static.gvt.net.br][ttat][http://177.124.60.170:8087/painelDeControle.php?][Chrome]
[09-07-15][14:47:22][179.184.37.5][179.184.37.5.static.gvt.net.br][ttat][http://177.124.60.170:8087/painelDeControle.php?][Chrome]
[09-07-15][14:48:48][179.184.37.5][179.184.37.5.static.gvt.net.br][ttat][http://177.124.60.170:8087/painelDeControle.php?corpo=buscaImovelControle][Chrome]
[09-07-15][14:48:49][179.184.37.5][179.184.37.5.static.gvt.net.br][ttat][http://177.124.60.170:8087/painelDeControle.php?corpo=buscaImovel][Chrome]
[09-07-15][14:48:49][179.184.37.5][179.184.37.5.static.gvt.net.br][ttat][http://177.124.60.170:8087/painelDeControle.php?corpo=buscaImovel][Chrome]
[09-07-15][14:49:06][179.184.37.5][179.184.37.5.static.gvt.net.br][ttat][http://177.124.60.170:8087/painelDeControle.php?corpo=buscaImovelControle&idOrganismoAfiliado=1][Chrome]
[09-07-15][14:49:35][179.184.37.5][179.184.37.5.static.gvt.net.br][ttat][http://177.124.60.170:8087/painelDeControle.php?][Chrome]
[09-07-15][14:49:35][179.184.37.5][179.184.37.5.static.gvt.net.br][ttat][http://177.124.60.170:8087/painelDeControle.php?][Chrome]
[09-07-15][14:51:24][179.184.37.5][179.184.37.5.static.gvt.net.br][ttat][http://177.124.60.170:8087/painelDeControle.php?corpo=buscaImovelControle][Chrome]
[09-07-15][14:51:25][179.184.37.5][179.184.37.5.static.gvt.net.br][ttat][http://177.124.60.170:8087/painelDeControle.php?corpo=buscaImovel][Chrome]
[09-07-15][14:51:25][179.184.37.5][179.184.37.5.static.gvt.net.br][ttat][http://177.124.60.170:8087/painelDeControle.php?corpo=buscaImovel][Chrome]
[09-07-15][14:51:32][179.184.37.5][179.184.37.5.static.gvt.net.br][ttat][http://177.124.60.170:8087/painelDeControle.php?corpo=buscaImovelControle&idOrganismoAfiliado=1][Chrome]
[09-07-15][14:52:15][179.184.37.5][179.184.37.5.static.gvt.net.br][ttat][http://177.124.60.170:8087/painelDeControle.php?corpo=cadastroImovelControle][Chrome]
[09-07-15][14:54:47][179.184.37.5][179.184.37.5.static.gvt.net.br][ttat][http://177.124.60.170:8087/painelDeControle.php?corpo=buscaImovelControle&idOrganismoAfiliado=1&referenteAnoImovelControle=2015][Chrome]
[09-07-15][14:56:34][179.184.37.5][179.184.37.5.static.gvt.net.br][ttat][http://177.124.60.170:8087/login.php?][Chrome]
[09-07-15][14:56:38][179.184.37.5][179.184.37.5.static.gvt.net.br][samuel.caldas][http://177.124.60.170:8087/painelDeControle.php?][Chrome]
[09-07-15][14:56:38][179.184.37.5][179.184.37.5.static.gvt.net.br][samuel.caldas][http://177.124.60.170:8087/painelDeControle.php?][Chrome]
[09-07-15][14:56:52][179.184.37.5][179.184.37.5.static.gvt.net.br][samuel.caldas][http://177.124.60.170:8087/painelDeControle.php?corpo=detalheNotificacao&idNotificacaoGlp=9][Chrome]
[09-07-15][14:56:52][179.184.37.5][179.184.37.5.static.gvt.net.br][samuel.caldas][http://177.124.60.170:8087/painelDeControle.php?corpo=detalheNotificacao&idNotificacaoGlp=9][Chrome]
[09-07-15][14:56:56][179.184.37.5][179.184.37.5.static.gvt.net.br][samuel.caldas][http://177.124.60.170:8087/login.php?][Chrome]
[09-07-15][14:57:02][179.184.37.5][179.184.37.5.static.gvt.net.br][ttat][http://177.124.60.170:8087/painelDeControle.php?][Chrome]
[09-07-15][14:57:02][179.184.37.5][179.184.37.5.static.gvt.net.br][ttat][http://177.124.60.170:8087/painelDeControle.php?][Chrome]
[09-07-15][14:57:06][179.184.37.5][179.184.37.5.static.gvt.net.br][ttat][http://177.124.60.170:8087/painelDeControle.php?corpo=buscaImovel][Chrome]
[09-07-15][14:57:06][179.184.37.5][179.184.37.5.static.gvt.net.br][ttat][http://177.124.60.170:8087/painelDeControle.php?corpo=buscaImovel][Chrome]
[09-07-15][14:57:08][179.184.37.5][179.184.37.5.static.gvt.net.br][ttat][http://177.124.60.170:8087/painelDeControle.php?corpo=buscaImovelControle&idOrganismoAfiliado=1][Chrome]
[09-07-15][14:57:21][179.184.37.5][179.184.37.5.static.gvt.net.br][ttat][http://177.124.60.170:8087/painelDeControle.php?corpo=buscaImovelControle&idOrganismoAfiliado=1&referenteAnoImovelControle=2014][Chrome]
[09-07-15][14:57:24][179.184.37.5][179.184.37.5.static.gvt.net.br][ttat][http://177.124.60.170:8087/painelDeControle.php?corpo=buscaImovelControle&idOrganismoAfiliado=1&referenteAnoImovelControle=2013][Chrome]
[09-07-15][14:57:29][179.184.37.5][179.184.37.5.static.gvt.net.br][ttat][http://177.124.60.170:8087/painelDeControle.php?corpo=buscaImovelControle&idOrganismoAfiliado=1&referenteAnoImovelControle=2014][Chrome]
[09-07-15][14:57:35][179.184.37.5][179.184.37.5.static.gvt.net.br][ttat][http://177.124.60.170:8087/painelDeControle.php?corpo=buscaImovelControle&idOrganismoAfiliado=1&referenteAnoImovelControle=2015][Chrome]
[09-07-15][14:58:07][179.184.37.5][179.184.37.5.static.gvt.net.br][ttat][http://177.124.60.170:8087/painelDeControle.php?][Chrome]
[09-07-15][14:58:07][179.184.37.5][179.184.37.5.static.gvt.net.br][ttat][http://177.124.60.170:8087/painelDeControle.php?][Chrome]
[09-07-15][14:58:15][179.184.37.5][179.184.37.5.static.gvt.net.br][ttat][http://177.124.60.170:8087/painelDeControle.php?corpo=buscaAtaReuniaoMensal][Chrome]
[09-07-15][14:58:15][179.184.37.5][179.184.37.5.static.gvt.net.br][ttat][http://177.124.60.170:8087/painelDeControle.php?corpo=buscaAtaReuniaoMensal][Chrome]
[09-07-15][15:06:07][179.184.37.5][179.184.37.5.static.gvt.net.br][admin][http://177.124.60.170:8087/index.php?][Chrome]
[09-07-15][15:06:11][179.184.37.5][179.184.37.5.static.gvt.net.br][admin][http://177.124.60.170:8087/painelDeControle.php?][Chrome]
[09-07-15][15:06:11][179.184.37.5][179.184.37.5.static.gvt.net.br][admin][http://177.124.60.170:8087/painelDeControle.php?][Chrome]
[09-07-15][15:06:19][179.184.37.5][179.184.37.5.static.gvt.net.br][admin][http://177.124.60.170:8087/painelDeControle.php?corpo=buscaPermissao][Chrome]
[09-07-15][15:06:19][179.184.37.5][179.184.37.5.static.gvt.net.br][admin][http://177.124.60.170:8087/painelDeControle.php?corpo=buscaPermissao][Chrome]
[09-07-15][15:08:50][179.184.37.5][179.184.37.5.static.gvt.net.br][][http://177.124.60.170:8087/index.php?][Chrome]
[09-07-15][15:08:55][179.184.37.5][179.184.37.5.static.gvt.net.br][carol][http://177.124.60.170:8087/painelDeControle.php?][Chrome]
[09-07-15][15:08:55][179.184.37.5][179.184.37.5.static.gvt.net.br][carol][http://177.124.60.170:8087/painelDeControle.php?][Chrome]
[09-07-15][15:09:25][179.184.37.5][179.184.37.5.static.gvt.net.br][carol][http://177.124.60.170:8087/painelDeControle.php?corpo=buscaAtaReuniaoMensal][Chrome]
[09-07-15][15:09:25][179.184.37.5][179.184.37.5.static.gvt.net.br][carol][http://177.124.60.170:8087/painelDeControle.php?corpo=buscaAtaReuniaoMensal][Chrome]
[09-07-15][15:09:28][179.184.37.5][179.184.37.5.static.gvt.net.br][carol][http://177.124.60.170:8087/painelDeControle.php?corpo=cadastroAtaReuniaoMensal][Chrome]
[09-07-15][15:09:28][179.184.37.5][179.184.37.5.static.gvt.net.br][carol][http://177.124.60.170:8087/painelDeControle.php?corpo=cadastroAtaReuniaoMensal][Chrome]
[09-07-15][15:09:39][179.184.37.5][179.184.37.5.static.gvt.net.br][carol][http://177.124.60.170:8087/painelDeControle.php?corpo=buscaAtaReuniaoMensal][Chrome]
[09-07-15][15:09:39][179.184.37.5][179.184.37.5.static.gvt.net.br][carol][http://177.124.60.170:8087/painelDeControle.php?corpo=buscaAtaReuniaoMensal][Chrome]
[09-07-15][15:09:44][179.184.37.5][179.184.37.5.static.gvt.net.br][carol][http://177.124.60.170:8087/painelDeControle.php?corpo=cadastroAtaReuniaoMensal][Chrome]
[09-07-15][15:09:44][179.184.37.5][179.184.37.5.static.gvt.net.br][carol][http://177.124.60.170:8087/painelDeControle.php?corpo=cadastroAtaReuniaoMensal][Chrome]
[09-07-15][15:10:00][179.184.37.5][179.184.37.5.static.gvt.net.br][carol][http://177.124.60.170:8087/painelDeControle.php?corpo=buscaAtaReuniaoMensal][Chrome]
[09-07-15][15:10:00][179.184.37.5][179.184.37.5.static.gvt.net.br][carol][http://177.124.60.170:8087/painelDeControle.php?corpo=buscaAtaReuniaoMensal][Chrome]
[09-07-15][15:10:05][179.184.37.5][179.184.37.5.static.gvt.net.br][carol][http://177.124.60.170:8087/painelDeControle.php?corpo=alteraAtaReuniaoMensal&idata_reuniao_mensal=1][Chrome]
[09-07-15][15:10:05][179.184.37.5][179.184.37.5.static.gvt.net.br][carol][http://177.124.60.170:8087/painelDeControle.php?corpo=alteraAtaReuniaoMensal&idata_reuniao_mensal=1][Chrome]
[09-07-15][15:10:14][179.184.37.5][179.184.37.5.static.gvt.net.br][carol][http://177.124.60.170:8087/painelDeControle.php?corpo=buscaAtaReuniaoMensal][Chrome]
[09-07-15][15:10:14][179.184.37.5][179.184.37.5.static.gvt.net.br][carol][http://177.124.60.170:8087/painelDeControle.php?corpo=buscaAtaReuniaoMensal][Chrome]
[09-07-15][15:10:50][179.184.37.5][179.184.37.5.static.gvt.net.br][carol][http://177.124.60.170:8087/painelDeControle.php?corpo=cadastroAtaReuniaoMensal][Chrome]
[09-07-15][15:10:50][179.184.37.5][179.184.37.5.static.gvt.net.br][carol][http://177.124.60.170:8087/painelDeControle.php?corpo=cadastroAtaReuniaoMensal][Chrome]
[09-07-15][15:11:57][179.184.37.5][179.184.37.5.static.gvt.net.br][admin][http://177.124.60.170:8087/painelDeControle.php?corpo=buscaPermissao][Chrome]
[09-07-15][15:11:57][179.184.37.5][179.184.37.5.static.gvt.net.br][admin][http://177.124.60.170:8087/painelDeControle.php?corpo=buscaPermissao][Chrome]
[09-07-15][15:16:07][179.184.37.5][179.184.37.5.static.gvt.net.br][carol][http://177.124.60.170:8087/painelDeControle.php?corpo=buscaAtaReuniaoMensal][Chrome]
[09-07-15][15:16:07][179.184.37.5][179.184.37.5.static.gvt.net.br][carol][http://177.124.60.170:8087/painelDeControle.php?corpo=buscaAtaReuniaoMensal][Chrome]
[09-07-15][15:22:24][179.184.37.5][179.184.37.5.static.gvt.net.br][carol][http://177.124.60.170:8087/painelDeControle.php?corpo=cadastroAtaReuniaoMensal][Chrome]
[09-07-15][15:22:24][179.184.37.5][179.184.37.5.static.gvt.net.br][carol][http://177.124.60.170:8087/painelDeControle.php?corpo=cadastroAtaReuniaoMensal][Chrome]
[09-07-15][15:24:03][179.184.37.5][179.184.37.5.static.gvt.net.br][lbas][http://177.124.60.170:8087/login.php?][Chrome]
[09-07-15][15:24:06][179.184.37.5][179.184.37.5.static.gvt.net.br][lbas][http://177.124.60.170:8087/painelDeControle.php?][Chrome]
[09-07-15][15:24:06][179.184.37.5][179.184.37.5.static.gvt.net.br][lbas][http://177.124.60.170:8087/painelDeControle.php?][Chrome]
[09-07-15][15:29:33][179.184.37.5][179.184.37.5.static.gvt.net.br][][http://177.124.60.170:8087/index.php?][Chrome]
[09-07-15][15:29:42][179.184.37.5][179.184.37.5.static.gvt.net.br][][http://177.124.60.170:8087/index.php?][Chrome]
[09-07-15][15:29:45][179.184.37.5][179.184.37.5.static.gvt.net.br][eele][http://177.124.60.170:8087/painelDeControle.php?][Chrome]
[09-07-15][15:29:45][179.184.37.5][179.184.37.5.static.gvt.net.br][eele][http://177.124.60.170:8087/painelDeControle.php?][Chrome]
[09-07-15][15:30:00][179.184.37.5][179.184.37.5.static.gvt.net.br][eele][http://177.124.60.170:8087/painelDeControle.php?corpo=buscaMembroOA][Chrome]
[09-07-15][15:30:00][179.184.37.5][179.184.37.5.static.gvt.net.br][eele][http://177.124.60.170:8087/painelDeControle.php?corpo=buscaMembroOA][Chrome]
[09-07-15][15:30:06][179.184.37.5][179.184.37.5.static.gvt.net.br][eele][http://177.124.60.170:8087/painelDeControle.php?corpo=buscaOficial][Chrome]
[09-07-15][15:30:07][179.184.37.5][179.184.37.5.static.gvt.net.br][eele][http://177.124.60.170:8087/painelDeControle.php?corpo=buscaOficial][Chrome]
[09-07-15][15:30:09][179.184.37.5][179.184.37.5.static.gvt.net.br][eele][http://177.124.60.170:8087/painelDeControle.php?corpo=atualizaQuadroOficiais][Chrome]
[09-07-15][15:30:09][179.184.37.5][179.184.37.5.static.gvt.net.br][eele][http://177.124.60.170:8087/painelDeControle.php?corpo=atualizaQuadroOficiais][Chrome]
[09-07-15][15:32:40][179.184.37.5][179.184.37.5.static.gvt.net.br][carol][http://177.124.60.170:8087/index.php?][Chrome]
[09-07-15][15:32:42][179.184.37.5][179.184.37.5.static.gvt.net.br][carol][http://177.124.60.170:8087/painelDeControle.php?][Chrome]
[09-07-15][15:32:42][179.184.37.5][179.184.37.5.static.gvt.net.br][carol][http://177.124.60.170:8087/painelDeControle.php?][Chrome]
[09-07-15][15:32:49][179.184.37.5][179.184.37.5.static.gvt.net.br][carol][http://177.124.60.170:8087/painelDeControle.php?corpo=buscaAtaReuniaoMensal][Chrome]
[09-07-15][15:32:49][179.184.37.5][179.184.37.5.static.gvt.net.br][carol][http://177.124.60.170:8087/painelDeControle.php?corpo=buscaAtaReuniaoMensal][Chrome]
[09-07-15][15:32:53][179.184.37.5][179.184.37.5.static.gvt.net.br][carol][http://177.124.60.170:8087/painelDeControle.php?corpo=cadastroAtaReuniaoMensal][Chrome]
[09-07-15][15:32:53][179.184.37.5][179.184.37.5.static.gvt.net.br][carol][http://177.124.60.170:8087/painelDeControle.php?corpo=cadastroAtaReuniaoMensal][Chrome]
[09-07-15][15:33:40][179.184.37.5][179.184.37.5.static.gvt.net.br][carol][http://177.124.60.170:8087/painelDeControle.php?corpo=cadastroAtaReuniaoMensal][Chrome]
[09-07-15][15:33:40][179.184.37.5][179.184.37.5.static.gvt.net.br][carol][http://177.124.60.170:8087/painelDeControle.php?corpo=cadastroAtaReuniaoMensal][Chrome]
[09-07-15][15:33:53][179.184.37.5][179.184.37.5.static.gvt.net.br][carol][http://177.124.60.170:8087/painelDeControle.php?corpo=cadastroAtaReuniaoMensal][Chrome]
[09-07-15][15:33:53][179.184.37.5][179.184.37.5.static.gvt.net.br][carol][http://177.124.60.170:8087/painelDeControle.php?corpo=cadastroAtaReuniaoMensal][Chrome]
[09-07-15][15:34:06][179.184.37.5][179.184.37.5.static.gvt.net.br][carol][http://177.124.60.170:8087/painelDeControle.php?corpo=cadastroAtaReuniaoMensal][Chrome]
[09-07-15][15:34:06][179.184.37.5][179.184.37.5.static.gvt.net.br][carol][http://177.124.60.170:8087/painelDeControle.php?corpo=cadastroAtaReuniaoMensal][Chrome]
[09-07-15][15:34:53][179.184.37.5][179.184.37.5.static.gvt.net.br][eele][http://177.124.60.170:8087/painelDeControle.php?corpo=buscaRegiaoRosacruz][Chrome]
[09-07-15][15:34:53][179.184.37.5][179.184.37.5.static.gvt.net.br][eele][http://177.124.60.170:8087/painelDeControle.php?corpo=buscaRegiaoRosacruz][Chrome]
[09-07-15][15:34:58][179.184.37.5][179.184.37.5.static.gvt.net.br][eele][http://177.124.60.170:8087/painelDeControle.php?corpo=buscaDiscurso][Chrome]
[09-07-15][15:34:58][179.184.37.5][179.184.37.5.static.gvt.net.br][eele][http://177.124.60.170:8087/painelDeControle.php?corpo=buscaDiscurso][Chrome]
[09-07-15][15:35:11][179.184.37.5][179.184.37.5.static.gvt.net.br][eele][http://177.124.60.170:8087/painelDeControle.php?corpo=buscaOficial][Chrome]
[09-07-15][15:35:11][179.184.37.5][179.184.37.5.static.gvt.net.br][eele][http://177.124.60.170:8087/painelDeControle.php?corpo=buscaOficial][Chrome]
[09-07-15][15:36:22][179.184.37.5][179.184.37.5.static.gvt.net.br][eele][http://177.124.60.170:8087/painelDeControle.php?corpo=buscaOrganismo][Chrome]
[09-07-15][15:36:22][179.184.37.5][179.184.37.5.static.gvt.net.br][eele][http://177.124.60.170:8087/painelDeControle.php?corpo=buscaOrganismo][Chrome]
[09-07-15][15:36:31][179.184.37.5][179.184.37.5.static.gvt.net.br][eele][http://177.124.60.170:8087/painelDeControle.php?corpo=buscaMembroOA][Chrome]
[09-07-15][15:36:31][179.184.37.5][179.184.37.5.static.gvt.net.br][eele][http://177.124.60.170:8087/painelDeControle.php?corpo=buscaMembroOA][Chrome]
[09-07-15][15:36:58][179.184.37.5][179.184.37.5.static.gvt.net.br][eele][http://177.124.60.170:8087/painelDeControle.php?corpo=buscaOficial][Chrome]
[09-07-15][15:36:58][179.184.37.5][179.184.37.5.static.gvt.net.br][eele][http://177.124.60.170:8087/painelDeControle.php?corpo=buscaOficial][Chrome]
[09-07-15][15:37:04][179.184.37.5][179.184.37.5.static.gvt.net.br][eele][http://177.124.60.170:8087/painelDeControle.php?corpo=buscaOficial][Chrome]
[09-07-15][15:37:04][179.184.37.5][179.184.37.5.static.gvt.net.br][eele][http://177.124.60.170:8087/painelDeControle.php?corpo=buscaOficial][Chrome]
[09-07-15][15:37:06][179.184.37.5][179.184.37.5.static.gvt.net.br][eele][http://177.124.60.170:8087/painelDeControle.php?corpo=atualizaQuadroOficiais][Chrome]
[09-07-15][15:37:06][179.184.37.5][179.184.37.5.static.gvt.net.br][eele][http://177.124.60.170:8087/painelDeControle.php?corpo=atualizaQuadroOficiais][Chrome]
[09-07-15][15:37:12][179.184.37.5][179.184.37.5.static.gvt.net.br][eele][http://177.124.60.170:8087/painelDeControle.php?corpo=buscaOficial][Chrome]
[09-07-15][15:37:12][179.184.37.5][179.184.37.5.static.gvt.net.br][eele][http://177.124.60.170:8087/painelDeControle.php?corpo=buscaOficial][Chrome]
[09-07-15][15:37:14][179.184.37.5][179.184.37.5.static.gvt.net.br][eele][http://177.124.60.170:8087/painelDeControle.php?corpo=atualizaQuadroOficiais][Chrome]
[09-07-15][15:37:14][179.184.37.5][179.184.37.5.static.gvt.net.br][eele][http://177.124.60.170:8087/painelDeControle.php?corpo=atualizaQuadroOficiais][Chrome]
[09-07-15][15:37:36][179.184.37.5][179.184.37.5.static.gvt.net.br][carol][http://177.124.60.170:8087/painelDeControle.php?corpo=buscaAtaPosse][Chrome]
[09-07-15][15:37:36][179.184.37.5][179.184.37.5.static.gvt.net.br][carol][http://177.124.60.170:8087/painelDeControle.php?corpo=buscaAtaPosse][Chrome]
[09-07-15][15:37:38][179.184.37.5][179.184.37.5.static.gvt.net.br][carol][http://177.124.60.170:8087/painelDeControle.php?corpo=cadastroAtaPosse][Chrome]
[09-07-15][15:37:38][179.184.37.5][179.184.37.5.static.gvt.net.br][carol][http://177.124.60.170:8087/painelDeControle.php?corpo=cadastroAtaPosse][Chrome]
[09-07-15][15:37:56][179.184.37.5][179.184.37.5.static.gvt.net.br][carol][http://177.124.60.170:8087/painelDeControle.php?corpo=buscaAtaReuniaoMensal][Chrome]
[09-07-15][15:37:56][179.184.37.5][179.184.37.5.static.gvt.net.br][carol][http://177.124.60.170:8087/painelDeControle.php?corpo=buscaAtaReuniaoMensal][Chrome]
[09-07-15][15:38:00][179.184.37.5][179.184.37.5.static.gvt.net.br][carol][http://177.124.60.170:8087/painelDeControle.php?corpo=cadastroAtaReuniaoMensal][Chrome]
[09-07-15][15:38:00][179.184.37.5][179.184.37.5.static.gvt.net.br][carol][http://177.124.60.170:8087/painelDeControle.php?corpo=cadastroAtaReuniaoMensal][Chrome]
[09-07-15][15:39:33][179.184.37.5][179.184.37.5.static.gvt.net.br][admin][http://177.124.60.170:8087/painelDeControle.php?corpo=buscaLivroRegiao][Chrome]
[09-07-15][15:39:33][179.184.37.5][179.184.37.5.static.gvt.net.br][admin][http://177.124.60.170:8087/painelDeControle.php?corpo=buscaLivroRegiao][Chrome]
[09-07-15][15:39:37][179.184.37.5][179.184.37.5.static.gvt.net.br][admin][http://177.124.60.170:8087/painelDeControle.php?corpo=cadastroLivroRegiao][Chrome]
[09-07-15][15:39:37][179.184.37.5][179.184.37.5.static.gvt.net.br][admin][http://177.124.60.170:8087/painelDeControle.php?corpo=cadastroLivroRegiao][Chrome]
[09-07-15][15:46:23][179.184.37.5][179.184.37.5.static.gvt.net.br][carol][http://177.124.60.170:8087/painelDeControle.php?corpo=buscaAtaReuniaoMensal][Chrome]
[09-07-15][15:46:23][179.184.37.5][179.184.37.5.static.gvt.net.br][carol][http://177.124.60.170:8087/painelDeControle.php?corpo=buscaAtaReuniaoMensal][Chrome]
[09-07-15][15:46:52][179.184.37.5][179.184.37.5.static.gvt.net.br][carol][http://177.124.60.170:8087/painelDeControle.php?corpo=alteraAtaReuniaoMensal&idata_reuniao_mensal=4][Chrome]
[09-07-15][15:46:52][179.184.37.5][179.184.37.5.static.gvt.net.br][carol][http://177.124.60.170:8087/painelDeControle.php?corpo=alteraAtaReuniaoMensal&idata_reuniao_mensal=4][Chrome]
[09-07-15][15:46:54][179.184.37.5][179.184.37.5.static.gvt.net.br][carol][http://177.124.60.170:8087/painelDeControle.php?corpo=buscaAtaReuniaoMensal][Chrome]
[09-07-15][15:46:54][179.184.37.5][179.184.37.5.static.gvt.net.br][carol][http://177.124.60.170:8087/painelDeControle.php?corpo=buscaAtaReuniaoMensal][Chrome]
[09-07-15][15:48:09][179.184.37.5][179.184.37.5.static.gvt.net.br][carol][http://177.124.60.170:8087/painelDeControle.php?corpo=alteraAtaReuniaoMensal&idata_reuniao_mensal=4][Chrome]
[09-07-15][15:48:09][179.184.37.5][179.184.37.5.static.gvt.net.br][carol][http://177.124.60.170:8087/painelDeControle.php?corpo=alteraAtaReuniaoMensal&idata_reuniao_mensal=4][Chrome]
[09-07-15][15:49:14][179.184.37.5][179.184.37.5.static.gvt.net.br][carol][http://177.124.60.170:8087/painelDeControle.php?corpo=perfilUsuario][Chrome]
[09-07-15][15:49:14][179.184.37.5][179.184.37.5.static.gvt.net.br][carol][http://177.124.60.170:8087/painelDeControle.php?corpo=perfilUsuario][Chrome]
[09-07-15][15:50:20][179.184.37.5][179.184.37.5.static.gvt.net.br][carol][http://177.124.60.170:8087/painelDeControle.php?corpo=perfilUsuario][Chrome]
[09-07-15][15:50:20][179.184.37.5][179.184.37.5.static.gvt.net.br][carol][http://177.124.60.170:8087/painelDeControle.php?corpo=perfilUsuario][Chrome]
[09-07-15][15:54:20][179.184.37.5][179.184.37.5.static.gvt.net.br][carol][http://177.124.60.170:8087/login.php?][Chrome]
[09-07-15][16:13:43][179.184.37.5][179.184.37.5.static.gvt.net.br][][http://177.124.60.170:8087/index.php?][Chrome]
[09-07-15][16:13:47][179.184.37.5][179.184.37.5.static.gvt.net.br][fev][http://177.124.60.170:8087/painelDeControle.php?][Chrome]
[09-07-15][16:13:47][179.184.37.5][179.184.37.5.static.gvt.net.br][fev][http://177.124.60.170:8087/painelDeControle.php?][Chrome]
[09-07-15][16:13:54][179.184.37.5][179.184.37.5.static.gvt.net.br][fev][http://177.124.60.170:8087/painelDeControle.php?corpo=buscaAtaReuniaoMensal][Chrome]
[09-07-15][16:13:54][179.184.37.5][179.184.37.5.static.gvt.net.br][fev][http://177.124.60.170:8087/painelDeControle.php?corpo=buscaAtaReuniaoMensal][Chrome]
[09-07-15][16:14:00][179.184.37.5][179.184.37.5.static.gvt.net.br][fev][http://177.124.60.170:8087/painelDeControle.php?corpo=chat][Chrome]
[09-07-15][16:14:00][179.184.37.5][179.184.37.5.static.gvt.net.br][fev][http://177.124.60.170:8087/painelDeControle.php?corpo=chat][Chrome]
[09-07-15][16:14:04][179.184.37.5][179.184.37.5.static.gvt.net.br][fev][http://177.124.60.170:8087/painelDeControle.php?corpo=chat&para=548234][Chrome]
[09-07-15][16:14:04][179.184.37.5][179.184.37.5.static.gvt.net.br][fev][http://177.124.60.170:8087/painelDeControle.php?corpo=chat&para=548234][Chrome]
[09-07-15][16:14:33][179.184.37.5][179.184.37.5.static.gvt.net.br][fev][http://177.124.60.170:8087/login.php?][Chrome]
[09-07-15][16:36:29][179.184.37.5][179.184.37.5.static.gvt.net.br][admin][http://177.124.60.170:8087/painelDeControle.php?corpo=buscaNivelDePermissao][Chrome]
[09-07-15][16:36:29][179.184.37.5][179.184.37.5.static.gvt.net.br][admin][http://177.124.60.170:8087/painelDeControle.php?corpo=buscaNivelDePermissao][Chrome]
[09-07-15][16:36:47][179.184.37.5][179.184.37.5.static.gvt.net.br][admin][http://177.124.60.170:8087/painelDeControle.php?corpo=buscaNivelDePermissao][Chrome]
[09-07-15][16:36:47][179.184.37.5][179.184.37.5.static.gvt.net.br][admin][http://177.124.60.170:8087/painelDeControle.php?corpo=buscaNivelDePermissao][Chrome]
[09-07-15][16:36:52][179.184.37.5][179.184.37.5.static.gvt.net.br][ttat][http://177.124.60.170:8087/painelDeControle.php?][Chrome]
[09-07-15][16:36:52][179.184.37.5][179.184.37.5.static.gvt.net.br][ttat][http://177.124.60.170:8087/painelDeControle.php?][Chrome]
[09-07-15][16:37:02][179.184.37.5][179.184.37.5.static.gvt.net.br][ttat][http://177.124.60.170:8087/painelDeControle.php?corpo=buscaNotificacoes][Chrome]
[09-07-15][16:37:02][179.184.37.5][179.184.37.5.static.gvt.net.br][ttat][http://177.124.60.170:8087/painelDeControle.php?corpo=buscaNotificacoes][Chrome]
[09-07-15][16:37:11][179.184.37.5][179.184.37.5.static.gvt.net.br][ttat][http://177.124.60.170:8087/painelDeControle.php?][Chrome]
[09-07-15][16:37:11][179.184.37.5][179.184.37.5.static.gvt.net.br][ttat][http://177.124.60.170:8087/painelDeControle.php?][Chrome]
[09-07-15][16:37:11][179.184.37.5][179.184.37.5.static.gvt.net.br][admin][http://177.124.60.170:8087/painelDeControle.php?corpo=buscaPermissao][Chrome]
[09-07-15][16:37:11][179.184.37.5][179.184.37.5.static.gvt.net.br][admin][http://177.124.60.170:8087/painelDeControle.php?corpo=buscaPermissao][Chrome]
[09-07-15][16:37:53][179.184.37.5][179.184.37.5.static.gvt.net.br][ttat][http://177.124.60.170:8087/painelDeControle.php?corpo=buscaRelatorioAnualFinanceiro][Chrome]
[09-07-15][16:38:04][179.184.37.5][179.184.37.5.static.gvt.net.br][ttat][http://177.124.60.170:8087/painelDeControle.php?corpo=buscaSaldoInicial][Chrome]
[09-07-15][16:38:04][179.184.37.5][179.184.37.5.static.gvt.net.br][ttat][http://177.124.60.170:8087/painelDeControle.php?corpo=buscaSaldoInicial][Chrome]
[09-07-15][16:38:06][179.184.37.5][179.184.37.5.static.gvt.net.br][ttat][http://177.124.60.170:8087/painelDeControle.php?corpo=buscaRecebimentos][Chrome]
[09-07-15][16:39:55][179.184.37.5][179.184.37.5.static.gvt.net.br][ttat][http://177.124.60.170:8087/painelDeControle.php?corpo=buscaDespesas][Chrome]
[09-07-15][16:40:00][179.184.37.5][179.184.37.5.static.gvt.net.br][ttat][http://177.124.60.170:8087/painelDeControle.php?corpo=buscaSaldoInicial][Chrome]
[09-07-15][16:40:00][179.184.37.5][179.184.37.5.static.gvt.net.br][ttat][http://177.124.60.170:8087/painelDeControle.php?corpo=buscaSaldoInicial][Chrome]
[09-07-15][16:50:04][179.184.37.5][179.184.37.5.static.gvt.net.br][ttat][http://177.124.60.170:8087/painelDeControle.php?corpo=buscaSaldoInicial][Chrome]
[09-07-15][16:50:04][179.184.37.5][179.184.37.5.static.gvt.net.br][ttat][http://177.124.60.170:8087/painelDeControle.php?corpo=buscaSaldoInicial][Chrome]
[09-07-15][16:50:08][179.184.37.5][179.184.37.5.static.gvt.net.br][ttat][http://177.124.60.170:8087/painelDeControle.php?corpo=buscaRecebimentos][Chrome]
[09-07-15][16:50:14][179.184.37.5][179.184.37.5.static.gvt.net.br][ttat][http://177.124.60.170:8087/painelDeControle.php?corpo=buscaDespesas][Chrome]
[09-07-15][16:50:16][179.184.37.5][179.184.37.5.static.gvt.net.br][ttat][http://177.124.60.170:8087/painelDeControle.php?corpo=buscaRendimentos][Chrome]
[09-07-15][16:50:19][179.184.37.5][179.184.37.5.static.gvt.net.br][ttat][http://177.124.60.170:8087/painelDeControle.php?corpo=buscaMembrosRosacruzesAtivos][Chrome]
[09-07-15][16:52:04][179.184.37.5][179.184.37.5.static.gvt.net.br][ttat][http://177.124.60.170:8087/painelDeControle.php?corpo=buscaMembrosRosacruzesAtivos][Chrome]
[09-07-15][16:52:53][179.184.37.5][179.184.37.5.static.gvt.net.br][ttat][http://177.124.60.170:8087/painelDeControle.php?corpo=buscaMembrosRosacruzesAtivos][Chrome]
[09-07-15][16:53:02][179.184.37.5][179.184.37.5.static.gvt.net.br][ttat][http://177.124.60.170:8087/painelDeControle.php?corpo=buscaMembrosRosacruzesAtivos][Chrome]
[09-07-15][16:53:05][179.184.37.5][179.184.37.5.static.gvt.net.br][ttat][http://177.124.60.170:8087/painelDeControle.php?corpo=buscaMembrosRosacruzesAtivos&mesAtual=06&anoAtual=2015][Chrome]
[09-07-15][16:53:06][179.184.37.5][179.184.37.5.static.gvt.net.br][ttat][http://177.124.60.170:8087/painelDeControle.php?corpo=buscaMembrosRosacruzesAtivos&mesAtual=05&anoAtual=2015][Chrome]
[09-07-15][16:53:07][179.184.37.5][179.184.37.5.static.gvt.net.br][ttat][http://177.124.60.170:8087/painelDeControle.php?corpo=buscaMembrosRosacruzesAtivos&mesAtual=04&anoAtual=2015][Chrome]
[09-07-15][16:53:09][179.184.37.5][179.184.37.5.static.gvt.net.br][ttat][http://177.124.60.170:8087/painelDeControle.php?corpo=buscaDividas][Chrome]
[09-07-15][16:53:11][179.184.37.5][179.184.37.5.static.gvt.net.br][ttat][http://177.124.60.170:8087/painelDeControle.php?corpo=buscaMensalidadeOA][Chrome]
[09-07-15][16:53:11][179.184.37.5][179.184.37.5.static.gvt.net.br][ttat][http://177.124.60.170:8087/painelDeControle.php?corpo=buscaMensalidadeOA][Chrome]
[09-07-15][16:53:13][179.184.37.5][179.184.37.5.static.gvt.net.br][ttat][http://177.124.60.170:8087/painelDeControle.php?corpo=buscaRelatorioMensalFinanceiro][Chrome]
[09-07-15][16:54:09][179.184.37.5][179.184.37.5.static.gvt.net.br][ttat][http://177.124.60.170:8087/painelDeControle.php?corpo=buscaRelatorioMensalFinanceiro][Chrome]
[09-07-15][16:55:25][179.184.37.5][179.184.37.5.static.gvt.net.br][][http://177.124.60.170:8087/index.php?][Chrome]
[09-07-15][16:55:39][179.184.37.5][179.184.37.5.static.gvt.net.br][ttat][http://177.124.60.170:8087/painelDeControle.php?][Chrome]
[09-07-15][16:55:39][179.184.37.5][179.184.37.5.static.gvt.net.br][ttat][http://177.124.60.170:8087/painelDeControle.php?][Chrome]
[09-07-15][16:57:08][179.184.37.5][179.184.37.5.static.gvt.net.br][lbas][http://177.124.60.170:8087/index.php?][Chrome]
[09-07-15][16:57:13][179.184.37.5][179.184.37.5.static.gvt.net.br][lbas][http://177.124.60.170:8087/painelDeControle.php?][Chrome]
[09-07-15][16:57:13][179.184.37.5][179.184.37.5.static.gvt.net.br][lbas][http://177.124.60.170:8087/painelDeControle.php?][Chrome]
[09-07-15][16:57:32][179.184.37.5][179.184.37.5.static.gvt.net.br][ttat][http://177.124.60.170:8087/painelDeControle.php?corpo=buscaAtaReuniaoMensal][Chrome]
[09-07-15][16:57:32][179.184.37.5][179.184.37.5.static.gvt.net.br][ttat][http://177.124.60.170:8087/painelDeControle.php?corpo=buscaAtaReuniaoMensal][Chrome]
[09-07-15][16:57:38][179.184.37.5][179.184.37.5.static.gvt.net.br][ttat][http://177.124.60.170:8087/painelDeControle.php?corpo=buscaSaldoInicial][Chrome]
[09-07-15][16:57:38][179.184.37.5][179.184.37.5.static.gvt.net.br][ttat][http://177.124.60.170:8087/painelDeControle.php?corpo=buscaSaldoInicial][Chrome]
[09-07-15][16:57:43][179.184.37.5][179.184.37.5.static.gvt.net.br][lbas][http://177.124.60.170:8087/painelDeControle.php?corpo=buscaNotificacoes][Chrome]
[09-07-15][16:57:43][179.184.37.5][179.184.37.5.static.gvt.net.br][lbas][http://177.124.60.170:8087/painelDeControle.php?corpo=buscaNotificacoes][Chrome]
[09-07-15][16:58:59][179.184.37.5][179.184.37.5.static.gvt.net.br][lbas][http://177.124.60.170:8087/painelDeControle.php?][Chrome]
[09-07-15][16:58:59][179.184.37.5][179.184.37.5.static.gvt.net.br][lbas][http://177.124.60.170:8087/painelDeControle.php?][Chrome]
[09-07-15][16:59:02][179.184.37.5][179.184.37.5.static.gvt.net.br][lbas][http://177.124.60.170:8087/painelDeControle.php?corpo=buscaNotificacoes][Chrome]
[09-07-15][16:59:02][179.184.37.5][179.184.37.5.static.gvt.net.br][lbas][http://177.124.60.170:8087/painelDeControle.php?corpo=buscaNotificacoes][Chrome]
[09-07-15][16:59:08][179.184.37.5][179.184.37.5.static.gvt.net.br][lbas][http://177.124.60.170:8087/painelDeControle.php?corpo=detalheNotificacao&idNotificacaoGlp=11][Chrome]
[09-07-15][16:59:08][179.184.37.5][179.184.37.5.static.gvt.net.br][lbas][http://177.124.60.170:8087/painelDeControle.php?corpo=detalheNotificacao&idNotificacaoGlp=11][Chrome]
[09-07-15][16:59:12][179.184.37.5][179.184.37.5.static.gvt.net.br][lbas][http://177.124.60.170:8087/painelDeControle.php?corpo=buscaNotificacoes][Chrome]
[09-07-15][16:59:12][179.184.37.5][179.184.37.5.static.gvt.net.br][lbas][http://177.124.60.170:8087/painelDeControle.php?corpo=buscaNotificacoes][Chrome]
[09-07-15][16:59:15][179.184.37.5][179.184.37.5.static.gvt.net.br][lbas][http://177.124.60.170:8087/painelDeControle.php?corpo=detalheNotificacao&idNotificacaoGlp=10][Chrome]
[09-07-15][16:59:15][179.184.37.5][179.184.37.5.static.gvt.net.br][lbas][http://177.124.60.170:8087/painelDeControle.php?corpo=detalheNotificacao&idNotificacaoGlp=10][Chrome]
[09-07-15][16:59:20][179.184.37.5][179.184.37.5.static.gvt.net.br][lbas][http://177.124.60.170:8087/painelDeControle.php?corpo=buscaNotificacoes][Chrome]
[09-07-15][16:59:20][179.184.37.5][179.184.37.5.static.gvt.net.br][lbas][http://177.124.60.170:8087/painelDeControle.php?corpo=buscaNotificacoes][Chrome]
[09-07-15][16:59:22][179.184.37.5][179.184.37.5.static.gvt.net.br][lbas][http://177.124.60.170:8087/painelDeControle.php?corpo=detalheNotificacao&idNotificacaoGlp=8][Chrome]
[09-07-15][16:59:22][179.184.37.5][179.184.37.5.static.gvt.net.br][lbas][http://177.124.60.170:8087/painelDeControle.php?corpo=detalheNotificacao&idNotificacaoGlp=8][Chrome]
[09-07-15][16:59:25][179.184.37.5][179.184.37.5.static.gvt.net.br][lbas][http://177.124.60.170:8087/painelDeControle.php?corpo=buscaNotificacoes][Chrome]
[09-07-15][16:59:25][179.184.37.5][179.184.37.5.static.gvt.net.br][lbas][http://177.124.60.170:8087/painelDeControle.php?corpo=buscaNotificacoes][Chrome]
[09-07-15][16:59:34][179.184.37.5][179.184.37.5.static.gvt.net.br][lbas][http://177.124.60.170:8087/painelDeControle.php?corpo=detalheNotificacao&idNotificacaoGlp=7][Chrome]
[09-07-15][16:59:34][179.184.37.5][179.184.37.5.static.gvt.net.br][lbas][http://177.124.60.170:8087/painelDeControle.php?corpo=detalheNotificacao&idNotificacaoGlp=7][Chrome]
[09-07-15][16:59:36][179.184.37.5][179.184.37.5.static.gvt.net.br][lbas][http://177.124.60.170:8087/painelDeControle.php?corpo=buscaNotificacoes][Chrome]
[09-07-15][16:59:36][179.184.37.5][179.184.37.5.static.gvt.net.br][lbas][http://177.124.60.170:8087/painelDeControle.php?corpo=buscaNotificacoes][Chrome]
[09-07-15][16:59:40][179.184.37.5][179.184.37.5.static.gvt.net.br][lbas][http://177.124.60.170:8087/painelDeControle.php?corpo=detalheNotificacao&idNotificacaoGlp=6][Chrome]
[09-07-15][16:59:40][179.184.37.5][179.184.37.5.static.gvt.net.br][lbas][http://177.124.60.170:8087/painelDeControle.php?corpo=detalheNotificacao&idNotificacaoGlp=6][Chrome]
[09-07-15][16:59:42][179.184.37.5][179.184.37.5.static.gvt.net.br][lbas][http://177.124.60.170:8087/painelDeControle.php?corpo=buscaNotificacoes][Chrome]
[09-07-15][16:59:42][179.184.37.5][179.184.37.5.static.gvt.net.br][lbas][http://177.124.60.170:8087/painelDeControle.php?corpo=buscaNotificacoes][Chrome]
[09-07-15][16:59:46][179.184.37.5][179.184.37.5.static.gvt.net.br][lbas][http://177.124.60.170:8087/painelDeControle.php?corpo=detalheNotificacao&idNotificacaoGlp=5][Chrome]
[09-07-15][16:59:46][179.184.37.5][179.184.37.5.static.gvt.net.br][lbas][http://177.124.60.170:8087/painelDeControle.php?corpo=detalheNotificacao&idNotificacaoGlp=5][Chrome]
[09-07-15][16:59:48][179.184.37.5][179.184.37.5.static.gvt.net.br][lbas][http://177.124.60.170:8087/painelDeControle.php?corpo=buscaNotificacoes][Chrome]
[09-07-15][16:59:48][179.184.37.5][179.184.37.5.static.gvt.net.br][lbas][http://177.124.60.170:8087/painelDeControle.php?corpo=buscaNotificacoes][Chrome]
[09-07-15][16:59:50][179.184.37.5][179.184.37.5.static.gvt.net.br][lbas][http://177.124.60.170:8087/painelDeControle.php?corpo=detalheNotificacao&idNotificacaoGlp=1][Chrome]
[09-07-15][16:59:50][179.184.37.5][179.184.37.5.static.gvt.net.br][lbas][http://177.124.60.170:8087/painelDeControle.php?corpo=detalheNotificacao&idNotificacaoGlp=1][Chrome]
[09-07-15][16:59:52][179.184.37.5][179.184.37.5.static.gvt.net.br][lbas][http://177.124.60.170:8087/painelDeControle.php?corpo=buscaNotificacoes][Chrome]
[09-07-15][16:59:52][179.184.37.5][179.184.37.5.static.gvt.net.br][lbas][http://177.124.60.170:8087/painelDeControle.php?corpo=buscaNotificacoes][Chrome]
[09-07-15][17:00:11][179.184.37.5][179.184.37.5.static.gvt.net.br][lbas][http://177.124.60.170:8087/painelDeControle.php?corpo=buscaLivroOrganismo][Chrome]
[09-07-15][17:00:11][179.184.37.5][179.184.37.5.static.gvt.net.br][lbas][http://177.124.60.170:8087/painelDeControle.php?corpo=buscaLivroOrganismo][Chrome]
[09-07-15][17:00:14][179.184.37.5][179.184.37.5.static.gvt.net.br][lbas][http://177.124.60.170:8087/painelDeControle.php?corpo=cadastroLivroOrganismo][Chrome]
[09-07-15][17:00:14][179.184.37.5][179.184.37.5.static.gvt.net.br][lbas][http://177.124.60.170:8087/painelDeControle.php?corpo=cadastroLivroOrganismo][Chrome]
[09-07-15][17:19:12][66.249.83.133][google-proxy-66-249-83-133.google.com][][http://177.124.60.170:8087/index.php?][Firefox]
[09-07-15][17:19:12][66.249.83.129][google-proxy-66-249-83-129.google.com][][http://177.124.60.170:8087/index.php?][Firefox]
[09-07-15][17:19:13][66.102.7.215][google-proxy-66-102-7-215.google.com][][http://177.124.60.170:8087/index.php?][Chrome]
[09-07-15][17:25:32][179.184.37.5][179.184.37.5.static.gvt.net.br][admin][http://177.124.60.170:8087/painelDeControle.php?corpo=buscaSubMenu][Chrome]
[09-07-15][17:25:32][179.184.37.5][179.184.37.5.static.gvt.net.br][admin][http://177.124.60.170:8087/painelDeControle.php?corpo=buscaSubMenu][Chrome]
[09-07-15][17:27:23][179.184.37.5][179.184.37.5.static.gvt.net.br][admin][http://177.124.60.170:8087/painelDeControle.php?corpo=buscaSubMenu][Chrome]
[09-07-15][17:27:23][179.184.37.5][179.184.37.5.static.gvt.net.br][admin][http://177.124.60.170:8087/painelDeControle.php?corpo=buscaSubMenu][Chrome]
[09-07-15][17:28:38][179.184.37.5][179.184.37.5.static.gvt.net.br][admin][http://177.124.60.170:8087/painelDeControle.php?corpo=cadastroSubMenu][Chrome]
[09-07-15][17:28:38][179.184.37.5][179.184.37.5.static.gvt.net.br][admin][http://177.124.60.170:8087/painelDeControle.php?corpo=cadastroSubMenu][Chrome]
[09-07-15][17:29:10][179.184.37.5][179.184.37.5.static.gvt.net.br][admin][http://177.124.60.170:8087/painelDeControle.php?corpo=buscaSubMenu][Chrome]
[09-07-15][17:29:10][179.184.37.5][179.184.37.5.static.gvt.net.br][admin][http://177.124.60.170:8087/painelDeControle.php?corpo=buscaSubMenu][Chrome]
[09-07-15][17:29:34][179.184.37.5][179.184.37.5.static.gvt.net.br][admin][http://177.124.60.170:8087/painelDeControle.php?corpo=buscaOpcaoSubMenu][Chrome]
[09-07-15][17:29:34][179.184.37.5][179.184.37.5.static.gvt.net.br][admin][http://177.124.60.170:8087/painelDeControle.php?corpo=buscaOpcaoSubMenu][Chrome]
[09-07-15][17:29:47][179.184.37.5][179.184.37.5.static.gvt.net.br][admin][http://177.124.60.170:8087/painelDeControle.php?corpo=buscaOpcaoSubMenu][Chrome]
[09-07-15][17:29:47][179.184.37.5][179.184.37.5.static.gvt.net.br][admin][http://177.124.60.170:8087/painelDeControle.php?corpo=buscaOpcaoSubMenu][Chrome]
[09-07-15][17:30:02][179.184.37.5][179.184.37.5.static.gvt.net.br][admin][http://177.124.60.170:8087/painelDeControle.php?corpo=buscaPermissao][Chrome]
[09-07-15][17:30:02][179.184.37.5][179.184.37.5.static.gvt.net.br][admin][http://177.124.60.170:8087/painelDeControle.php?corpo=buscaPermissao][Chrome]
[09-07-15][17:31:23][179.184.37.5][179.184.37.5.static.gvt.net.br][admin][http://177.124.60.170:8087/login.php?][Chrome]
[09-07-15][17:31:26][179.184.37.5][179.184.37.5.static.gvt.net.br][admin][http://177.124.60.170:8087/painelDeControle.php?][Chrome]
[09-07-15][17:31:26][179.184.37.5][179.184.37.5.static.gvt.net.br][admin][http://177.124.60.170:8087/painelDeControle.php?][Chrome]
[09-07-15][17:31:30][179.184.37.5][179.184.37.5.static.gvt.net.br][admin][http://177.124.60.170:8087/painelDeControle.php?corpo=buscaAtaPosse][Chrome]
[09-07-15][17:31:30][179.184.37.5][179.184.37.5.static.gvt.net.br][admin][http://177.124.60.170:8087/painelDeControle.php?corpo=buscaAtaPosse][Chrome]
[09-07-15][17:31:32][179.184.37.5][179.184.37.5.static.gvt.net.br][admin][http://177.124.60.170:8087/login.php?][Chrome]
[09-07-15][19:21:50][191.177.247.145][bfb1f791.virtua.com.br][][http://177.124.60.170:8087/login.php?][Chrome]
[09-07-15][19:21:53][191.177.247.145][bfb1f791.virtua.com.br][lbas][http://177.124.60.170:8087/painelDeControle.php?][Chrome]
[09-07-15][19:21:53][191.177.247.145][bfb1f791.virtua.com.br][lbas][http://177.124.60.170:8087/painelDeControle.php?][Chrome]
[09-07-15][19:22:03][191.177.247.145][bfb1f791.virtua.com.br][lbas][http://177.124.60.170:8087/painelDeControle.php?corpo=buscaLivroOrganismo][Chrome]
[09-07-15][19:22:03][191.177.247.145][bfb1f791.virtua.com.br][lbas][http://177.124.60.170:8087/painelDeControle.php?corpo=buscaLivroOrganismo][Chrome]
[09-07-15][19:22:06][191.177.247.145][bfb1f791.virtua.com.br][lbas][http://177.124.60.170:8087/painelDeControle.php?corpo=cadastroLivroOrganismo][Chrome]
[09-07-15][19:22:06][191.177.247.145][bfb1f791.virtua.com.br][lbas][http://177.124.60.170:8087/painelDeControle.php?corpo=cadastroLivroOrganismo][Chrome]
[09-07-15][19:37:59][191.177.247.145][bfb1f791.virtua.com.br][lbas][http://177.124.60.170:8087/painelDeControle.php?corpo=buscaLivroOrganismo][Chrome]
[09-07-15][19:37:59][191.177.247.145][bfb1f791.virtua.com.br][lbas][http://177.124.60.170:8087/painelDeControle.php?corpo=buscaLivroOrganismo][Chrome]
[09-07-15][19:48:14][191.177.247.145][bfb1f791.virtua.com.br][lbas][http://177.124.60.170:8087/painelDeControle.php?corpo=cadastroLivroOrganismo][Chrome]
[09-07-15][19:48:14][191.177.247.145][bfb1f791.virtua.com.br][lbas][http://177.124.60.170:8087/painelDeControle.php?corpo=cadastroLivroOrganismo][Chrome]
[09-07-15][19:48:22][191.177.247.145][bfb1f791.virtua.com.br][lbas][http://177.124.60.170:8087/painelDeControle.php?corpo=buscaLivroOrganismo][Chrome]
[09-07-15][19:48:22][191.177.247.145][bfb1f791.virtua.com.br][lbas][http://177.124.60.170:8087/painelDeControle.php?corpo=buscaLivroOrganismo][Chrome]
[09-07-15][19:48:25][191.177.247.145][bfb1f791.virtua.com.br][lbas][http://177.124.60.170:8087/painelDeControle.php?corpo=cadastroLivroOrganismo][Chrome]
[09-07-15][19:48:25][191.177.247.145][bfb1f791.virtua.com.br][lbas][http://177.124.60.170:8087/painelDeControle.php?corpo=cadastroLivroOrganismo][Chrome]
[09-07-15][19:56:59][191.177.247.145][bfb1f791.virtua.com.br][lbas][http://177.124.60.170:8087/painelDeControle.php?corpo=buscaLivroOrganismo][Chrome]
[09-07-15][19:56:59][191.177.247.145][bfb1f791.virtua.com.br][lbas][http://177.124.60.170:8087/painelDeControle.php?corpo=buscaLivroOrganismo][Chrome]
[09-07-15][19:57:06][191.177.247.145][bfb1f791.virtua.com.br][lbas][http://177.124.60.170:8087/painelDeControle.php?corpo=cadastroLivroOrganismo][Chrome]
[09-07-15][19:57:06][191.177.247.145][bfb1f791.virtua.com.br][lbas][http://177.124.60.170:8087/painelDeControle.php?corpo=cadastroLivroOrganismo][Chrome]
[09-07-15][20:02:30][191.177.247.145][bfb1f791.virtua.com.br][lbas][http://177.124.60.170:8087/painelDeControle.php?corpo=buscaLivroOrganismo][Chrome]
[09-07-15][20:02:30][191.177.247.145][bfb1f791.virtua.com.br][lbas][http://177.124.60.170:8087/painelDeControle.php?corpo=buscaLivroOrganismo][Chrome]
[09-07-15][20:02:40][191.177.247.145][bfb1f791.virtua.com.br][lbas][http://177.124.60.170:8087/painelDeControle.php?corpo=cadastroLivroOrganismo][Chrome]
[09-07-15][20:02:40][191.177.247.145][bfb1f791.virtua.com.br][lbas][http://177.124.60.170:8087/painelDeControle.php?corpo=cadastroLivroOrganismo][Chrome]
[09-07-15][20:02:54][191.177.247.145][bfb1f791.virtua.com.br][lbas][http://177.124.60.170:8087/painelDeControle.php?corpo=buscaLivroRegiao][Chrome]
[09-07-15][20:02:54][191.177.247.145][bfb1f791.virtua.com.br][lbas][http://177.124.60.170:8087/painelDeControle.php?corpo=buscaLivroRegiao][Chrome]
[09-07-15][20:02:58][191.177.247.145][bfb1f791.virtua.com.br][lbas][http://177.124.60.170:8087/painelDeControle.php?corpo=buscaLivroOrganismo][Chrome]
[09-07-15][20:02:58][191.177.247.145][bfb1f791.virtua.com.br][lbas][http://177.124.60.170:8087/painelDeControle.php?corpo=buscaLivroOrganismo][Chrome]
[09-07-15][20:04:14][191.177.247.145][bfb1f791.virtua.com.br][lbas][http://177.124.60.170:8087/painelDeControle.php?corpo=buscaLivroOrganismo][Chrome]
[09-07-15][20:04:14][191.177.247.145][bfb1f791.virtua.com.br][lbas][http://177.124.60.170:8087/painelDeControle.php?corpo=buscaLivroOrganismo][Chrome]
[09-07-15][20:05:40][191.177.247.145][bfb1f791.virtua.com.br][lbas][http://177.124.60.170:8087/painelDeControle.php?corpo=buscaLivroOrganismo][Chrome]
[09-07-15][20:05:40][191.177.247.145][bfb1f791.virtua.com.br][lbas][http://177.124.60.170:8087/painelDeControle.php?corpo=buscaLivroOrganismo][Chrome]
[09-07-15][20:05:46][191.177.247.145][bfb1f791.virtua.com.br][lbas][http://177.124.60.170:8087/painelDeControle.php?corpo=buscaLivroOrganismo][Chrome]
[09-07-15][20:05:46][191.177.247.145][bfb1f791.virtua.com.br][lbas][http://177.124.60.170:8087/painelDeControle.php?corpo=buscaLivroOrganismo][Chrome]
[09-07-15][21:02:14][189.101.122.176][bd657ab0.virtua.com.br][][http://177.124.60.170:8087/index.php?][other]
[09-07-15][21:02:44][189.101.122.176][bd657ab0.virtua.com.br][eele][http://177.124.60.170:8087/painelDeControle.php?][other]
[09-07-15][21:02:44][189.101.122.176][bd657ab0.virtua.com.br][eele][http://177.124.60.170:8087/painelDeControle.php?][other]
[09-07-15][21:03:41][189.101.122.176][bd657ab0.virtua.com.br][eele][http://177.124.60.170:8087/painelDeControle.php?][other]
[09-07-15][21:03:41][189.101.122.176][bd657ab0.virtua.com.br][eele][http://177.124.60.170:8087/painelDeControle.php?][other]
[09-07-15][21:04:11][189.101.122.176][bd657ab0.virtua.com.br][eele][http://177.124.60.170:8087/painelDeControle.php?corpo=buscaOficial][other]
[09-07-15][21:04:11][189.101.122.176][bd657ab0.virtua.com.br][eele][http://177.124.60.170:8087/painelDeControle.php?corpo=buscaOficial][other]
[09-07-15][21:08:55][189.101.122.176][bd657ab0.virtua.com.br][eele][http://177.124.60.170:8087/painelDeControle.php?corpo=atualizaQuadroOficiais][other]
[09-07-15][21:08:55][189.101.122.176][bd657ab0.virtua.com.br][eele][http://177.124.60.170:8087/painelDeControle.php?corpo=atualizaQuadroOficiais][other]
[09-07-15][21:11:44][189.101.122.176][bd657ab0.virtua.com.br][eele][http://177.124.60.170:8087/painelDeControle.php?][other]
[09-07-15][21:11:44][189.101.122.176][bd657ab0.virtua.com.br][eele][http://177.124.60.170:8087/painelDeControle.php?][other]
[09-07-15][21:12:02][189.101.122.176][bd657ab0.virtua.com.br][eele][http://177.124.60.170:8087/painelDeControle.php?][other]
[09-07-15][21:12:02][189.101.122.176][bd657ab0.virtua.com.br][eele][http://177.124.60.170:8087/painelDeControle.php?][other]
[09-07-15][21:12:32][189.101.122.176][bd657ab0.virtua.com.br][eele][http://177.124.60.170:8087/painelDeControle.php?corpo=buscaOficial][other]
[09-07-15][21:12:32][189.101.122.176][bd657ab0.virtua.com.br][eele][http://177.124.60.170:8087/painelDeControle.php?corpo=buscaOficial][other]
[09-07-15][21:12:51][189.101.122.176][bd657ab0.virtua.com.br][eele][http://177.124.60.170:8087/painelDeControle.php?corpo=atualizaQuadroOficiais][other]
[09-07-15][21:12:51][189.101.122.176][bd657ab0.virtua.com.br][eele][http://177.124.60.170:8087/painelDeControle.php?corpo=atualizaQuadroOficiais][other]
[09-07-15][21:20:36][189.101.122.176][bd657ab0.virtua.com.br][eele][http://177.124.60.170:8087/painelDeControle.php?corpo=buscaOficial][other]
[09-07-15][21:20:36][189.101.122.176][bd657ab0.virtua.com.br][eele][http://177.124.60.170:8087/painelDeControle.php?corpo=buscaOficial][other]
[09-07-15][21:20:52][189.101.122.176][bd657ab0.virtua.com.br][eele][http://177.124.60.170:8087/painelDeControle.php?corpo=atualizaQuadroOficiais][other]
[09-07-15][21:20:52][189.101.122.176][bd657ab0.virtua.com.br][eele][http://177.124.60.170:8087/painelDeControle.php?corpo=atualizaQuadroOficiais][other]
[09-07-15][21:24:10][189.101.122.176][bd657ab0.virtua.com.br][eele][http://177.124.60.170:8087/painelDeControle.php?corpo=buscaOficial][other]
[09-07-15][21:24:10][189.101.122.176][bd657ab0.virtua.com.br][eele][http://177.124.60.170:8087/painelDeControle.php?corpo=buscaOficial][other]
[09-07-15][21:29:18][189.101.122.176][bd657ab0.virtua.com.br][eele][http://177.124.60.170:8087/painelDeControle.php?][other]
[09-07-15][21:29:18][189.101.122.176][bd657ab0.virtua.com.br][eele][http://177.124.60.170:8087/painelDeControle.php?][other]
[09-07-15][21:32:34][189.101.122.176][bd657ab0.virtua.com.br][eele][http://177.124.60.170:8087/painelDeControle.php?][other]
[09-07-15][21:32:34][189.101.122.176][bd657ab0.virtua.com.br][eele][http://177.124.60.170:8087/painelDeControle.php?][other]
[09-07-15][21:32:51][189.101.122.176][bd657ab0.virtua.com.br][eele][http://177.124.60.170:8087/painelDeControle.php?corpo=buscaOficial][other]
[09-07-15][21:32:51][189.101.122.176][bd657ab0.virtua.com.br][eele][http://177.124.60.170:8087/painelDeControle.php?corpo=buscaOficial][other]
[09-07-15][21:33:00][189.101.122.176][bd657ab0.virtua.com.br][eele][http://177.124.60.170:8087/painelDeControle.php?corpo=atualizaQuadroOficiais][other]
[09-07-15][21:33:00][189.101.122.176][bd657ab0.virtua.com.br][eele][http://177.124.60.170:8087/painelDeControle.php?corpo=atualizaQuadroOficiais][other]
[09-07-15][21:37:23][189.101.122.176][bd657ab0.virtua.com.br][eele][http://177.124.60.170:8087/painelDeControle.php?corpo=buscaOficial][other]
[09-07-15][21:37:23][189.101.122.176][bd657ab0.virtua.com.br][eele][http://177.124.60.170:8087/painelDeControle.php?corpo=buscaOficial][other]
[09-07-15][21:37:27][189.101.122.176][bd657ab0.virtua.com.br][eele][http://177.124.60.170:8087/painelDeControle.php?corpo=atualizaQuadroOficiais][other]
[09-07-15][21:37:27][189.101.122.176][bd657ab0.virtua.com.br][eele][http://177.124.60.170:8087/painelDeControle.php?corpo=atualizaQuadroOficiais][other]
[09-07-15][21:40:04][189.101.122.176][bd657ab0.virtua.com.br][eele][http://177.124.60.170:8087/painelDeControle.php?corpo=buscaOficial][other]
[09-07-15][21:40:04][189.101.122.176][bd657ab0.virtua.com.br][eele][http://177.124.60.170:8087/painelDeControle.php?corpo=buscaOficial][other]
[09-07-15][21:42:26][189.101.122.176][bd657ab0.virtua.com.br][eele][http://177.124.60.170:8087/painelDeControle.php?corpo=buscaOficial&listarAtuantes=1][other]
[09-07-15][21:42:26][189.101.122.176][bd657ab0.virtua.com.br][eele][http://177.124.60.170:8087/painelDeControle.php?corpo=buscaOficial&listarAtuantes=1][other]
[09-07-15][21:43:19][189.101.122.176][bd657ab0.virtua.com.br][eele][http://177.124.60.170:8087/painelDeControle.php?][other]
[09-07-15][21:43:19][189.101.122.176][bd657ab0.virtua.com.br][eele][http://177.124.60.170:8087/painelDeControle.php?][other]
[09-07-15][21:43:39][189.101.122.176][bd657ab0.virtua.com.br][eele][http://177.124.60.170:8087/painelDeControle.php?][other]
[09-07-15][21:43:39][189.101.122.176][bd657ab0.virtua.com.br][eele][http://177.124.60.170:8087/painelDeControle.php?][other]
[09-07-15][21:44:03][189.101.122.176][bd657ab0.virtua.com.br][eele][http://177.124.60.170:8087/painelDeControle.php?corpo=atualizaQuadroOficiais][other]
[09-07-15][21:44:03][189.101.122.176][bd657ab0.virtua.com.br][eele][http://177.124.60.170:8087/painelDeControle.php?corpo=atualizaQuadroOficiais][other]
[09-07-15][21:48:26][189.101.122.176][bd657ab0.virtua.com.br][eele][http://177.124.60.170:8087/painelDeControle.php?corpo=buscaOficial][other]
[09-07-15][21:48:26][189.101.122.176][bd657ab0.virtua.com.br][eele][http://177.124.60.170:8087/painelDeControle.php?corpo=buscaOficial][other]
[09-07-15][21:51:31][189.101.122.176][bd657ab0.virtua.com.br][eele][http://177.124.60.170:8087/painelDeControle.php?corpo=buscaRegiaoRosacruz][other]
[09-07-15][21:51:31][189.101.122.176][bd657ab0.virtua.com.br][eele][http://177.124.60.170:8087/painelDeControle.php?corpo=buscaRegiaoRosacruz][other]
[09-07-15][21:53:01][189.101.122.176][bd657ab0.virtua.com.br][eele][http://177.124.60.170:8087/painelDeControle.php?corpo=buscaRegiaoRosacruz][other]
[09-07-15][21:53:01][189.101.122.176][bd657ab0.virtua.com.br][eele][http://177.124.60.170:8087/painelDeControle.php?corpo=buscaRegiaoRosacruz][other]
[09-07-15][21:53:44][189.101.122.176][bd657ab0.virtua.com.br][eele][http://177.124.60.170:8087/painelDeControle.php?corpo=cadastroRegiaoRosacruz][other]
[09-07-15][21:53:44][189.101.122.176][bd657ab0.virtua.com.br][eele][http://177.124.60.170:8087/painelDeControle.php?corpo=cadastroRegiaoRosacruz][other]
[09-07-15][21:54:07][189.101.122.176][bd657ab0.virtua.com.br][eele][http://177.124.60.170:8087/painelDeControle.php?][other]
[09-07-15][21:54:07][189.101.122.176][bd657ab0.virtua.com.br][eele][http://177.124.60.170:8087/painelDeControle.php?][other]
[09-07-15][21:54:15][189.101.122.176][bd657ab0.virtua.com.br][eele][http://177.124.60.170:8087/painelDeControle.php?][other]
[09-07-15][21:54:15][189.101.122.176][bd657ab0.virtua.com.br][eele][http://177.124.60.170:8087/painelDeControle.php?][other]
[09-07-15][21:54:53][189.101.122.176][bd657ab0.virtua.com.br][eele][http://177.124.60.170:8087/painelDeControle.php?corpo=buscaMembroOA][other]
[09-07-15][21:54:53][189.101.122.176][bd657ab0.virtua.com.br][eele][http://177.124.60.170:8087/painelDeControle.php?corpo=buscaMembroOA][other]
[09-07-15][21:55:23][189.101.122.176][bd657ab0.virtua.com.br][eele][http://177.124.60.170:8087/painelDeControle.php?corpo=cadastroMembroOA][other]
[09-07-15][21:55:23][189.101.122.176][bd657ab0.virtua.com.br][eele][http://177.124.60.170:8087/painelDeControle.php?corpo=cadastroMembroOA][other]
[09-07-15][21:56:51][189.101.122.176][bd657ab0.virtua.com.br][eele][http://177.124.60.170:8087/painelDeControle.php?corpo=buscaOrganismo][other]
[09-07-15][21:56:51][189.101.122.176][bd657ab0.virtua.com.br][eele][http://177.124.60.170:8087/painelDeControle.php?corpo=buscaOrganismo][other]
[09-07-15][21:57:08][189.101.122.176][bd657ab0.virtua.com.br][eele][http://177.124.60.170:8087/painelDeControle.php?corpo=buscaDiscurso][other]
[09-07-15][21:57:08][189.101.122.176][bd657ab0.virtua.com.br][eele][http://177.124.60.170:8087/painelDeControle.php?corpo=buscaDiscurso][other]
[09-07-15][22:57:11][191.177.142.64][bfb18e40.virtua.com.br][][http://177.124.60.170:8087/index.php?][Chrome]
