[30-12-15][09:48:58][192.1.1.109][samuel.datacenter.org][][http://soa.amorc.org.br/index.php?][Chrome]
[30-12-15][09:50:11][192.1.1.109][samuel.datacenter.org][][http://soa.amorc.org.br/login.php?][Chrome]
[30-12-15][09:52:39][192.1.1.109][samuel.datacenter.org][lbas][http://soa.amorc.org.br/painelDeControle.php?][Chrome]
[30-12-15][09:52:39][192.1.1.109][samuel.datacenter.org][lbas][http://soa.amorc.org.br/painelDeControle.php?][Chrome]
[30-12-15][09:58:46][192.1.1.109][samuel.datacenter.org][lbas][http://soa.amorc.org.br/index.php?][Chrome]
[30-12-15][12:02:28][192.1.1.109][samuel.datacenter.org][lbas][http://soa.amorc.org.br/index.php?][Chrome]
[30-12-15][12:02:36][192.1.1.109][samuel.datacenter.org][lbas][http://soa.amorc.org.br/login.php?][Chrome]
[30-12-15][12:02:37][192.1.1.109][samuel.datacenter.org][lbas][http://soa.amorc.org.br/painelDeControle.php?][Chrome]
[30-12-15][12:02:37][192.1.1.109][samuel.datacenter.org][lbas][http://soa.amorc.org.br/painelDeControle.php?][Chrome]
[30-12-15][14:14:26][192.1.1.109][samuel.datacenter.org][lbas][http://soa.amorc.org.br/index.php?][Chrome]
[30-12-15][14:15:26][192.1.1.63][cpd.datacenter.org][][http://soa.amorc.org.br/index.php?][Chrome]
[30-12-15][14:15:41][192.1.1.63][cpd.datacenter.org][][http://soa.amorc.org.br/index.php?][Chrome]
[30-12-15][14:19:56][192.1.1.109][samuel.datacenter.org][lbas][http://soa.amorc.org.br/painelDeControle.php?][Chrome]
[30-12-15][14:19:56][192.1.1.109][samuel.datacenter.org][lbas][http://soa.amorc.org.br/painelDeControle.php?][Chrome]
[30-12-15][14:20:32][192.1.1.109][samuel.datacenter.org][lbas][http://soa.amorc.org.br/painelDeControle.php?corpo=buscaUsuario][Chrome]
[30-12-15][14:20:32][192.1.1.109][samuel.datacenter.org][lbas][http://soa.amorc.org.br/painelDeControle.php?corpo=buscaUsuario][Chrome]
[30-12-15][14:51:14][192.1.1.109][samuel.datacenter.org][lbas][http://soa.amorc.org.br/index.php?][Chrome]
[30-12-15][14:51:16][192.1.1.109][samuel.datacenter.org][lbas][http://soa.amorc.org.br/painelDeControle.php?][Chrome]
[30-12-15][14:51:16][192.1.1.109][samuel.datacenter.org][lbas][http://soa.amorc.org.br/painelDeControle.php?][Chrome]
[30-12-15][14:55:32][192.1.1.109][samuel.datacenter.org][lbas][http://soa.amorc.org.br/index.php?][Chrome]
[30-12-15][14:55:34][192.1.1.109][samuel.datacenter.org][lbas][http://soa.amorc.org.br/painelDeControle.php?][Chrome]
[30-12-15][14:55:34][192.1.1.109][samuel.datacenter.org][lbas][http://soa.amorc.org.br/painelDeControle.php?][Chrome]
[30-12-15][15:00:42][192.1.1.109][samuel.datacenter.org][lbas][http://soa.amorc.org.br/painelDeControle.php?][Chrome]
[30-12-15][15:00:42][192.1.1.109][samuel.datacenter.org][lbas][http://soa.amorc.org.br/painelDeControle.php?][Chrome]
[30-12-15][15:02:27][192.1.1.109][samuel.datacenter.org][lbas][http://soa.amorc.org.br/painelDeControle.php?corpo=buscaUsuario][Chrome]
[30-12-15][15:02:27][192.1.1.109][samuel.datacenter.org][lbas][http://soa.amorc.org.br/painelDeControle.php?corpo=buscaUsuario][Chrome]
[30-12-15][15:07:28][192.1.1.109][samuel.datacenter.org][lbas][http://soa.amorc.org.br/painelDeControle.php?][Chrome]
[30-12-15][15:07:28][192.1.1.109][samuel.datacenter.org][lbas][http://soa.amorc.org.br/painelDeControle.php?][Chrome]
