[17-12-15][08:14:11][192.1.1.63][cpd.datacenter.org][][http://soa.amorc.org.br/index.php?][Chrome]
[17-12-15][08:15:50][192.1.1.143][cpd2.datacenter.org][][http://soa.amorc.org.br/painelDeControle.php?corpo=buscaNotificacoes][Chrome]
[17-12-15][08:15:50][192.1.1.143][cpd2.datacenter.org][][http://soa.amorc.org.br/painelDeControle.php?corpo=buscaNotificacoes][Chrome]
[17-12-15][08:15:51][192.1.1.143][cpd2.datacenter.org][][http://soa.amorc.org.br/telaDeBloqueio.php?][Chrome]
[17-12-15][08:34:16][192.1.1.143][cpd2.datacenter.org][samuel.caldas][http://soa.amorc.org.br/painelDeControle.php?corpo=buscaNotificacoes][Chrome]
[17-12-15][08:34:16][192.1.1.143][cpd2.datacenter.org][samuel.caldas][http://soa.amorc.org.br/painelDeControle.php?corpo=buscaNotificacoes][Chrome]
[17-12-15][08:57:31][192.1.1.48][cpd3.datacenter.org][][http://soa.amorc.org.br/painelDeControle.php?][Chrome]
[17-12-15][08:57:31][192.1.1.48][cpd3.datacenter.org][][http://soa.amorc.org.br/painelDeControle.php?][Chrome]
[17-12-15][08:57:31][192.1.1.48][cpd3.datacenter.org][][http://soa.amorc.org.br/telaDeBloqueio.php?][Chrome]
[17-12-15][08:57:38][192.1.1.48][cpd3.datacenter.org][balv][http://soa.amorc.org.br/painelDeControle.php?corpo=detalheNotificacao][Chrome]
[17-12-15][08:57:38][192.1.1.48][cpd3.datacenter.org][balv][http://soa.amorc.org.br/painelDeControle.php?corpo=detalheNotificacao][Chrome]
[17-12-15][08:57:42][192.1.1.48][cpd3.datacenter.org][][http://soa.amorc.org.br/login.php?][Chrome]
[17-12-15][09:00:13][192.1.1.109][samuel.datacenter.org][][http://soa.amorc.org.br/index.php?][Chrome]
[17-12-15][09:00:29][192.1.1.109][samuel.datacenter.org][samuel.caldas][http://soa.amorc.org.br/painelDeControle.php?][Chrome]
[17-12-15][09:00:29][192.1.1.109][samuel.datacenter.org][samuel.caldas][http://soa.amorc.org.br/painelDeControle.php?][Chrome]
[17-12-15][09:00:35][192.1.1.109][samuel.datacenter.org][][http://soa.amorc.org.br/login.php?][Chrome]
[17-12-15][09:00:46][192.1.1.109][samuel.datacenter.org][][http://soa.amorc.org.br/login.php?][Chrome]
[17-12-15][09:01:03][192.1.1.48][cpd3.datacenter.org][balv][http://soa.amorc.org.br/painelDeControle.php?][Chrome]
[17-12-15][09:01:03][192.1.1.48][cpd3.datacenter.org][balv][http://soa.amorc.org.br/painelDeControle.php?][Chrome]
[17-12-15][10:20:24][192.1.1.143][cpd2.datacenter.org][samuel.caldas][http://soa.amorc.org.br/index.php?][Chrome]
[17-12-15][10:20:28][192.1.1.143][cpd2.datacenter.org][samuel.caldas][http://soa.amorc.org.br/painelDeControle.php?][Chrome]
[17-12-15][10:20:28][192.1.1.143][cpd2.datacenter.org][samuel.caldas][http://soa.amorc.org.br/painelDeControle.php?][Chrome]
[17-12-15][10:32:20][192.1.1.143][cpd2.datacenter.org][samuel.caldas][http://soa.amorc.org.br/index.php?][Chrome]
[17-12-15][10:32:22][192.1.1.143][cpd2.datacenter.org][samuel.caldas][http://soa.amorc.org.br/painelDeControle.php?][Chrome]
[17-12-15][10:32:22][192.1.1.143][cpd2.datacenter.org][samuel.caldas][http://soa.amorc.org.br/painelDeControle.php?][Chrome]
[17-12-15][10:32:26][192.1.1.143][cpd2.datacenter.org][samuel.caldas][http://soa.amorc.org.br/painelDeControle.php?corpo=buscaImovel][Chrome]
[17-12-15][10:32:26][192.1.1.143][cpd2.datacenter.org][samuel.caldas][http://soa.amorc.org.br/painelDeControle.php?corpo=buscaImovel][Chrome]
[17-12-15][10:32:28][192.1.1.143][cpd2.datacenter.org][samuel.caldas][http://soa.amorc.org.br/painelDeControle.php?corpo=cadastroImovel][Chrome]
[17-12-15][10:32:28][192.1.1.143][cpd2.datacenter.org][samuel.caldas][http://soa.amorc.org.br/painelDeControle.php?corpo=cadastroImovel][Chrome]
[17-12-15][10:56:53][192.1.1.109][samuel.datacenter.org][][http://soa.amorc.org.br/login.php?][Chrome]
[17-12-15][10:57:02][192.1.1.109][samuel.datacenter.org][][http://soa.amorc.org.br/index.php?][Chrome]
[17-12-15][11:06:15][192.1.1.109][samuel.datacenter.org][][http://soa.amorc.org.br/login.php?][Chrome]
[17-12-15][11:06:19][192.1.1.109][samuel.datacenter.org][lbas][http://soa.amorc.org.br/painelDeControle.php?][Chrome]
[17-12-15][11:06:19][192.1.1.109][samuel.datacenter.org][lbas][http://soa.amorc.org.br/painelDeControle.php?][Chrome]
[17-12-15][11:09:00][192.1.1.109][samuel.datacenter.org][lbas][http://soa.amorc.org.br/painelDeControle.php?corpo=detalheNotificacao&idNotificacaoGlp=10][Chrome]
[17-12-15][11:09:00][192.1.1.109][samuel.datacenter.org][lbas][http://soa.amorc.org.br/painelDeControle.php?corpo=detalheNotificacao&idNotificacaoGlp=10][Chrome]
[17-12-15][11:10:10][192.1.1.109][samuel.datacenter.org][lbas][http://soa.amorc.org.br/painelDeControle.php?][Chrome]
[17-12-15][11:10:10][192.1.1.109][samuel.datacenter.org][lbas][http://soa.amorc.org.br/painelDeControle.php?][Chrome]
[17-12-15][11:10:16][192.1.1.109][samuel.datacenter.org][lbas][http://soa.amorc.org.br/painelDeControle.php?corpo=buscaAtaReuniaoMensal][Chrome]
[17-12-15][11:10:16][192.1.1.109][samuel.datacenter.org][lbas][http://soa.amorc.org.br/painelDeControle.php?corpo=buscaAtaReuniaoMensal][Chrome]
[17-12-15][11:10:20][192.1.1.109][samuel.datacenter.org][lbas][http://soa.amorc.org.br/painelDeControle.php?corpo=buscaAtaPosse][Chrome]
[17-12-15][11:10:20][192.1.1.109][samuel.datacenter.org][lbas][http://soa.amorc.org.br/painelDeControle.php?corpo=buscaAtaPosse][Chrome]
[17-12-15][11:10:28][192.1.1.109][samuel.datacenter.org][lbas][http://soa.amorc.org.br/painelDeControle.php?corpo=buscaImovel][Chrome]
[17-12-15][11:10:28][192.1.1.109][samuel.datacenter.org][lbas][http://soa.amorc.org.br/painelDeControle.php?corpo=buscaImovel][Chrome]
[17-12-15][11:10:32][192.1.1.109][samuel.datacenter.org][lbas][http://soa.amorc.org.br/painelDeControle.php?][Chrome]
[17-12-15][11:10:32][192.1.1.109][samuel.datacenter.org][lbas][http://soa.amorc.org.br/painelDeControle.php?][Chrome]
[17-12-15][11:10:49][192.1.1.109][samuel.datacenter.org][lbas][http://soa.amorc.org.br/painelDeControle.php?corpo=detalheNotificacao&idNotificacaoGlp=9][Chrome]
[17-12-15][11:10:49][192.1.1.109][samuel.datacenter.org][lbas][http://soa.amorc.org.br/painelDeControle.php?corpo=detalheNotificacao&idNotificacaoGlp=9][Chrome]
[17-12-15][11:10:51][192.1.1.109][samuel.datacenter.org][lbas][http://soa.amorc.org.br/painelDeControle.php?][Chrome]
[17-12-15][11:10:51][192.1.1.109][samuel.datacenter.org][lbas][http://soa.amorc.org.br/painelDeControle.php?][Chrome]
[17-12-15][11:11:07][192.1.1.109][samuel.datacenter.org][lbas][http://soa.amorc.org.br/painelDeControle.php?corpo=buscaNotificacoes][Chrome]
[17-12-15][11:11:07][192.1.1.109][samuel.datacenter.org][lbas][http://soa.amorc.org.br/painelDeControle.php?corpo=buscaNotificacoes][Chrome]
[17-12-15][11:11:12][192.1.1.109][samuel.datacenter.org][lbas][http://soa.amorc.org.br/painelDeControle.php?corpo=detalheNotificacao&idNotificacaoGlp=11][Chrome]
[17-12-15][11:11:12][192.1.1.109][samuel.datacenter.org][lbas][http://soa.amorc.org.br/painelDeControle.php?corpo=detalheNotificacao&idNotificacaoGlp=11][Chrome]
[17-12-15][11:11:19][192.1.1.109][samuel.datacenter.org][lbas][http://soa.amorc.org.br/painelDeControle.php?][Chrome]
[17-12-15][11:11:19][192.1.1.109][samuel.datacenter.org][lbas][http://soa.amorc.org.br/painelDeControle.php?][Chrome]
[17-12-15][11:12:08][192.1.1.109][samuel.datacenter.org][lbas][http://soa.amorc.org.br/painelDeControle.php?corpo=buscaNotificacoes][Chrome]
[17-12-15][11:12:08][192.1.1.109][samuel.datacenter.org][lbas][http://soa.amorc.org.br/painelDeControle.php?corpo=buscaNotificacoes][Chrome]
[17-12-15][11:12:11][192.1.1.109][samuel.datacenter.org][lbas][http://soa.amorc.org.br/painelDeControle.php?corpo=detalheNotificacao&idNotificacaoGlp=11][Chrome]
[17-12-15][11:12:11][192.1.1.109][samuel.datacenter.org][lbas][http://soa.amorc.org.br/painelDeControle.php?corpo=detalheNotificacao&idNotificacaoGlp=11][Chrome]
[17-12-15][11:12:13][192.1.1.109][samuel.datacenter.org][lbas][http://soa.amorc.org.br/painelDeControle.php?][Chrome]
[17-12-15][11:12:13][192.1.1.109][samuel.datacenter.org][lbas][http://soa.amorc.org.br/painelDeControle.php?][Chrome]
[17-12-15][11:28:59][192.1.1.109][samuel.datacenter.org][lbas][http://soa.amorc.org.br/painelDeControle.php?corpo=buscaImovel][Chrome]
[17-12-15][11:28:59][192.1.1.109][samuel.datacenter.org][lbas][http://soa.amorc.org.br/painelDeControle.php?corpo=buscaImovel][Chrome]
[17-12-15][12:06:13][192.1.1.109][samuel.datacenter.org][lbas][http://soa.amorc.org.br/index.php?][Chrome]
[17-12-15][13:41:53][192.1.1.48][cpd3.datacenter.org][][http://soa.amorc.org.br/painelDeControle.php?][Chrome]
[17-12-15][13:41:53][192.1.1.48][cpd3.datacenter.org][][http://soa.amorc.org.br/painelDeControle.php?][Chrome]
[17-12-15][13:42:01][192.1.1.48][cpd3.datacenter.org][][http://soa.amorc.org.br/login.php?][Chrome]
[17-12-15][13:42:04][192.1.1.48][cpd3.datacenter.org][balv][http://soa.amorc.org.br/painelDeControle.php?][Chrome]
[17-12-15][13:42:04][192.1.1.48][cpd3.datacenter.org][balv][http://soa.amorc.org.br/painelDeControle.php?][Chrome]
[17-12-15][15:01:40][192.1.1.48][cpd3.datacenter.org][balv][http://soa.amorc.org.br/login.php?][Chrome]
[17-12-15][15:01:48][192.1.1.48][cpd3.datacenter.org][balv][http://soa.amorc.org.br/painelDeControle.php?][Chrome]
[17-12-15][15:01:48][192.1.1.48][cpd3.datacenter.org][balv][http://soa.amorc.org.br/painelDeControle.php?][Chrome]
[17-12-15][15:01:53][192.1.1.48][cpd3.datacenter.org][balv][http://soa.amorc.org.br/painelDeControle.php?corpo=buscaImovel][Chrome]
[17-12-15][15:01:53][192.1.1.48][cpd3.datacenter.org][balv][http://soa.amorc.org.br/painelDeControle.php?corpo=buscaImovel][Chrome]
[17-12-15][15:01:56][192.1.1.48][cpd3.datacenter.org][balv][http://soa.amorc.org.br/painelDeControle.php?corpo=cadastroImovel][Chrome]
[17-12-15][15:01:56][192.1.1.48][cpd3.datacenter.org][balv][http://soa.amorc.org.br/painelDeControle.php?corpo=cadastroImovel][Chrome]
[17-12-15][15:07:16][192.1.1.48][cpd3.datacenter.org][balv][http://soa.amorc.org.br/painelDeControle.php?corpo=cadastroImovel][Chrome]
[17-12-15][15:07:16][192.1.1.48][cpd3.datacenter.org][balv][http://soa.amorc.org.br/painelDeControle.php?corpo=cadastroImovel][Chrome]
[17-12-15][15:13:21][192.1.1.48][cpd3.datacenter.org][balv][http://soa.amorc.org.br/painelDeControle.php?corpo=cadastroImovel][Chrome]
[17-12-15][15:13:21][192.1.1.48][cpd3.datacenter.org][balv][http://soa.amorc.org.br/painelDeControle.php?corpo=cadastroImovel][Chrome]
[17-12-15][15:14:24][192.1.1.48][cpd3.datacenter.org][balv][http://soa.amorc.org.br/painelDeControle.php?corpo=cadastroImovel][Chrome]
[17-12-15][15:14:24][192.1.1.48][cpd3.datacenter.org][balv][http://soa.amorc.org.br/painelDeControle.php?corpo=cadastroImovel][Chrome]
[17-12-15][15:14:58][192.1.1.48][cpd3.datacenter.org][balv][http://soa.amorc.org.br/painelDeControle.php?corpo=cadastroImovel][Chrome]
[17-12-15][15:14:58][192.1.1.48][cpd3.datacenter.org][balv][http://soa.amorc.org.br/painelDeControle.php?corpo=cadastroImovel][Chrome]
[17-12-15][15:17:38][192.1.1.48][cpd3.datacenter.org][balv][http://soa.amorc.org.br/painelDeControle.php?corpo=cadastroImovel][Chrome]
[17-12-15][15:17:38][192.1.1.48][cpd3.datacenter.org][balv][http://soa.amorc.org.br/painelDeControle.php?corpo=cadastroImovel][Chrome]
[17-12-15][15:18:30][192.1.1.48][cpd3.datacenter.org][balv][http://soa.amorc.org.br/painelDeControle.php?corpo=cadastroImovel][Chrome]
[17-12-15][15:18:30][192.1.1.48][cpd3.datacenter.org][balv][http://soa.amorc.org.br/painelDeControle.php?corpo=cadastroImovel][Chrome]
[17-12-15][15:19:49][192.1.1.48][cpd3.datacenter.org][balv][http://soa.amorc.org.br/painelDeControle.php?corpo=cadastroImovel][Chrome]
[17-12-15][15:19:49][192.1.1.48][cpd3.datacenter.org][balv][http://soa.amorc.org.br/painelDeControle.php?corpo=cadastroImovel][Chrome]
[17-12-15][15:21:37][192.1.1.48][cpd3.datacenter.org][balv][http://soa.amorc.org.br/painelDeControle.php?corpo=cadastroImovel][Chrome]
[17-12-15][15:21:37][192.1.1.48][cpd3.datacenter.org][balv][http://soa.amorc.org.br/painelDeControle.php?corpo=cadastroImovel][Chrome]
[17-12-15][15:24:08][192.1.1.48][cpd3.datacenter.org][balv][http://soa.amorc.org.br/painelDeControle.php?corpo=cadastroImovel][Chrome]
[17-12-15][15:24:08][192.1.1.48][cpd3.datacenter.org][balv][http://soa.amorc.org.br/painelDeControle.php?corpo=cadastroImovel][Chrome]
[17-12-15][16:26:23][192.1.1.109][samuel.datacenter.org][][http://soa.amorc.org.br/index.php?][Chrome]
[17-12-15][16:27:24][192.1.1.109][samuel.datacenter.org][][http://soa.amorc.org.br/index.php?][Chrome]
[17-12-15][16:27:44][192.1.1.109][samuel.datacenter.org][][http://soa.amorc.org.br/index.php?][Chrome]
[17-12-15][16:28:41][192.1.1.109][samuel.datacenter.org][][http://soa.amorc.org.br/index.php?][Chrome]
[17-12-15][16:28:43][192.1.1.109][samuel.datacenter.org][][http://soa.amorc.org.br/index.php?][Chrome]
[17-12-15][16:29:05][192.1.1.109][samuel.datacenter.org][][http://soa.amorc.org.br/index.php?][Chrome]
[17-12-15][16:39:17][192.1.1.109][samuel.datacenter.org][][http://soa.amorc.org.br/index.php?][Chrome]
[17-12-15][16:39:38][192.1.1.109][samuel.datacenter.org][][http://soa.amorc.org.br/index.php?][Chrome]
[17-12-15][16:39:41][192.1.1.109][samuel.datacenter.org][samuel.caldas][http://soa.amorc.org.br/painelDeControle.php?][Chrome]
[17-12-15][16:39:41][192.1.1.109][samuel.datacenter.org][samuel.caldas][http://soa.amorc.org.br/painelDeControle.php?][Chrome]
[17-12-15][16:39:54][192.1.1.109][samuel.datacenter.org][samuel.caldas][http://soa.amorc.org.br/painelDeControle.php?corpo=buscaUsuario][Chrome]
[17-12-15][16:39:54][192.1.1.109][samuel.datacenter.org][samuel.caldas][http://soa.amorc.org.br/painelDeControle.php?corpo=buscaUsuario][Chrome]
[17-12-15][16:48:34][192.1.1.109][samuel.datacenter.org][samuel.caldas][http://soa.amorc.org.br/painelDeControle.php?corpo=buscaUsuario][Chrome]
[17-12-15][16:48:34][192.1.1.109][samuel.datacenter.org][samuel.caldas][http://soa.amorc.org.br/painelDeControle.php?corpo=buscaUsuario][Chrome]
[17-12-15][16:52:42][192.1.1.109][samuel.datacenter.org][samuel.caldas][http://soa.amorc.org.br/painelDeControle.php?corpo=buscaUsuario][Chrome]
[17-12-15][16:52:42][192.1.1.109][samuel.datacenter.org][samuel.caldas][http://soa.amorc.org.br/painelDeControle.php?corpo=buscaUsuario][Chrome]
[17-12-15][16:53:10][192.1.1.109][samuel.datacenter.org][][http://soa.amorc.org.br/login.php?][Chrome]
[17-12-15][16:53:39][192.1.1.48][cpd3.datacenter.org][][http://soa.amorc.org.br/painelDeControle.php?corpo=cadastroImovel][Chrome]
[17-12-15][16:53:39][192.1.1.48][cpd3.datacenter.org][][http://soa.amorc.org.br/painelDeControle.php?corpo=cadastroImovel][Chrome]
[17-12-15][16:53:40][192.1.1.48][cpd3.datacenter.org][][http://soa.amorc.org.br/telaDeBloqueio.php?][Chrome]
[17-12-15][16:53:43][192.1.1.48][cpd3.datacenter.org][balv][http://soa.amorc.org.br/painelDeControle.php?corpo=cadastroImovel][Chrome]
[17-12-15][16:53:43][192.1.1.48][cpd3.datacenter.org][balv][http://soa.amorc.org.br/painelDeControle.php?corpo=cadastroImovel][Chrome]
[17-12-15][16:54:09][192.1.1.48][cpd3.datacenter.org][balv][http://soa.amorc.org.br/painelDeControle.php?corpo=cadastroImovel][Chrome]
[17-12-15][16:54:09][192.1.1.48][cpd3.datacenter.org][balv][http://soa.amorc.org.br/painelDeControle.php?corpo=cadastroImovel][Chrome]
[17-12-15][16:54:53][192.1.1.48][cpd3.datacenter.org][balv][http://soa.amorc.org.br/painelDeControle.php?corpo=cadastroImovel][Chrome]
[17-12-15][16:54:53][192.1.1.48][cpd3.datacenter.org][balv][http://soa.amorc.org.br/painelDeControle.php?corpo=cadastroImovel][Chrome]
[17-12-15][16:59:07][192.1.1.48][cpd3.datacenter.org][balv][http://soa.amorc.org.br/painelDeControle.php?corpo=cadastroImovel][Chrome]
[17-12-15][16:59:07][192.1.1.48][cpd3.datacenter.org][balv][http://soa.amorc.org.br/painelDeControle.php?corpo=cadastroImovel][Chrome]
[17-12-15][17:00:07][192.1.1.48][cpd3.datacenter.org][balv][http://soa.amorc.org.br/painelDeControle.php?corpo=cadastroImovel][Chrome]
[17-12-15][17:00:07][192.1.1.48][cpd3.datacenter.org][balv][http://soa.amorc.org.br/painelDeControle.php?corpo=cadastroImovel][Chrome]
[17-12-15][17:01:29][192.1.1.48][cpd3.datacenter.org][balv][http://soa.amorc.org.br/painelDeControle.php?corpo=cadastroImovel][Chrome]
[17-12-15][17:01:29][192.1.1.48][cpd3.datacenter.org][balv][http://soa.amorc.org.br/painelDeControle.php?corpo=cadastroImovel][Chrome]
[17-12-15][17:05:28][192.1.1.48][cpd3.datacenter.org][balv][http://soa.amorc.org.br/painelDeControle.php?corpo=cadastroImovel][Chrome]
[17-12-15][17:05:28][192.1.1.48][cpd3.datacenter.org][balv][http://soa.amorc.org.br/painelDeControle.php?corpo=cadastroImovel][Chrome]
[17-12-15][17:11:16][192.1.1.48][cpd3.datacenter.org][balv][http://soa.amorc.org.br/painelDeControle.php?corpo=cadastroImovel][Chrome]
[17-12-15][17:11:16][192.1.1.48][cpd3.datacenter.org][balv][http://soa.amorc.org.br/painelDeControle.php?corpo=cadastroImovel][Chrome]
[17-12-15][17:11:18][192.1.1.109][samuel.datacenter.org][][http://soa.amorc.org.br/index.php?][Chrome]
[17-12-15][17:11:23][192.1.1.109][samuel.datacenter.org][samuel.caldas][http://soa.amorc.org.br/painelDeControle.php?][Chrome]
[17-12-15][17:11:23][192.1.1.109][samuel.datacenter.org][samuel.caldas][http://soa.amorc.org.br/painelDeControle.php?][Chrome]
[17-12-15][17:11:24][192.1.1.48][cpd3.datacenter.org][balv][http://soa.amorc.org.br/painelDeControle.php?corpo=cadastroImovel][Chrome]
[17-12-15][17:11:24][192.1.1.48][cpd3.datacenter.org][balv][http://soa.amorc.org.br/painelDeControle.php?corpo=cadastroImovel][Chrome]
[17-12-15][17:11:31][192.1.1.109][samuel.datacenter.org][samuel.caldas][http://soa.amorc.org.br/painelDeControle.php?corpo=buscaImovel][Chrome]
[17-12-15][17:11:31][192.1.1.109][samuel.datacenter.org][samuel.caldas][http://soa.amorc.org.br/painelDeControle.php?corpo=buscaImovel][Chrome]
[17-12-15][17:11:34][192.1.1.109][samuel.datacenter.org][samuel.caldas][http://soa.amorc.org.br/painelDeControle.php?corpo=cadastroImovel][Chrome]
[17-12-15][17:11:34][192.1.1.109][samuel.datacenter.org][samuel.caldas][http://soa.amorc.org.br/painelDeControle.php?corpo=cadastroImovel][Chrome]
[17-12-15][17:11:54][192.1.1.48][cpd3.datacenter.org][balv][http://soa.amorc.org.br/painelDeControle.php?corpo=cadastroImovel][Chrome]
[17-12-15][17:11:54][192.1.1.48][cpd3.datacenter.org][balv][http://soa.amorc.org.br/painelDeControle.php?corpo=cadastroImovel][Chrome]
[17-12-15][17:12:16][192.1.1.48][cpd3.datacenter.org][balv][http://soa.amorc.org.br/painelDeControle.php?corpo=cadastroImovel][Chrome]
[17-12-15][17:12:16][192.1.1.48][cpd3.datacenter.org][balv][http://soa.amorc.org.br/painelDeControle.php?corpo=cadastroImovel][Chrome]
[17-12-15][17:16:51][192.1.1.109][samuel.datacenter.org][samuel.caldas][http://soa.amorc.org.br/painelDeControle.php?corpo=buscaUsuario][Chrome]
[17-12-15][17:16:51][192.1.1.109][samuel.datacenter.org][samuel.caldas][http://soa.amorc.org.br/painelDeControle.php?corpo=buscaUsuario][Chrome]
[17-12-15][17:17:33][192.1.1.48][cpd3.datacenter.org][balv][http://soa.amorc.org.br/painelDeControle.php?corpo=cadastroImovel][Chrome]
[17-12-15][17:17:33][192.1.1.48][cpd3.datacenter.org][balv][http://soa.amorc.org.br/painelDeControle.php?corpo=cadastroImovel][Chrome]
[17-12-15][17:18:17][192.1.1.48][cpd3.datacenter.org][balv][http://soa.amorc.org.br/painelDeControle.php?corpo=cadastroImovel][Chrome]
[17-12-15][17:18:17][192.1.1.48][cpd3.datacenter.org][balv][http://soa.amorc.org.br/painelDeControle.php?corpo=cadastroImovel][Chrome]
[17-12-15][17:20:41][192.1.1.48][cpd3.datacenter.org][balv][http://soa.amorc.org.br/painelDeControle.php?corpo=cadastroImovel][Chrome]
[17-12-15][17:20:41][192.1.1.48][cpd3.datacenter.org][balv][http://soa.amorc.org.br/painelDeControle.php?corpo=cadastroImovel][Chrome]
