[29-06-15][08:05:30][179.217.79.232][b3d94fe8.virtua.com.br][samuel.caldas][http://177.124.60.170:8087/index.php?][Chrome]
[29-06-15][08:07:23][179.217.79.232][b3d94fe8.virtua.com.br][samuel.caldas][http://177.124.60.170:8087/painelDeControle.php?][Chrome]
[29-06-15][08:07:23][179.217.79.232][b3d94fe8.virtua.com.br][samuel.caldas][http://177.124.60.170:8087/painelDeControle.php?][Chrome]
[29-06-15][08:07:57][179.217.79.232][b3d94fe8.virtua.com.br][samuel.caldas][http://177.124.60.170:8087/painelDeControle.php?][Chrome]
[29-06-15][08:07:57][179.217.79.232][b3d94fe8.virtua.com.br][samuel.caldas][http://177.124.60.170:8087/painelDeControle.php?][Chrome]
[29-06-15][08:09:18][179.217.79.232][b3d94fe8.virtua.com.br][samuel.caldas][http://177.124.60.170:8087/painelDeControle.php?][Chrome]
[29-06-15][08:09:18][179.217.79.232][b3d94fe8.virtua.com.br][samuel.caldas][http://177.124.60.170:8087/painelDeControle.php?][Chrome]
[29-06-15][08:18:16][179.217.79.232][b3d94fe8.virtua.com.br][samuel.caldas][http://177.124.60.170:8087/painelDeControle.php?corpo=buscaImovel][Chrome]
[29-06-15][08:18:16][179.217.79.232][b3d94fe8.virtua.com.br][samuel.caldas][http://177.124.60.170:8087/painelDeControle.php?corpo=buscaImovel][Chrome]
[29-06-15][08:20:45][179.217.79.232][b3d94fe8.virtua.com.br][samuel.caldas][http://177.124.60.170:8087/painelDeControle.php?corpo=buscaImovel][Chrome]
[29-06-15][08:20:45][179.217.79.232][b3d94fe8.virtua.com.br][samuel.caldas][http://177.124.60.170:8087/painelDeControle.php?corpo=buscaImovel][Chrome]
[29-06-15][08:20:48][179.217.79.232][b3d94fe8.virtua.com.br][samuel.caldas][http://177.124.60.170:8087/painelDeControle.php?corpo=buscaImovelControle][Chrome]
[29-06-15][08:20:48][179.217.79.232][b3d94fe8.virtua.com.br][samuel.caldas][http://177.124.60.170:8087/painelDeControle.php?corpo=buscaImovel][Chrome]
[29-06-15][08:20:48][179.217.79.232][b3d94fe8.virtua.com.br][samuel.caldas][http://177.124.60.170:8087/painelDeControle.php?corpo=buscaImovel][Chrome]
[29-06-15][08:20:50][179.217.79.232][b3d94fe8.virtua.com.br][samuel.caldas][http://177.124.60.170:8087/painelDeControle.php?][Chrome]
[29-06-15][08:20:50][179.217.79.232][b3d94fe8.virtua.com.br][samuel.caldas][http://177.124.60.170:8087/painelDeControle.php?][Chrome]
[29-06-15][08:32:54][179.217.79.232][b3d94fe8.virtua.com.br][samuel.caldas][http://177.124.60.170:8087/login.php?][Chrome]
[29-06-15][08:32:57][179.217.79.232][b3d94fe8.virtua.com.br][samuel.caldas][http://177.124.60.170:8087/login.php?][Chrome]
[29-06-15][08:32:59][179.217.79.232][b3d94fe8.virtua.com.br][samuel.caldas][http://177.124.60.170:8087/login.php?][Chrome]
[29-06-15][08:34:01][179.217.79.232][b3d94fe8.virtua.com.br][samuel.caldas][http://177.124.60.170:8087/painelDeControle.php?][Chrome]
[29-06-15][08:34:01][179.217.79.232][b3d94fe8.virtua.com.br][samuel.caldas][http://177.124.60.170:8087/painelDeControle.php?][Chrome]
[29-06-15][08:34:38][179.217.79.232][b3d94fe8.virtua.com.br][][http://177.124.60.170:8087/index.php?][Chrome]
[29-06-15][08:34:41][179.217.79.232][b3d94fe8.virtua.com.br][admin][http://177.124.60.170:8087/painelDeControle.php?][Chrome]
[29-06-15][08:34:41][179.217.79.232][b3d94fe8.virtua.com.br][admin][http://177.124.60.170:8087/painelDeControle.php?][Chrome]
[29-06-15][08:34:44][179.217.79.232][b3d94fe8.virtua.com.br][admin][http://177.124.60.170:8087/painelDeControle.php?corpo=buscaImovel][Chrome]
[29-06-15][08:34:44][179.217.79.232][b3d94fe8.virtua.com.br][admin][http://177.124.60.170:8087/painelDeControle.php?corpo=buscaImovel][Chrome]
[29-06-15][08:34:48][179.217.79.232][b3d94fe8.virtua.com.br][admin][http://177.124.60.170:8087/painelDeControle.php?corpo=buscaImovelControle][Chrome]
[29-06-15][08:34:48][179.217.79.232][b3d94fe8.virtua.com.br][admin][http://177.124.60.170:8087/painelDeControle.php?corpo=buscaImovel][Chrome]
[29-06-15][08:34:48][179.217.79.232][b3d94fe8.virtua.com.br][admin][http://177.124.60.170:8087/painelDeControle.php?corpo=buscaImovel][Chrome]
[29-06-15][08:41:58][179.217.79.232][b3d94fe8.virtua.com.br][samuel.caldas][http://177.124.60.170:8087/painelDeControle.php?][Chrome]
[29-06-15][08:41:58][179.217.79.232][b3d94fe8.virtua.com.br][samuel.caldas][http://177.124.60.170:8087/painelDeControle.php?][Chrome]
[29-06-15][08:42:02][179.217.79.232][b3d94fe8.virtua.com.br][samuel.caldas][http://177.124.60.170:8087/painelDeControle.php?corpo=buscaRecebimentos][Chrome]
[29-06-15][08:42:59][179.217.79.232][b3d94fe8.virtua.com.br][samuel.caldas][http://177.124.60.170:8087/painelDeControle.php?corpo=buscaDespesas][Chrome]
[29-06-15][08:43:28][179.217.79.232][b3d94fe8.virtua.com.br][samuel.caldas][http://177.124.60.170:8087/painelDeControle.php?corpo=buscaDividas][Chrome]
[29-06-15][08:43:32][179.217.79.232][b3d94fe8.virtua.com.br][samuel.caldas][http://177.124.60.170:8087/painelDeControle.php?corpo=buscaRecebimentos][Chrome]
[29-06-15][08:44:05][179.217.79.232][b3d94fe8.virtua.com.br][samuel.caldas][http://177.124.60.170:8087/painelDeControle.php?corpo=buscaMembrosRosacruzesAtivos][Chrome]
[29-06-15][08:44:09][179.217.79.232][b3d94fe8.virtua.com.br][samuel.caldas][http://177.124.60.170:8087/painelDeControle.php?corpo=buscaMembrosRosacruzesAtivos][Chrome]
[29-06-15][08:44:12][179.217.79.232][b3d94fe8.virtua.com.br][samuel.caldas][http://177.124.60.170:8087/painelDeControle.php?corpo=buscaMembrosRosacruzesAtivos][Chrome]
[29-06-15][08:44:42][179.217.79.232][b3d94fe8.virtua.com.br][samuel.caldas][http://177.124.60.170:8087/painelDeControle.php?corpo=buscaMembrosRosacruzesAtivos][Chrome]
[29-06-15][08:47:27][179.217.79.232][b3d94fe8.virtua.com.br][samuel.caldas][http://177.124.60.170:8087/painelDeControle.php?corpo=buscaMembrosRosacruzesAtivos&mesAtual=07&anoAtual=2015][Chrome]
[29-06-15][08:47:32][179.217.79.232][b3d94fe8.virtua.com.br][samuel.caldas][http://177.124.60.170:8087/painelDeControle.php?corpo=buscaMembrosRosacruzesAtivos&mesAtual=06&anoAtual=2015][Chrome]
[29-06-15][08:47:35][179.217.79.232][b3d94fe8.virtua.com.br][samuel.caldas][http://177.124.60.170:8087/painelDeControle.php?corpo=buscaRecebimentos][Chrome]
[29-06-15][08:54:33][179.217.79.232][b3d94fe8.virtua.com.br][samuel.caldas][http://177.124.60.170:8087/painelDeControle.php?][Chrome]
[29-06-15][08:54:33][179.217.79.232][b3d94fe8.virtua.com.br][samuel.caldas][http://177.124.60.170:8087/painelDeControle.php?][Chrome]
[29-06-15][08:54:36][179.217.79.232][b3d94fe8.virtua.com.br][samuel.caldas][http://177.124.60.170:8087/painelDeControle.php?corpo=buscaDespesas][Chrome]
[29-06-15][08:57:38][179.217.79.232][b3d94fe8.virtua.com.br][samuel.caldas][http://177.124.60.170:8087/painelDeControle.php?corpo=buscaRendimentos][Chrome]
[29-06-15][08:59:20][179.217.79.232][b3d94fe8.virtua.com.br][samuel.caldas][http://177.124.60.170:8087/painelDeControle.php?corpo=buscaMembrosRosacruzesAtivos][Chrome]
[29-06-15][08:59:21][179.217.79.232][b3d94fe8.virtua.com.br][samuel.caldas][http://177.124.60.170:8087/painelDeControle.php?corpo=buscaRendimentos][Chrome]
[29-06-15][08:59:26][179.217.79.232][b3d94fe8.virtua.com.br][samuel.caldas][http://177.124.60.170:8087/painelDeControle.php?corpo=buscaMembrosRosacruzesAtivos][Chrome]
[29-06-15][08:59:28][179.217.79.232][b3d94fe8.virtua.com.br][samuel.caldas][http://177.124.60.170:8087/painelDeControle.php?corpo=buscaDividas][Chrome]
[29-06-15][08:59:31][179.217.79.232][b3d94fe8.virtua.com.br][samuel.caldas][http://177.124.60.170:8087/painelDeControle.php?corpo=buscaMensalidadeOA][Chrome]
[29-06-15][08:59:31][179.217.79.232][b3d94fe8.virtua.com.br][samuel.caldas][http://177.124.60.170:8087/painelDeControle.php?corpo=buscaMensalidadeOA][Chrome]
[29-06-15][08:59:32][179.217.79.232][b3d94fe8.virtua.com.br][samuel.caldas][http://177.124.60.170:8087/painelDeControle.php?corpo=buscaRelatorioMensalFinanceiro][Chrome]
[29-06-15][09:00:17][179.217.79.232][b3d94fe8.virtua.com.br][samuel.caldas][http://177.124.60.170:8087/painelDeControle.php?corpo=][Chrome]
[29-06-15][09:00:17][179.217.79.232][b3d94fe8.virtua.com.br][samuel.caldas][http://177.124.60.170:8087/painelDeControle.php?corpo=][Chrome]
[29-06-15][09:00:20][179.217.79.232][b3d94fe8.virtua.com.br][samuel.caldas][http://177.124.60.170:8087/painelDeControle.php?corpo=buscaImovel][Chrome]
[29-06-15][09:00:20][179.217.79.232][b3d94fe8.virtua.com.br][samuel.caldas][http://177.124.60.170:8087/painelDeControle.php?corpo=buscaImovel][Chrome]
[29-06-15][09:00:21][179.217.79.232][b3d94fe8.virtua.com.br][samuel.caldas][http://177.124.60.170:8087/painelDeControle.php?corpo=cadastroImovel][Chrome]
[29-06-15][09:00:21][179.217.79.232][b3d94fe8.virtua.com.br][samuel.caldas][http://177.124.60.170:8087/painelDeControle.php?corpo=cadastroImovel][Chrome]
[29-06-15][09:00:26][179.217.79.232][b3d94fe8.virtua.com.br][samuel.caldas][http://177.124.60.170:8087/painelDeControle.php?][Chrome]
[29-06-15][09:00:26][179.217.79.232][b3d94fe8.virtua.com.br][samuel.caldas][http://177.124.60.170:8087/painelDeControle.php?][Chrome]
[29-06-15][09:02:17][179.217.79.232][b3d94fe8.virtua.com.br][samuel.caldas][http://177.124.60.170:8087/painelDeControle.php?corpo=buscaAtaReuniaoMensal][Chrome]
[29-06-15][09:02:17][179.217.79.232][b3d94fe8.virtua.com.br][samuel.caldas][http://177.124.60.170:8087/painelDeControle.php?corpo=buscaAtaReuniaoMensal][Chrome]
[29-06-15][09:32:08][179.217.79.232][b3d94fe8.virtua.com.br][samuel.caldas][http://177.124.60.170:8087/painelDeControle.php?corpo=buscaAtaReuniaoMensal][Chrome]
[29-06-15][09:32:08][179.217.79.232][b3d94fe8.virtua.com.br][samuel.caldas][http://177.124.60.170:8087/painelDeControle.php?corpo=buscaAtaReuniaoMensal][Chrome]
[29-06-15][09:42:13][179.217.79.232][b3d94fe8.virtua.com.br][samuel.caldas][http://177.124.60.170:8087/painelDeControle.php?corpo=buscaAtaReuniaoMensal][Chrome]
[29-06-15][09:42:13][179.217.79.232][b3d94fe8.virtua.com.br][samuel.caldas][http://177.124.60.170:8087/painelDeControle.php?corpo=buscaAtaReuniaoMensal][Chrome]
[29-06-15][09:42:16][179.217.79.232][b3d94fe8.virtua.com.br][samuel.caldas][http://177.124.60.170:8087/painelDeControle.php?corpo=buscaAtaReuniaoMensal][Chrome]
[29-06-15][09:42:16][179.217.79.232][b3d94fe8.virtua.com.br][samuel.caldas][http://177.124.60.170:8087/painelDeControle.php?corpo=buscaAtaReuniaoMensal][Chrome]
[29-06-15][09:42:17][179.217.79.232][b3d94fe8.virtua.com.br][samuel.caldas][http://177.124.60.170:8087/painelDeControle.php?corpo=cadastroAtaReuniaoMensal][Chrome]
[29-06-15][09:42:17][179.217.79.232][b3d94fe8.virtua.com.br][samuel.caldas][http://177.124.60.170:8087/painelDeControle.php?corpo=cadastroAtaReuniaoMensal][Chrome]
[29-06-15][09:42:30][179.217.79.232][b3d94fe8.virtua.com.br][samuel.caldas][http://177.124.60.170:8087/painelDeControle.php?][Chrome]
[29-06-15][09:42:30][179.217.79.232][b3d94fe8.virtua.com.br][samuel.caldas][http://177.124.60.170:8087/painelDeControle.php?][Chrome]
[29-06-15][10:02:34][179.217.79.232][b3d94fe8.virtua.com.br][samuel.caldas][http://177.124.60.170:8087/painelDeControle.php?corpo=buscaMembroOA][Chrome]
[29-06-15][10:02:34][179.217.79.232][b3d94fe8.virtua.com.br][samuel.caldas][http://177.124.60.170:8087/painelDeControle.php?corpo=buscaMembroOA][Chrome]
[29-06-15][10:02:36][179.217.79.232][b3d94fe8.virtua.com.br][samuel.caldas][http://177.124.60.170:8087/painelDeControle.php?corpo=cadastroMembroOA][Chrome]
[29-06-15][10:02:36][179.217.79.232][b3d94fe8.virtua.com.br][samuel.caldas][http://177.124.60.170:8087/painelDeControle.php?corpo=cadastroMembroOA][Chrome]
[29-06-15][10:09:01][179.217.79.232][b3d94fe8.virtua.com.br][samuel.caldas][http://177.124.60.170:8087/painelDeControle.php?corpo=buscaDespesas][Chrome]
[29-06-15][10:09:04][179.217.79.232][b3d94fe8.virtua.com.br][samuel.caldas][http://177.124.60.170:8087/painelDeControle.php?corpo=buscaRendimentos][Chrome]
[29-06-15][10:09:14][179.217.79.232][b3d94fe8.virtua.com.br][samuel.caldas][http://177.124.60.170:8087/painelDeControle.php?][Chrome]
[29-06-15][10:09:14][179.217.79.232][b3d94fe8.virtua.com.br][samuel.caldas][http://177.124.60.170:8087/painelDeControle.php?][Chrome]
[29-06-15][10:09:20][179.217.79.232][b3d94fe8.virtua.com.br][samuel.caldas][http://177.124.60.170:8087/painelDeControle.php?corpo=buscaRendimentos][Chrome]
[29-06-15][10:10:23][179.217.79.232][b3d94fe8.virtua.com.br][samuel.caldas][http://177.124.60.170:8087/painelDeControle.php?corpo=buscaRendimentos][Chrome]
[29-06-15][10:10:28][179.217.79.232][b3d94fe8.virtua.com.br][samuel.caldas][http://177.124.60.170:8087/painelDeControle.php?corpo=buscaRendimentos][Chrome]
[29-06-15][10:11:48][179.217.79.232][b3d94fe8.virtua.com.br][samuel.caldas][http://177.124.60.170:8087/painelDeControle.php?corpo=buscaAtaReuniaoMensal][Chrome]
[29-06-15][10:11:48][179.217.79.232][b3d94fe8.virtua.com.br][samuel.caldas][http://177.124.60.170:8087/painelDeControle.php?corpo=buscaAtaReuniaoMensal][Chrome]
[29-06-15][11:46:55][179.217.79.232][b3d94fe8.virtua.com.br][][http://177.124.60.170:8087/painelDeControle.php?][Chrome]
[29-06-15][11:46:55][179.217.79.232][b3d94fe8.virtua.com.br][][http://177.124.60.170:8087/painelDeControle.php?][Chrome]
[29-06-15][11:48:14][179.217.79.232][b3d94fe8.virtua.com.br][][http://177.124.60.170:8087/painelDeControle.php?corpo=perfilUsuario][Chrome]
[29-06-15][11:48:14][179.217.79.232][b3d94fe8.virtua.com.br][][http://177.124.60.170:8087/painelDeControle.php?corpo=perfilUsuario][Chrome]
[29-06-15][11:48:52][179.217.79.232][b3d94fe8.virtua.com.br][][http://177.124.60.170:8087/login.php?][Chrome]
[29-06-15][11:48:54][179.217.79.232][b3d94fe8.virtua.com.br][samuel.caldas][http://177.124.60.170:8087/painelDeControle.php?][Chrome]
[29-06-15][11:48:54][179.217.79.232][b3d94fe8.virtua.com.br][samuel.caldas][http://177.124.60.170:8087/painelDeControle.php?][Chrome]
[29-06-15][11:51:39][179.217.79.232][b3d94fe8.virtua.com.br][samuel.caldas][http://177.124.60.170:8087/painelDeControle.php?corpo=buscaOrganismo][Chrome]
[29-06-15][11:51:39][179.217.79.232][b3d94fe8.virtua.com.br][samuel.caldas][http://177.124.60.170:8087/painelDeControle.php?corpo=buscaOrganismo][Chrome]
[29-06-15][13:15:02][179.217.79.232][b3d94fe8.virtua.com.br][][http://177.124.60.170:8087/painelDeControle.php?][Chrome]
[29-06-15][13:15:03][179.217.79.232][b3d94fe8.virtua.com.br][][http://177.124.60.170:8087/painelDeControle.php?][Chrome]
[29-06-15][13:15:04][179.217.79.232][b3d94fe8.virtua.com.br][][http://177.124.60.170:8087/login.php?][Chrome]
[29-06-15][13:15:06][179.217.79.232][b3d94fe8.virtua.com.br][][http://177.124.60.170:8087/login.php?][Chrome]
[29-06-15][13:15:09][179.217.79.232][b3d94fe8.virtua.com.br][samuel.caldas][http://177.124.60.170:8087/painelDeControle.php?][Chrome]
[29-06-15][13:15:09][179.217.79.232][b3d94fe8.virtua.com.br][samuel.caldas][http://177.124.60.170:8087/painelDeControle.php?][Chrome]
[29-06-15][13:15:15][179.217.79.232][b3d94fe8.virtua.com.br][samuel.caldas][http://177.124.60.170:8087/painelDeControle.php?corpo=buscaMembrosRosacruzesAtivos][Chrome]
[29-06-15][13:15:26][179.217.79.232][b3d94fe8.virtua.com.br][samuel.caldas][http://177.124.60.170:8087/painelDeControle.php?corpo=buscaMembrosRosacruzesAtivos&mesAtual=07&anoAtual=2015][Chrome]
[29-06-15][13:15:27][179.217.79.232][b3d94fe8.virtua.com.br][samuel.caldas][http://177.124.60.170:8087/painelDeControle.php?corpo=buscaMembrosRosacruzesAtivos&mesAtual=06&anoAtual=2015][Chrome]
[29-06-15][13:24:22][179.217.79.232][b3d94fe8.virtua.com.br][samuel.caldas][http://177.124.60.170:8087/painelDeControle.php?][Chrome]
[29-06-15][13:24:22][179.217.79.232][b3d94fe8.virtua.com.br][samuel.caldas][http://177.124.60.170:8087/painelDeControle.php?][Chrome]
[29-06-15][13:24:53][179.217.79.232][b3d94fe8.virtua.com.br][samuel.caldas][http://177.124.60.170:8087/painelDeControle.php?corpo=buscaRecebimentos][Chrome]
[29-06-15][13:24:58][179.217.79.232][b3d94fe8.virtua.com.br][samuel.caldas][http://177.124.60.170:8087/login.php?][Chrome]
[29-06-15][13:25:03][179.217.79.232][b3d94fe8.virtua.com.br][carol][http://177.124.60.170:8087/painelDeControle.php?][Chrome]
[29-06-15][13:25:03][179.217.79.232][b3d94fe8.virtua.com.br][carol][http://177.124.60.170:8087/painelDeControle.php?][Chrome]
[29-06-15][13:25:06][179.217.79.232][b3d94fe8.virtua.com.br][carol][http://177.124.60.170:8087/painelDeControle.php?corpo=buscaRecebimentos][Chrome]
[29-06-15][13:25:08][179.217.79.232][b3d94fe8.virtua.com.br][carol][http://177.124.60.170:8087/login.php?][Chrome]
[29-06-15][13:25:12][179.217.79.232][b3d94fe8.virtua.com.br][fev][http://177.124.60.170:8087/painelDeControle.php?][Chrome]
[29-06-15][13:25:12][179.217.79.232][b3d94fe8.virtua.com.br][fev][http://177.124.60.170:8087/painelDeControle.php?][Chrome]
[29-06-15][13:25:16][179.217.79.232][b3d94fe8.virtua.com.br][fev][http://177.124.60.170:8087/painelDeControle.php?corpo=buscaRecebimentos][Chrome]
[29-06-15][13:25:19][179.217.79.232][b3d94fe8.virtua.com.br][fev][http://177.124.60.170:8087/painelDeControle.php?corpo=buscaAtaReuniaoMensal][Chrome]
[29-06-15][13:25:19][179.217.79.232][b3d94fe8.virtua.com.br][fev][http://177.124.60.170:8087/painelDeControle.php?corpo=buscaAtaReuniaoMensal][Chrome]
[29-06-15][13:25:20][179.217.79.232][b3d94fe8.virtua.com.br][fev][http://177.124.60.170:8087/login.php?][Chrome]
[29-06-15][13:25:22][179.217.79.232][b3d94fe8.virtua.com.br][samuel.caldas][http://177.124.60.170:8087/painelDeControle.php?][Chrome]
[29-06-15][13:25:22][179.217.79.232][b3d94fe8.virtua.com.br][samuel.caldas][http://177.124.60.170:8087/painelDeControle.php?][Chrome]
[29-06-15][13:25:33][179.217.79.232][b3d94fe8.virtua.com.br][samuel.caldas][http://177.124.60.170:8087/painelDeControle.php?corpo=buscaRelatorioMensalFinanceiro][Chrome]
[29-06-15][13:26:22][179.217.79.232][b3d94fe8.virtua.com.br][samuel.caldas][http://177.124.60.170:8087/painelDeControle.php?corpo=buscaRendimentos][Chrome]
[29-06-15][13:26:23][179.217.79.232][b3d94fe8.virtua.com.br][samuel.caldas][http://177.124.60.170:8087/painelDeControle.php?corpo=buscaRecebimentos][Chrome]
[29-06-15][13:26:24][179.217.79.232][b3d94fe8.virtua.com.br][samuel.caldas][http://177.124.60.170:8087/painelDeControle.php?corpo=buscaMembrosRosacruzesAtivos][Chrome]
[29-06-15][13:26:34][179.217.79.232][b3d94fe8.virtua.com.br][samuel.caldas][http://177.124.60.170:8087/painelDeControle.php?corpo=buscaMembrosRosacruzesAtivos][Chrome]
[29-06-15][13:34:38][179.217.79.232][b3d94fe8.virtua.com.br][samuel.caldas][http://177.124.60.170:8087/painelDeControle.php?corpo=buscaMembrosRosacruzesAtivos][Chrome]
[29-06-15][13:56:31][179.217.79.232][b3d94fe8.virtua.com.br][samuel.caldas][http://177.124.60.170:8087/painelDeControle.php?corpo=buscaMembrosRosacruzesAtivos][Chrome]
[29-06-15][13:56:59][179.217.79.232][b3d94fe8.virtua.com.br][samuel.caldas][http://177.124.60.170:8087/painelDeControle.php?corpo=buscaMembrosRosacruzesAtivos][Chrome]
[29-06-15][13:57:29][179.217.79.232][b3d94fe8.virtua.com.br][samuel.caldas][http://177.124.60.170:8087/painelDeControle.php?corpo=buscaMembrosRosacruzesAtivos][Chrome]
[29-06-15][14:20:23][179.217.79.232][b3d94fe8.virtua.com.br][samuel.caldas][http://177.124.60.170:8087/painelDeControle.php?corpo=buscaMembrosRosacruzesAtivos][Chrome]
[29-06-15][14:20:33][179.217.79.232][b3d94fe8.virtua.com.br][samuel.caldas][http://177.124.60.170:8087/login.php?][Chrome]
[29-06-15][14:20:40][179.217.79.232][b3d94fe8.virtua.com.br][samuel.caldas][http://177.124.60.170:8087/index.php?][Chrome]
[29-06-15][14:20:42][179.217.79.232][b3d94fe8.virtua.com.br][samuel.caldas][http://177.124.60.170:8087/painelDeControle.php?][Chrome]
[29-06-15][14:20:42][179.217.79.232][b3d94fe8.virtua.com.br][samuel.caldas][http://177.124.60.170:8087/painelDeControle.php?][Chrome]
[29-06-15][14:20:45][179.217.79.232][b3d94fe8.virtua.com.br][samuel.caldas][http://177.124.60.170:8087/painelDeControle.php?][Chrome]
[29-06-15][14:20:45][179.217.79.232][b3d94fe8.virtua.com.br][samuel.caldas][http://177.124.60.170:8087/painelDeControle.php?][Chrome]
[29-06-15][14:20:50][179.217.79.232][b3d94fe8.virtua.com.br][samuel.caldas][http://177.124.60.170:8087/painelDeControle.php?corpo=buscaMembrosRosacruzesAtivos][Chrome]
[29-06-15][14:21:42][179.217.79.232][b3d94fe8.virtua.com.br][samuel.caldas][http://177.124.60.170:8087/painelDeControle.php?corpo=buscaMembrosRosacruzesAtivos][Chrome]
[29-06-15][14:21:56][179.217.79.232][b3d94fe8.virtua.com.br][samuel.caldas][http://177.124.60.170:8087/painelDeControle.php?corpo=buscaMembrosRosacruzesAtivos&mesAtual=07&anoAtual=2015][Chrome]
[29-06-15][14:22:09][179.217.79.232][b3d94fe8.virtua.com.br][samuel.caldas][http://177.124.60.170:8087/painelDeControle.php?corpo=buscaMembrosRosacruzesAtivos&mesAtual=08&anoAtual=2015][Chrome]
[29-06-15][14:22:16][179.217.79.232][b3d94fe8.virtua.com.br][samuel.caldas][http://177.124.60.170:8087/painelDeControle.php?corpo=buscaMembrosRosacruzesAtivos&mesAtual=07&anoAtual=2015][Chrome]
[29-06-15][14:22:17][179.217.79.232][b3d94fe8.virtua.com.br][samuel.caldas][http://177.124.60.170:8087/painelDeControle.php?corpo=buscaMembrosRosacruzesAtivos&mesAtual=06&anoAtual=2015][Chrome]
[29-06-15][14:22:30][179.217.79.232][b3d94fe8.virtua.com.br][samuel.caldas][http://177.124.60.170:8087/painelDeControle.php?corpo=buscaMembrosRosacruzesAtivos&mesAtual=07&anoAtual=2015][Chrome]
[29-06-15][14:22:38][179.217.79.232][b3d94fe8.virtua.com.br][samuel.caldas][http://177.124.60.170:8087/painelDeControle.php?corpo=buscaMembrosRosacruzesAtivos&mesAtual=08&anoAtual=2015][Chrome]
[29-06-15][14:23:12][179.217.79.232][b3d94fe8.virtua.com.br][samuel.caldas][http://177.124.60.170:8087/painelDeControle.php?corpo=buscaMembrosRosacruzesAtivos&mesAtual=09&anoAtual=2015][Chrome]
[29-06-15][14:53:12][179.217.79.232][b3d94fe8.virtua.com.br][samuel.caldas][http://177.124.60.170:8087/painelDeControle.php?][Chrome]
[29-06-15][14:53:12][179.217.79.232][b3d94fe8.virtua.com.br][samuel.caldas][http://177.124.60.170:8087/painelDeControle.php?][Chrome]
[29-06-15][14:55:11][179.217.79.232][b3d94fe8.virtua.com.br][samuel.caldas][http://177.124.60.170:8087/painelDeControle.php?][Chrome]
[29-06-15][14:55:11][179.217.79.232][b3d94fe8.virtua.com.br][samuel.caldas][http://177.124.60.170:8087/painelDeControle.php?][Chrome]
[29-06-15][15:15:29][179.217.79.232][b3d94fe8.virtua.com.br][samuel.caldas][http://177.124.60.170:8087/painelDeControle.php?corpo=buscaRecebimentos][Chrome]
[29-06-15][15:15:35][179.217.79.232][b3d94fe8.virtua.com.br][samuel.caldas][http://177.124.60.170:8087/painelDeControle.php?corpo=buscaAtaReuniaoMensal][Chrome]
[29-06-15][15:15:35][179.217.79.232][b3d94fe8.virtua.com.br][samuel.caldas][http://177.124.60.170:8087/painelDeControle.php?corpo=buscaAtaReuniaoMensal][Chrome]
[29-06-15][15:20:12][179.217.79.232][b3d94fe8.virtua.com.br][samuel.caldas][http://177.124.60.170:8087/painelDeControle.php?corpo=cadastroAtaReuniaoMensal][Chrome]
[29-06-15][15:20:12][179.217.79.232][b3d94fe8.virtua.com.br][samuel.caldas][http://177.124.60.170:8087/painelDeControle.php?corpo=cadastroAtaReuniaoMensal][Chrome]
[29-06-15][15:23:37][179.217.79.232][b3d94fe8.virtua.com.br][samuel.caldas][http://177.124.60.170:8087/login.php?][Chrome]
[29-06-15][15:23:40][179.217.79.232][b3d94fe8.virtua.com.br][samuel.caldas][http://177.124.60.170:8087/login.php?][Chrome]
[29-06-15][15:23:57][179.217.79.232][b3d94fe8.virtua.com.br][samuel.caldas][http://177.124.60.170:8087/painelDeControle.php?][Chrome]
[29-06-15][15:23:57][179.217.79.232][b3d94fe8.virtua.com.br][samuel.caldas][http://177.124.60.170:8087/painelDeControle.php?][Chrome]
[29-06-15][15:23:58][179.217.79.232][b3d94fe8.virtua.com.br][samuel.caldas][http://177.124.60.170:8087/login.php?][Chrome]
[29-06-15][15:24:06][179.217.79.232][b3d94fe8.virtua.com.br][samuel.caldas][http://177.124.60.170:8087/login.php?][Chrome]
[29-06-15][15:24:11][179.217.79.232][b3d94fe8.virtua.com.br][lbas][http://177.124.60.170:8087/painelDeControle.php?][Chrome]
[29-06-15][15:24:11][179.217.79.232][b3d94fe8.virtua.com.br][lbas][http://177.124.60.170:8087/painelDeControle.php?][Chrome]
[29-06-15][15:24:12][179.217.79.232][b3d94fe8.virtua.com.br][lbas][http://177.124.60.170:8087/login.php?][Chrome]
[29-06-15][15:27:10][179.217.79.232][b3d94fe8.virtua.com.br][lbas][http://177.124.60.170:8087/login.php?][Chrome]
[29-06-15][15:27:16][179.217.79.232][b3d94fe8.virtua.com.br][lbas][http://177.124.60.170:8087/login.php?][Chrome]
[29-06-15][15:27:21][179.217.79.232][b3d94fe8.virtua.com.br][lbas][http://177.124.60.170:8087/login.php?][Chrome]
[29-06-15][15:27:24][179.217.79.232][b3d94fe8.virtua.com.br][samuel.caldas][http://177.124.60.170:8087/painelDeControle.php?][Chrome]
[29-06-15][15:27:24][179.217.79.232][b3d94fe8.virtua.com.br][samuel.caldas][http://177.124.60.170:8087/painelDeControle.php?][Chrome]
[29-06-15][15:27:27][179.217.79.232][b3d94fe8.virtua.com.br][samuel.caldas][http://177.124.60.170:8087/login.php?][Chrome]
[29-06-15][15:27:31][179.217.79.232][b3d94fe8.virtua.com.br][fev][http://177.124.60.170:8087/painelDeControle.php?][Chrome]
[29-06-15][15:27:31][179.217.79.232][b3d94fe8.virtua.com.br][fev][http://177.124.60.170:8087/painelDeControle.php?][Chrome]
[29-06-15][15:27:33][179.217.79.232][b3d94fe8.virtua.com.br][fev][http://177.124.60.170:8087/login.php?][Chrome]
[29-06-15][15:27:37][179.217.79.232][b3d94fe8.virtua.com.br][carol][http://177.124.60.170:8087/painelDeControle.php?][Chrome]
[29-06-15][15:27:37][179.217.79.232][b3d94fe8.virtua.com.br][carol][http://177.124.60.170:8087/painelDeControle.php?][Chrome]
[29-06-15][15:27:41][179.217.79.232][b3d94fe8.virtua.com.br][carol][http://177.124.60.170:8087/login.php?][Chrome]
[29-06-15][15:30:26][::1][GRECIA.datacenter.org][][http://localhost/index.php?][Chrome]
[29-06-15][15:30:29][::1][GRECIA.datacenter.org][samuel.caldas][http://localhost/painelDeControle.php?][Chrome]
[29-06-15][15:30:29][::1][GRECIA.datacenter.org][samuel.caldas][http://localhost/painelDeControle.php?][Chrome]
[29-06-15][15:34:11][179.217.79.232][b3d94fe8.virtua.com.br][samuel.caldas][http://177.124.60.170:8087/painelDeControle.php?][Chrome]
[29-06-15][15:34:11][179.217.79.232][b3d94fe8.virtua.com.br][samuel.caldas][http://177.124.60.170:8087/painelDeControle.php?][Chrome]
[29-06-15][15:38:34][179.217.79.232][b3d94fe8.virtua.com.br][samuel.caldas][http://177.124.60.170:8087/painelDeControle.php?corpo=buscaAtaReuniaoMensal][Chrome]
[29-06-15][15:38:34][179.217.79.232][b3d94fe8.virtua.com.br][samuel.caldas][http://177.124.60.170:8087/painelDeControle.php?corpo=buscaAtaReuniaoMensal][Chrome]
[29-06-15][15:38:36][179.217.79.232][b3d94fe8.virtua.com.br][samuel.caldas][http://177.124.60.170:8087/painelDeControle.php?corpo=cadastroAtaReuniaoMensal][Chrome]
[29-06-15][15:38:36][179.217.79.232][b3d94fe8.virtua.com.br][samuel.caldas][http://177.124.60.170:8087/painelDeControle.php?corpo=cadastroAtaReuniaoMensal][Chrome]
[29-06-15][15:40:47][179.217.79.232][b3d94fe8.virtua.com.br][samuel.caldas][http://177.124.60.170:8087/painelDeControle.php?corpo=buscaAtaReuniaoMensal][Chrome]
[29-06-15][15:40:47][179.217.79.232][b3d94fe8.virtua.com.br][samuel.caldas][http://177.124.60.170:8087/painelDeControle.php?corpo=buscaAtaReuniaoMensal][Chrome]
[29-06-15][15:40:54][179.217.79.232][b3d94fe8.virtua.com.br][samuel.caldas][http://177.124.60.170:8087/painelDeControle.php?corpo=alteraAtaReuniaoMensal&idata_reuniao_mensal=1][Chrome]
[29-06-15][15:40:54][179.217.79.232][b3d94fe8.virtua.com.br][samuel.caldas][http://177.124.60.170:8087/painelDeControle.php?corpo=alteraAtaReuniaoMensal&idata_reuniao_mensal=1][Chrome]
[29-06-15][15:41:10][179.217.79.232][b3d94fe8.virtua.com.br][samuel.caldas][http://177.124.60.170:8087/painelDeControle.php?corpo=buscaAtaReuniaoMensal][Chrome]
[29-06-15][15:41:10][179.217.79.232][b3d94fe8.virtua.com.br][samuel.caldas][http://177.124.60.170:8087/painelDeControle.php?corpo=buscaAtaReuniaoMensal][Chrome]
[29-06-15][15:58:46][179.217.79.232][b3d94fe8.virtua.com.br][samuel.caldas][http://177.124.60.170:8087/painelDeControle.php?corpo=buscaAtaPosse][Chrome]
[29-06-15][15:58:46][179.217.79.232][b3d94fe8.virtua.com.br][samuel.caldas][http://177.124.60.170:8087/painelDeControle.php?corpo=buscaAtaPosse][Chrome]
[29-06-15][15:58:48][179.217.79.232][b3d94fe8.virtua.com.br][samuel.caldas][http://177.124.60.170:8087/painelDeControle.php?corpo=cadastroAtaPosse][Chrome]
[29-06-15][15:58:48][179.217.79.232][b3d94fe8.virtua.com.br][samuel.caldas][http://177.124.60.170:8087/painelDeControle.php?corpo=cadastroAtaPosse][Chrome]
[29-06-15][16:00:10][179.217.79.232][b3d94fe8.virtua.com.br][samuel.caldas][http://177.124.60.170:8087/painelDeControle.php?corpo=buscaAtaPosse][Chrome]
[29-06-15][16:00:10][179.217.79.232][b3d94fe8.virtua.com.br][samuel.caldas][http://177.124.60.170:8087/painelDeControle.php?corpo=buscaAtaPosse][Chrome]
[29-06-15][16:21:17][179.217.79.232][b3d94fe8.virtua.com.br][samuel.caldas][http://177.124.60.170:8087/painelDeControle.php?corpo=buscaAtaReuniaoMensal][Chrome]
[29-06-15][16:21:17][179.217.79.232][b3d94fe8.virtua.com.br][samuel.caldas][http://177.124.60.170:8087/painelDeControle.php?corpo=buscaAtaReuniaoMensal][Chrome]
[29-06-15][16:22:01][179.217.79.232][b3d94fe8.virtua.com.br][samuel.caldas][http://177.124.60.170:8087/painelDeControle.php?corpo=buscaAtaPosse][Chrome]
[29-06-15][16:22:01][179.217.79.232][b3d94fe8.virtua.com.br][samuel.caldas][http://177.124.60.170:8087/painelDeControle.php?corpo=buscaAtaPosse][Chrome]
[29-06-15][16:22:03][179.217.79.232][b3d94fe8.virtua.com.br][samuel.caldas][http://177.124.60.170:8087/painelDeControle.php?corpo=cadastroAtaPosse][Chrome]
[29-06-15][16:22:03][179.217.79.232][b3d94fe8.virtua.com.br][samuel.caldas][http://177.124.60.170:8087/painelDeControle.php?corpo=cadastroAtaPosse][Chrome]
[29-06-15][16:23:50][179.217.79.232][b3d94fe8.virtua.com.br][samuel.caldas][http://177.124.60.170:8087/painelDeControle.php?corpo=buscaAtaPosse][Chrome]
[29-06-15][16:23:51][179.217.79.232][b3d94fe8.virtua.com.br][samuel.caldas][http://177.124.60.170:8087/painelDeControle.php?corpo=buscaAtaPosse][Chrome]
[29-06-15][16:23:53][179.217.79.232][b3d94fe8.virtua.com.br][samuel.caldas][http://177.124.60.170:8087/painelDeControle.php?corpo=alteraAtaPosse&idata_posse=2][Chrome]
[29-06-15][16:23:53][179.217.79.232][b3d94fe8.virtua.com.br][samuel.caldas][http://177.124.60.170:8087/painelDeControle.php?corpo=alteraAtaPosse&idata_posse=2][Chrome]
[29-06-15][16:26:13][179.217.79.232][b3d94fe8.virtua.com.br][samuel.caldas][http://177.124.60.170:8087/painelDeControle.php?corpo=buscaAtaPosse][Chrome]
[29-06-15][16:26:13][179.217.79.232][b3d94fe8.virtua.com.br][samuel.caldas][http://177.124.60.170:8087/painelDeControle.php?corpo=buscaAtaPosse][Chrome]
[29-06-15][16:29:20][179.217.79.232][b3d94fe8.virtua.com.br][samuel.caldas][http://177.124.60.170:8087/painelDeControle.php?corpo=alteraAtaPosse&idata_posse=2][Chrome]
[29-06-15][16:29:20][179.217.79.232][b3d94fe8.virtua.com.br][samuel.caldas][http://177.124.60.170:8087/painelDeControle.php?corpo=alteraAtaPosse&idata_posse=2][Chrome]
[29-06-15][16:32:00][179.217.79.232][b3d94fe8.virtua.com.br][][http://177.124.60.170:8087/index.php?][Chrome]
[29-06-15][16:32:04][179.217.79.232][b3d94fe8.virtua.com.br][lbas][http://177.124.60.170:8087/painelDeControle.php?][Chrome]
[29-06-15][16:32:04][179.217.79.232][b3d94fe8.virtua.com.br][lbas][http://177.124.60.170:8087/painelDeControle.php?][Chrome]
[29-06-15][16:32:16][179.217.79.232][b3d94fe8.virtua.com.br][lbas][http://177.124.60.170:8087/painelDeControle.php?corpo=buscaRelatorioMensalFinanceiro][Chrome]
[29-06-15][16:33:40][179.217.79.232][b3d94fe8.virtua.com.br][lbas][http://177.124.60.170:8087/painelDeControle.php?corpo=buscaRelatorioAnualFinanceiro][Chrome]
[29-06-15][16:35:45][179.217.79.232][b3d94fe8.virtua.com.br][lbas][http://177.124.60.170:8087/painelDeControle.php?corpo=buscaExtratoFinanceiro][Chrome]
[29-06-15][16:35:45][179.217.79.232][b3d94fe8.virtua.com.br][lbas][http://177.124.60.170:8087/painelDeControle.php?corpo=buscaExtratoFinanceiro][Chrome]
[29-06-15][16:36:17][179.217.79.232][b3d94fe8.virtua.com.br][lbas][http://177.124.60.170:8087/painelDeControle.php?corpo=buscaRelatorioMensalFinanceiro][Chrome]
[29-06-15][16:39:59][179.217.79.232][b3d94fe8.virtua.com.br][lbas][http://177.124.60.170:8087/painelDeControle.php?corpo=buscaRelatorioMensalFinanceiro][Chrome]
[29-06-15][16:41:44][179.217.79.232][b3d94fe8.virtua.com.br][lbas][http://177.124.60.170:8087/painelDeControle.php?corpo=buscaRelatorioMensalFinanceiro][Chrome]
[29-06-15][16:42:07][179.217.79.232][b3d94fe8.virtua.com.br][lbas][http://177.124.60.170:8087/painelDeControle.php?corpo=buscaRelatorioMensalFinanceiro][Chrome]
[29-06-15][16:42:38][179.217.79.232][b3d94fe8.virtua.com.br][lbas][http://177.124.60.170:8087/painelDeControle.php?corpo=buscaRelatorioMensalFinanceiro][Chrome]
[29-06-15][16:43:47][179.217.79.232][b3d94fe8.virtua.com.br][lbas][http://177.124.60.170:8087/painelDeControle.php?corpo=buscaRelatorioMensalFinanceiro][Chrome]
[29-06-15][16:44:21][179.217.79.232][b3d94fe8.virtua.com.br][lbas][http://177.124.60.170:8087/painelDeControle.php?corpo=buscaRelatorioMensalFinanceiro][Chrome]
[29-06-15][16:45:13][179.217.79.232][b3d94fe8.virtua.com.br][lbas][http://177.124.60.170:8087/painelDeControle.php?corpo=buscaRelatorioMensalFinanceiro][Chrome]
[29-06-15][16:45:44][179.217.79.232][b3d94fe8.virtua.com.br][lbas][http://177.124.60.170:8087/painelDeControle.php?corpo=buscaRelatorioMensalFinanceiro][Chrome]
[29-06-15][16:46:08][179.217.79.232][b3d94fe8.virtua.com.br][lbas][http://177.124.60.170:8087/painelDeControle.php?corpo=buscaRelatorioMensalFinanceiro][Chrome]
[29-06-15][16:46:28][179.217.79.232][b3d94fe8.virtua.com.br][lbas][http://177.124.60.170:8087/painelDeControle.php?corpo=buscaRelatorioMensalFinanceiro][Chrome]
[29-06-15][16:49:18][179.217.79.232][b3d94fe8.virtua.com.br][lbas][http://177.124.60.170:8087/login.php?][Chrome]
[29-06-15][16:50:25][179.217.79.232][b3d94fe8.virtua.com.br][lbas][http://177.124.60.170:8087/painelDeControle.php?][Chrome]
[29-06-15][16:50:25][179.217.79.232][b3d94fe8.virtua.com.br][lbas][http://177.124.60.170:8087/painelDeControle.php?][Chrome]
[29-06-15][16:50:33][179.217.79.232][b3d94fe8.virtua.com.br][lbas][http://177.124.60.170:8087/painelDeControle.php?corpo=buscaRelatorioMensalFinanceiro][Chrome]
[29-06-15][16:50:55][179.217.79.232][b3d94fe8.virtua.com.br][lbas][http://177.124.60.170:8087/painelDeControle.php?corpo=buscaRelatorioMensalFinanceiro][Chrome]
[29-06-15][16:51:32][::1][GRECIA.datacenter.org][][http://localhost/index.php?][other]
