[15-12-15][08:31:18][192.1.1.143][cpd2.datacenter.org][][http://soa.amorc.org.br/painelDeControle.php?corpo=buscaImovel][Chrome]
[15-12-15][08:31:18][192.1.1.143][cpd2.datacenter.org][][http://soa.amorc.org.br/painelDeControle.php?corpo=buscaImovel][Chrome]
[15-12-15][08:31:36][192.1.1.143][cpd2.datacenter.org][][http://soa.amorc.org.br/painelDeControle.php?corpo=buscaAtividadeIniciatica][Chrome]
[15-12-15][08:31:36][192.1.1.143][cpd2.datacenter.org][][http://soa.amorc.org.br/telaDeBloqueio.php?][Chrome]
[15-12-15][08:31:37][192.1.1.143][cpd2.datacenter.org][][http://soa.amorc.org.br/login.php?][Chrome]
[15-12-15][08:33:33][192.1.1.63][cpd.datacenter.org][][http://soa.amorc.org.br/index.php?][other]
[15-12-15][08:33:34][192.1.1.63][cpd.datacenter.org][][http://soa.amorc.org.br/index.php?][IE]
[15-12-15][08:33:34][192.1.1.63][cpd.datacenter.org][][http://soa.amorc.org.br/index.php?][Chrome]
[15-12-15][08:34:03][192.1.1.63][cpd.datacenter.org][][http://soa.amorc.org.br/index.php?][Chrome]
[15-12-15][08:56:40][192.1.1.143][cpd2.datacenter.org][samuel.caldas][http://soa.amorc.org.br/index.php?][Chrome]
[15-12-15][09:20:49][192.1.1.143][cpd2.datacenter.org][samuel.caldas][http://soa.amorc.org.br/painelDeControle.php?][Chrome]
[15-12-15][09:20:49][192.1.1.143][cpd2.datacenter.org][samuel.caldas][http://soa.amorc.org.br/painelDeControle.php?][Chrome]
[15-12-15][09:20:54][192.1.1.143][cpd2.datacenter.org][samuel.caldas][http://soa.amorc.org.br/painelDeControle.php?corpo=buscaImovel][Chrome]
[15-12-15][09:20:54][192.1.1.143][cpd2.datacenter.org][samuel.caldas][http://soa.amorc.org.br/painelDeControle.php?corpo=buscaImovel][Chrome]
[15-12-15][09:20:56][192.1.1.143][cpd2.datacenter.org][samuel.caldas][http://soa.amorc.org.br/painelDeControle.php?corpo=cadastroImovel][Chrome]
[15-12-15][09:20:56][192.1.1.143][cpd2.datacenter.org][samuel.caldas][http://soa.amorc.org.br/painelDeControle.php?corpo=cadastroImovel][Chrome]
[15-12-15][09:30:37][192.1.1.143][cpd2.datacenter.org][samuel.caldas][http://soa.amorc.org.br/index.php?][Chrome]
[15-12-15][09:35:17][192.1.1.143][cpd2.datacenter.org][samuel.caldas][http://soa.amorc.org.br/painelDeControle.php?corpo=cadastroImovel][Chrome]
[15-12-15][09:35:17][192.1.1.143][cpd2.datacenter.org][samuel.caldas][http://soa.amorc.org.br/painelDeControle.php?corpo=cadastroImovel][Chrome]
[15-12-15][09:46:30][192.1.1.143][cpd2.datacenter.org][samuel.caldas][http://soa.amorc.org.br/painelDeControle.php?][Chrome]
[15-12-15][09:46:30][192.1.1.143][cpd2.datacenter.org][samuel.caldas][http://soa.amorc.org.br/painelDeControle.php?][Chrome]
[15-12-15][11:18:55][192.1.1.143][cpd2.datacenter.org][][http://soa.amorc.org.br/painelDeControle.php?][Chrome]
[15-12-15][11:18:55][192.1.1.143][cpd2.datacenter.org][][http://soa.amorc.org.br/painelDeControle.php?][Chrome]
[15-12-15][11:18:55][192.1.1.143][cpd2.datacenter.org][][http://soa.amorc.org.br/telaDeBloqueio.php?][Chrome]
[15-12-15][11:18:56][192.1.1.143][cpd2.datacenter.org][][http://soa.amorc.org.br/login.php?][Chrome]
[15-12-15][11:18:59][192.1.1.143][cpd2.datacenter.org][samuel.caldas][http://soa.amorc.org.br/painelDeControle.php?][Chrome]
[15-12-15][11:18:59][192.1.1.143][cpd2.datacenter.org][samuel.caldas][http://soa.amorc.org.br/painelDeControle.php?][Chrome]
[15-12-15][13:15:57][192.1.1.109][samuel.datacenter.org][][http://soa.amorc.org.br/index.php?][Chrome]
[15-12-15][13:16:13][192.1.1.109][samuel.datacenter.org][samuel.caldas][http://soa.amorc.org.br/painelDeControle.php?][Chrome]
[15-12-15][13:16:13][192.1.1.109][samuel.datacenter.org][samuel.caldas][http://soa.amorc.org.br/painelDeControle.php?][Chrome]
[15-12-15][13:47:14][192.1.1.109][samuel.datacenter.org][][http://soa.amorc.org.br/painelDeControle.php?corpo=buscaMembroOA][Chrome]
[15-12-15][13:47:14][192.1.1.109][samuel.datacenter.org][][http://soa.amorc.org.br/painelDeControle.php?corpo=buscaMembroOA][Chrome]
[15-12-15][13:47:14][192.1.1.109][samuel.datacenter.org][][http://soa.amorc.org.br/telaDeBloqueio.php?][Chrome]
[15-12-15][13:47:15][192.1.1.109][samuel.datacenter.org][][http://soa.amorc.org.br/login.php?][Chrome]
[15-12-15][13:47:18][192.1.1.109][samuel.datacenter.org][lbas][http://soa.amorc.org.br/painelDeControle.php?][Chrome]
[15-12-15][13:47:18][192.1.1.109][samuel.datacenter.org][lbas][http://soa.amorc.org.br/painelDeControle.php?][Chrome]
[15-12-15][13:47:20][192.1.1.109][samuel.datacenter.org][lbas][http://soa.amorc.org.br/painelDeControle.php?corpo=buscaMembros][Chrome]
[15-12-15][13:50:46][192.1.1.109][samuel.datacenter.org][lbas][http://soa.amorc.org.br/painelDeControle.php?corpo=buscaAtaReuniaoMensal][Chrome]
[15-12-15][13:50:46][192.1.1.109][samuel.datacenter.org][lbas][http://soa.amorc.org.br/painelDeControle.php?corpo=buscaAtaReuniaoMensal][Chrome]
[15-12-15][13:51:31][192.1.1.109][samuel.datacenter.org][lbas][http://soa.amorc.org.br/painelDeControle.php?corpo=cadastroAtaReuniaoMensal][Chrome]
[15-12-15][13:51:31][192.1.1.109][samuel.datacenter.org][lbas][http://soa.amorc.org.br/painelDeControle.php?corpo=cadastroAtaReuniaoMensal][Chrome]
[15-12-15][13:53:11][192.1.1.109][samuel.datacenter.org][lbas][http://soa.amorc.org.br/painelDeControle.php?corpo=buscaAtaReuniaoMensal&salvo=1][Chrome]
[15-12-15][13:53:11][192.1.1.109][samuel.datacenter.org][lbas][http://soa.amorc.org.br/painelDeControle.php?corpo=buscaAtaReuniaoMensal&salvo=1][Chrome]
[15-12-15][13:53:20][192.1.1.109][samuel.datacenter.org][lbas][http://soa.amorc.org.br/painelDeControle.php?corpo=alteraAtaReuniaoMensal&idata_reuniao_mensal=1][Chrome]
[15-12-15][13:53:20][192.1.1.109][samuel.datacenter.org][lbas][http://soa.amorc.org.br/painelDeControle.php?corpo=alteraAtaReuniaoMensal&idata_reuniao_mensal=1][Chrome]
[15-12-15][13:53:50][192.1.1.109][samuel.datacenter.org][lbas][http://soa.amorc.org.br/painelDeControle.php?corpo=buscaAtaReuniaoMensal&salvo=1][Chrome]
[15-12-15][13:53:50][192.1.1.109][samuel.datacenter.org][lbas][http://soa.amorc.org.br/painelDeControle.php?corpo=buscaAtaReuniaoMensal&salvo=1][Chrome]
[15-12-15][13:54:17][192.1.1.109][samuel.datacenter.org][lbas][http://soa.amorc.org.br/painelDeControle.php?corpo=alteraAtaReuniaoMensal&idata_reuniao_mensal=1][Chrome]
[15-12-15][13:54:17][192.1.1.109][samuel.datacenter.org][lbas][http://soa.amorc.org.br/painelDeControle.php?corpo=alteraAtaReuniaoMensal&idata_reuniao_mensal=1][Chrome]
[15-12-15][13:54:32][192.1.1.109][samuel.datacenter.org][lbas][http://soa.amorc.org.br/painelDeControle.php?corpo=buscaAtaReuniaoMensal&salvo=1][Chrome]
[15-12-15][13:54:32][192.1.1.109][samuel.datacenter.org][lbas][http://soa.amorc.org.br/painelDeControle.php?corpo=buscaAtaReuniaoMensal&salvo=1][Chrome]
[15-12-15][13:55:09][192.1.1.109][samuel.datacenter.org][lbas][http://soa.amorc.org.br/painelDeControle.php?corpo=buscaAtaReuniaoMensal&salvo=1][Chrome]
[15-12-15][13:55:09][192.1.1.109][samuel.datacenter.org][lbas][http://soa.amorc.org.br/painelDeControle.php?corpo=buscaAtaReuniaoMensal&salvo=1][Chrome]
[15-12-15][13:56:24][192.1.1.109][samuel.datacenter.org][lbas][http://soa.amorc.org.br/painelDeControle.php?corpo=detalheNotificacao&idNotificacaoGlp=4][Chrome]
[15-12-15][13:56:24][192.1.1.109][samuel.datacenter.org][lbas][http://soa.amorc.org.br/painelDeControle.php?corpo=detalheNotificacao&idNotificacaoGlp=4][Chrome]
[15-12-15][13:56:25][192.1.1.109][samuel.datacenter.org][][http://soa.amorc.org.br/login.php?][Chrome]
[15-12-15][13:56:30][192.1.1.109][samuel.datacenter.org][eele][http://soa.amorc.org.br/painelDeControle.php?][Chrome]
[15-12-15][13:56:30][192.1.1.109][samuel.datacenter.org][eele][http://soa.amorc.org.br/painelDeControle.php?][Chrome]
[15-12-15][13:56:33][192.1.1.109][samuel.datacenter.org][eele][http://soa.amorc.org.br/painelDeControle.php?corpo=detalheNotificacao&idNotificacaoGlp=5][Chrome]
[15-12-15][13:56:33][192.1.1.109][samuel.datacenter.org][eele][http://soa.amorc.org.br/painelDeControle.php?corpo=detalheNotificacao&idNotificacaoGlp=5][Chrome]
[15-12-15][13:56:35][192.1.1.109][samuel.datacenter.org][][http://soa.amorc.org.br/login.php?][Chrome]
[15-12-15][13:56:37][192.1.1.109][samuel.datacenter.org][lbas][http://soa.amorc.org.br/painelDeControle.php?][Chrome]
[15-12-15][13:56:37][192.1.1.109][samuel.datacenter.org][lbas][http://soa.amorc.org.br/painelDeControle.php?][Chrome]
[15-12-15][13:56:42][192.1.1.109][samuel.datacenter.org][lbas][http://soa.amorc.org.br/painelDeControle.php?corpo=buscaAtaPosse][Chrome]
[15-12-15][13:56:42][192.1.1.109][samuel.datacenter.org][lbas][http://soa.amorc.org.br/painelDeControle.php?corpo=buscaAtaPosse][Chrome]
[15-12-15][13:56:44][192.1.1.109][samuel.datacenter.org][lbas][http://soa.amorc.org.br/painelDeControle.php?corpo=cadastroAtaPosse][Chrome]
[15-12-15][13:56:44][192.1.1.109][samuel.datacenter.org][lbas][http://soa.amorc.org.br/painelDeControle.php?corpo=cadastroAtaPosse][Chrome]
[15-12-15][13:58:38][192.1.1.109][samuel.datacenter.org][lbas][http://soa.amorc.org.br/painelDeControle.php?corpo=buscaAtaPosse&salvo=1][Chrome]
[15-12-15][13:58:38][192.1.1.109][samuel.datacenter.org][lbas][http://soa.amorc.org.br/painelDeControle.php?corpo=buscaAtaPosse&salvo=1][Chrome]
[15-12-15][13:58:44][192.1.1.109][samuel.datacenter.org][lbas][http://soa.amorc.org.br/painelDeControle.php?corpo=alteraAtaPosse&idata_posse=1][Chrome]
[15-12-15][13:58:44][192.1.1.109][samuel.datacenter.org][lbas][http://soa.amorc.org.br/painelDeControle.php?corpo=alteraAtaPosse&idata_posse=1][Chrome]
[15-12-15][13:59:02][192.1.1.109][samuel.datacenter.org][lbas][http://soa.amorc.org.br/painelDeControle.php?corpo=buscaAtaPosse&salvo=1][Chrome]
[15-12-15][13:59:02][192.1.1.109][samuel.datacenter.org][lbas][http://soa.amorc.org.br/painelDeControle.php?corpo=buscaAtaPosse&salvo=1][Chrome]
[15-12-15][13:59:27][192.1.1.109][samuel.datacenter.org][lbas][http://soa.amorc.org.br/painelDeControle.php?corpo=buscaAtaPosse&salvo=1][Chrome]
[15-12-15][13:59:27][192.1.1.109][samuel.datacenter.org][lbas][http://soa.amorc.org.br/painelDeControle.php?corpo=buscaAtaPosse&salvo=1][Chrome]
[15-12-15][13:59:59][192.1.1.109][samuel.datacenter.org][lbas][http://soa.amorc.org.br/painelDeControle.php?corpo=detalheNotificacao&idNotificacaoGlp=6][Chrome]
[15-12-15][13:59:59][192.1.1.109][samuel.datacenter.org][lbas][http://soa.amorc.org.br/painelDeControle.php?corpo=detalheNotificacao&idNotificacaoGlp=6][Chrome]
[15-12-15][14:00:00][192.1.1.109][samuel.datacenter.org][][http://soa.amorc.org.br/login.php?][Chrome]
[15-12-15][14:00:06][192.1.1.109][samuel.datacenter.org][eele][http://soa.amorc.org.br/painelDeControle.php?][Chrome]
[15-12-15][14:00:06][192.1.1.109][samuel.datacenter.org][eele][http://soa.amorc.org.br/painelDeControle.php?][Chrome]
[15-12-15][14:00:07][192.1.1.109][samuel.datacenter.org][eele][http://soa.amorc.org.br/painelDeControle.php?corpo=detalheNotificacao&idNotificacaoGlp=7][Chrome]
[15-12-15][14:00:07][192.1.1.109][samuel.datacenter.org][eele][http://soa.amorc.org.br/painelDeControle.php?corpo=detalheNotificacao&idNotificacaoGlp=7][Chrome]
[15-12-15][14:00:08][192.1.1.109][samuel.datacenter.org][][http://soa.amorc.org.br/login.php?][Chrome]
[15-12-15][14:00:09][192.1.1.109][samuel.datacenter.org][lbas][http://soa.amorc.org.br/painelDeControle.php?][Chrome]
[15-12-15][14:00:09][192.1.1.109][samuel.datacenter.org][lbas][http://soa.amorc.org.br/painelDeControle.php?][Chrome]
[15-12-15][14:00:16][192.1.1.109][samuel.datacenter.org][lbas][http://soa.amorc.org.br/painelDeControle.php?corpo=buscaSaldoInicial][Chrome]
[15-12-15][14:00:16][192.1.1.109][samuel.datacenter.org][lbas][http://soa.amorc.org.br/painelDeControle.php?corpo=buscaSaldoInicial][Chrome]
[15-12-15][14:00:31][192.1.1.109][samuel.datacenter.org][lbas][http://soa.amorc.org.br/painelDeControle.php?corpo=buscaSaldoInicial&salvo=1][Chrome]
[15-12-15][14:00:31][192.1.1.109][samuel.datacenter.org][lbas][http://soa.amorc.org.br/painelDeControle.php?corpo=buscaSaldoInicial&salvo=1][Chrome]
[15-12-15][14:00:34][192.1.1.109][samuel.datacenter.org][lbas][http://soa.amorc.org.br/painelDeControle.php?corpo=buscaRecebimentos][Chrome]
[15-12-15][14:00:36][192.1.1.109][samuel.datacenter.org][lbas][http://soa.amorc.org.br/painelDeControle.php?corpo=buscaRecebimentos&mesAtual=11&anoAtual=2015][Chrome]
[15-12-15][14:00:38][192.1.1.109][samuel.datacenter.org][lbas][http://soa.amorc.org.br/painelDeControle.php?corpo=buscaRecebimentos&mesAtual=01&anoAtual=2015][Chrome]
[15-12-15][14:01:07][192.1.1.109][samuel.datacenter.org][lbas][http://soa.amorc.org.br/painelDeControle.php?corpo=buscaRecebimentos&mesAtual=02&anoAtual=2015][Chrome]
[15-12-15][14:01:11][192.1.1.109][samuel.datacenter.org][lbas][http://soa.amorc.org.br/painelDeControle.php?corpo=buscaDespesas][Chrome]
[15-12-15][14:01:17][192.1.1.109][samuel.datacenter.org][lbas][http://soa.amorc.org.br/painelDeControle.php?corpo=buscaDespesas][Chrome]
[15-12-15][14:01:55][192.1.1.109][samuel.datacenter.org][lbas][http://soa.amorc.org.br/painelDeControle.php?corpo=buscaDespesas][Chrome]
[15-12-15][14:01:57][192.1.1.109][samuel.datacenter.org][lbas][http://soa.amorc.org.br/painelDeControle.php?corpo=buscaRecebimentos][Chrome]
[15-12-15][14:01:58][192.1.1.109][samuel.datacenter.org][lbas][http://soa.amorc.org.br/painelDeControle.php?corpo=buscaRecebimentos&mesAtual=01&anoAtual=2015][Chrome]
[15-12-15][14:01:59][192.1.1.109][samuel.datacenter.org][lbas][http://soa.amorc.org.br/painelDeControle.php?corpo=buscaRecebimentos&mesAtual=02&anoAtual=2015][Chrome]
[15-12-15][14:02:01][192.1.1.109][samuel.datacenter.org][lbas][http://soa.amorc.org.br/painelDeControle.php?corpo=buscaRecebimentos&mesAtual=03&anoAtual=2015][Chrome]
[15-12-15][14:02:03][192.1.1.109][samuel.datacenter.org][lbas][http://soa.amorc.org.br/painelDeControle.php?corpo=buscaDespesas][Chrome]
[15-12-15][14:05:25][192.1.1.109][samuel.datacenter.org][][http://soa.amorc.org.br/login.php?][Chrome]
[15-12-15][14:05:28][192.1.1.109][samuel.datacenter.org][][http://soa.amorc.org.br/login.php?][Chrome]
[15-12-15][14:06:00][192.1.1.109][samuel.datacenter.org][][http://soa.amorc.org.br/login.php?][Chrome]
[15-12-15][14:06:08][192.1.1.143][cpd2.datacenter.org][][http://soa.amorc.org.br/login.php?][Chrome]
[15-12-15][14:06:12][192.1.1.143][cpd2.datacenter.org][samuel.caldas][http://soa.amorc.org.br/painelDeControle.php?][Chrome]
[15-12-15][14:06:12][192.1.1.143][cpd2.datacenter.org][samuel.caldas][http://soa.amorc.org.br/painelDeControle.php?][Chrome]
[15-12-15][14:06:21][192.1.1.143][cpd2.datacenter.org][samuel.caldas][http://soa.amorc.org.br/painelDeControle.php?corpo=buscaSaldoInicial][Chrome]
[15-12-15][14:06:21][192.1.1.143][cpd2.datacenter.org][samuel.caldas][http://soa.amorc.org.br/painelDeControle.php?corpo=buscaSaldoInicial][Chrome]
[15-12-15][14:06:29][192.1.1.143][cpd2.datacenter.org][samuel.caldas][http://soa.amorc.org.br/painelDeControle.php?corpo=buscaRendimentos][Chrome]
[15-12-15][14:06:34][192.1.1.143][cpd2.datacenter.org][samuel.caldas][http://soa.amorc.org.br/painelDeControle.php?corpo=buscaImovel][Chrome]
[15-12-15][14:06:34][192.1.1.143][cpd2.datacenter.org][samuel.caldas][http://soa.amorc.org.br/painelDeControle.php?corpo=buscaImovel][Chrome]
[15-12-15][14:06:47][192.1.1.109][samuel.datacenter.org][][http://soa.amorc.org.br/login.php?][Chrome]
[15-12-15][14:07:53][192.1.1.109][samuel.datacenter.org][][http://soa.amorc.org.br/index.php?][Chrome]
[15-12-15][14:08:38][192.1.1.143][cpd2.datacenter.org][][http://soa.amorc.org.br/login.php?][Chrome]
[15-12-15][14:08:41][192.1.1.143][cpd2.datacenter.org][samuel.caldas][http://soa.amorc.org.br/painelDeControle.php?][Chrome]
[15-12-15][14:08:41][192.1.1.143][cpd2.datacenter.org][samuel.caldas][http://soa.amorc.org.br/painelDeControle.php?][Chrome]
[15-12-15][14:08:53][192.1.1.109][samuel.datacenter.org][][http://soa.amorc.org.br/index.php?][Chrome]
[15-12-15][14:09:53][192.1.1.109][samuel.datacenter.org][][http://soa.amorc.org.br/index.php?][Chrome]
[15-12-15][14:09:58][192.1.1.109][samuel.datacenter.org][][http://soa.amorc.org.br/index.php?][Chrome]
[15-12-15][14:10:02][192.1.1.109][samuel.datacenter.org][samuel.caldas][http://soa.amorc.org.br/painelDeControle.php?][Chrome]
[15-12-15][14:10:02][192.1.1.109][samuel.datacenter.org][samuel.caldas][http://soa.amorc.org.br/painelDeControle.php?][Chrome]
[15-12-15][14:10:06][192.1.1.109][samuel.datacenter.org][samuel.caldas][http://soa.amorc.org.br/painelDeControle.php?corpo=buscaDespesas][Chrome]
[15-12-15][14:10:10][192.1.1.109][samuel.datacenter.org][samuel.caldas][http://soa.amorc.org.br/painelDeControle.php?corpo=BuscaDespesas&mesAtual=11&anoAtual=2015][Chrome]
[15-12-15][14:10:10][192.1.1.109][samuel.datacenter.org][samuel.caldas][http://soa.amorc.org.br/painelDeControle.php?corpo=BuscaDespesas&mesAtual=11&anoAtual=2015][Chrome]
[15-12-15][14:10:17][192.1.1.109][samuel.datacenter.org][samuel.caldas][http://soa.amorc.org.br/painelDeControle.php?corpo=buscaDespesas][Chrome]
[15-12-15][14:10:19][192.1.1.109][samuel.datacenter.org][samuel.caldas][http://soa.amorc.org.br/painelDeControle.php?corpo=BuscaDespesas&mesAtual=01&anoAtual=2016][Chrome]
[15-12-15][14:10:19][192.1.1.109][samuel.datacenter.org][samuel.caldas][http://soa.amorc.org.br/painelDeControle.php?corpo=BuscaDespesas&mesAtual=01&anoAtual=2016][Chrome]
[15-12-15][14:10:23][192.1.1.109][samuel.datacenter.org][samuel.caldas][http://soa.amorc.org.br/painelDeControle.php?corpo=BuscaDespesas&mesAtual=01&anoAtual=2015][Chrome]
[15-12-15][14:10:23][192.1.1.109][samuel.datacenter.org][samuel.caldas][http://soa.amorc.org.br/painelDeControle.php?corpo=BuscaDespesas&mesAtual=01&anoAtual=2015][Chrome]
[15-12-15][14:10:25][192.1.1.109][samuel.datacenter.org][samuel.caldas][http://soa.amorc.org.br/painelDeControle.php?corpo=buscaDespesas][Chrome]
[15-12-15][14:10:29][192.1.1.109][samuel.datacenter.org][samuel.caldas][http://soa.amorc.org.br/painelDeControle.php?corpo=BuscaDespesas&mesAtual=11&anoAtual=2015][Chrome]
[15-12-15][14:10:29][192.1.1.109][samuel.datacenter.org][samuel.caldas][http://soa.amorc.org.br/painelDeControle.php?corpo=BuscaDespesas&mesAtual=11&anoAtual=2015][Chrome]
[15-12-15][14:10:33][192.1.1.109][samuel.datacenter.org][samuel.caldas][http://soa.amorc.org.br/painelDeControle.php?corpo=buscaDespesas][Chrome]
[15-12-15][14:10:34][192.1.1.109][samuel.datacenter.org][samuel.caldas][http://soa.amorc.org.br/painelDeControle.php?corpo=BuscaDespesas&mesAtual=11&anoAtual=2015][Chrome]
[15-12-15][14:10:34][192.1.1.109][samuel.datacenter.org][samuel.caldas][http://soa.amorc.org.br/painelDeControle.php?corpo=BuscaDespesas&mesAtual=11&anoAtual=2015][Chrome]
[15-12-15][14:10:38][192.1.1.109][samuel.datacenter.org][samuel.caldas][http://soa.amorc.org.br/painelDeControle.php?corpo=buscaDespesas][Chrome]
[15-12-15][14:10:42][192.1.1.109][samuel.datacenter.org][samuel.caldas][http://soa.amorc.org.br/painelDeControle.php?corpo=BuscaDespesas&mesAtual=01&anoAtual=2016][Chrome]
[15-12-15][14:10:42][192.1.1.109][samuel.datacenter.org][samuel.caldas][http://soa.amorc.org.br/painelDeControle.php?corpo=BuscaDespesas&mesAtual=01&anoAtual=2016][Chrome]
[15-12-15][14:10:46][192.1.1.109][samuel.datacenter.org][samuel.caldas][http://soa.amorc.org.br/painelDeControle.php?corpo=buscaRecebimentos][Chrome]
[15-12-15][14:10:47][192.1.1.109][samuel.datacenter.org][samuel.caldas][http://soa.amorc.org.br/painelDeControle.php?corpo=buscaRecebimentos&mesAtual=11&anoAtual=2015][Chrome]
[15-12-15][14:10:49][192.1.1.109][samuel.datacenter.org][samuel.caldas][http://soa.amorc.org.br/painelDeControle.php?corpo=buscaDespesas][Chrome]
[15-12-15][14:10:51][192.1.1.109][samuel.datacenter.org][samuel.caldas][http://soa.amorc.org.br/painelDeControle.php?corpo=BuscaDespesas&mesAtual=11&anoAtual=2015][Chrome]
[15-12-15][14:10:51][192.1.1.109][samuel.datacenter.org][samuel.caldas][http://soa.amorc.org.br/painelDeControle.php?corpo=BuscaDespesas&mesAtual=11&anoAtual=2015][Chrome]
[15-12-15][14:10:54][192.1.1.109][samuel.datacenter.org][][http://soa.amorc.org.br/index.php?][Chrome]
[15-12-15][14:11:04][192.1.1.109][samuel.datacenter.org][samuel.caldas][http://soa.amorc.org.br/painelDeControle.php?corpo=buscaRecebimentos][Chrome]
[15-12-15][14:11:05][192.1.1.109][samuel.datacenter.org][samuel.caldas][http://soa.amorc.org.br/painelDeControle.php?corpo=buscaRecebimentos&mesAtual=10&anoAtual=2015][Chrome]
[15-12-15][14:11:09][192.1.1.109][samuel.datacenter.org][samuel.caldas][http://soa.amorc.org.br/painelDeControle.php?corpo=buscaDespesas][Chrome]
[15-12-15][14:11:12][192.1.1.109][samuel.datacenter.org][samuel.caldas][http://soa.amorc.org.br/painelDeControle.php?corpo=BuscaDespesas&mesAtual=11&anoAtual=2015][Chrome]
[15-12-15][14:11:12][192.1.1.109][samuel.datacenter.org][samuel.caldas][http://soa.amorc.org.br/painelDeControle.php?corpo=BuscaDespesas&mesAtual=11&anoAtual=2015][Chrome]
[15-12-15][14:11:17][192.1.1.109][samuel.datacenter.org][samuel.caldas][http://soa.amorc.org.br/painelDeControle.php?corpo=buscaRendimentos][Chrome]
[15-12-15][14:18:41][192.1.1.109][samuel.datacenter.org][samuel.caldas][http://soa.amorc.org.br/painelDeControle.php?corpo=buscaMembrosRosacruzesAtivos][Chrome]
[15-12-15][14:18:43][192.1.1.109][samuel.datacenter.org][samuel.caldas][http://soa.amorc.org.br/painelDeControle.php?corpo=buscaMembrosRosacruzesAtivos&mesAtual=11&anoAtual=2015][Chrome]
[15-12-15][14:18:47][192.1.1.109][samuel.datacenter.org][samuel.caldas][http://soa.amorc.org.br/painelDeControle.php?corpo=buscaMembrosRosacruzesAtivos&mesAtual=01&anoAtual=2015][Chrome]
[15-12-15][14:18:53][192.1.1.109][samuel.datacenter.org][samuel.caldas][http://soa.amorc.org.br/painelDeControle.php?corpo=buscaMembrosRosacruzesAtivos&mesAtual=02&anoAtual=2015][Chrome]
[15-12-15][14:18:58][192.1.1.109][samuel.datacenter.org][samuel.caldas][http://soa.amorc.org.br/painelDeControle.php?corpo=buscaMembrosRosacruzesAtivos&mesAtual=03&anoAtual=2015][Chrome]
[15-12-15][14:19:04][192.1.1.109][samuel.datacenter.org][samuel.caldas][http://soa.amorc.org.br/painelDeControle.php?corpo=buscaDividas][Chrome]
[15-12-15][14:19:19][192.1.1.109][samuel.datacenter.org][samuel.caldas][http://soa.amorc.org.br/painelDeControle.php?corpo=buscaQuitacaoDivida][Chrome]
[15-12-15][14:19:20][192.1.1.109][samuel.datacenter.org][samuel.caldas][http://soa.amorc.org.br/painelDeControle.php?corpo=cadastroQuitacaoDivida][Chrome]
[15-12-15][14:19:20][192.1.1.109][samuel.datacenter.org][samuel.caldas][http://soa.amorc.org.br/painelDeControle.php?corpo=cadastroQuitacaoDivida][Chrome]
[15-12-15][14:19:29][192.1.1.109][samuel.datacenter.org][samuel.caldas][http://soa.amorc.org.br/painelDeControle.php?corpo=buscaQuitacaoDivida&salvo=1][Chrome]
[15-12-15][14:19:34][192.1.1.109][samuel.datacenter.org][samuel.caldas][http://soa.amorc.org.br/painelDeControle.php?corpo=alteraQuitacaoDivida&id=1][Chrome]
[15-12-15][14:19:34][192.1.1.109][samuel.datacenter.org][samuel.caldas][http://soa.amorc.org.br/painelDeControle.php?corpo=alteraQuitacaoDivida&id=1][Chrome]
[15-12-15][14:19:39][192.1.1.109][samuel.datacenter.org][samuel.caldas][http://soa.amorc.org.br/painelDeControle.php?corpo=buscaQuitacaoDivida&salvo=1][Chrome]
[15-12-15][14:19:41][192.1.1.109][samuel.datacenter.org][samuel.caldas][http://soa.amorc.org.br/painelDeControle.php?corpo=alteraQuitacaoDivida&id=1][Chrome]
[15-12-15][14:19:41][192.1.1.109][samuel.datacenter.org][samuel.caldas][http://soa.amorc.org.br/painelDeControle.php?corpo=alteraQuitacaoDivida&id=1][Chrome]
[15-12-15][14:19:44][192.1.1.109][samuel.datacenter.org][samuel.caldas][http://soa.amorc.org.br/painelDeControle.php?corpo=buscaQuitacaoDivida&salvo=1][Chrome]
[15-12-15][14:19:47][192.1.1.109][samuel.datacenter.org][samuel.caldas][http://soa.amorc.org.br/painelDeControle.php?corpo=buscaMensalidadeOA][Chrome]
[15-12-15][14:19:47][192.1.1.109][samuel.datacenter.org][samuel.caldas][http://soa.amorc.org.br/painelDeControle.php?corpo=buscaMensalidadeOA][Chrome]
[15-12-15][14:19:57][192.1.1.109][samuel.datacenter.org][samuel.caldas][http://soa.amorc.org.br/painelDeControle.php?corpo=buscaMembroOA][Chrome]
[15-12-15][14:19:57][192.1.1.109][samuel.datacenter.org][samuel.caldas][http://soa.amorc.org.br/painelDeControle.php?corpo=buscaMembroOA][Chrome]
[15-12-15][14:20:23][192.1.1.109][samuel.datacenter.org][samuel.caldas][http://soa.amorc.org.br/painelDeControle.php?corpo=cadastroMembroOA][Chrome]
[15-12-15][14:20:23][192.1.1.109][samuel.datacenter.org][samuel.caldas][http://soa.amorc.org.br/painelDeControle.php?corpo=cadastroMembroOA][Chrome]
[15-12-15][14:21:38][192.1.1.109][samuel.datacenter.org][samuel.caldas][http://soa.amorc.org.br/painelDeControle.php?corpo=buscaMembroOA&jaCadastrado=1&seqCadastMembroOa=450285][Chrome]
[15-12-15][14:21:38][192.1.1.109][samuel.datacenter.org][samuel.caldas][http://soa.amorc.org.br/painelDeControle.php?corpo=buscaMembroOA&jaCadastrado=1&seqCadastMembroOa=450285][Chrome]
[15-12-15][14:21:43][192.1.1.109][samuel.datacenter.org][samuel.caldas][http://soa.amorc.org.br/painelDeControle.php?corpo=cadastroMembroOA][Chrome]
[15-12-15][14:21:43][192.1.1.109][samuel.datacenter.org][samuel.caldas][http://soa.amorc.org.br/painelDeControle.php?corpo=cadastroMembroOA][Chrome]
[15-12-15][14:21:50][192.1.1.109][samuel.datacenter.org][samuel.caldas][http://soa.amorc.org.br/painelDeControle.php?corpo=buscaMembroOA&jaCadastrado=1&seqCadastMembroOa=144343][Chrome]
[15-12-15][14:21:50][192.1.1.109][samuel.datacenter.org][samuel.caldas][http://soa.amorc.org.br/painelDeControle.php?corpo=buscaMembroOA&jaCadastrado=1&seqCadastMembroOa=144343][Chrome]
[15-12-15][14:21:59][192.1.1.109][samuel.datacenter.org][samuel.caldas][http://soa.amorc.org.br/painelDeControle.php?corpo=buscaMembroOA][Chrome]
[15-12-15][14:21:59][192.1.1.109][samuel.datacenter.org][samuel.caldas][http://soa.amorc.org.br/painelDeControle.php?corpo=buscaMembroOA][Chrome]
[15-12-15][14:23:18][192.1.1.109][samuel.datacenter.org][samuel.caldas][http://soa.amorc.org.br/painelDeControle.php?corpo=buscaTransferenciaMembro][Chrome]
[15-12-15][14:23:18][192.1.1.109][samuel.datacenter.org][samuel.caldas][http://soa.amorc.org.br/painelDeControle.php?corpo=buscaTransferenciaMembro][Chrome]
[15-12-15][14:23:20][192.1.1.109][samuel.datacenter.org][samuel.caldas][http://soa.amorc.org.br/painelDeControle.php?corpo=transferirMembro&seqCadastMembro=144343&nome=RUDY%20KLASS&codigoAfiliacao=225010&origem=6&siglaOAOrigem=RS103][Chrome]
[15-12-15][14:23:20][192.1.1.109][samuel.datacenter.org][samuel.caldas][http://soa.amorc.org.br/painelDeControle.php?corpo=transferirMembro&seqCadastMembro=144343&nome=RUDY%20KLASS&codigoAfiliacao=225010&origem=6&siglaOAOrigem=RS103][Chrome]
[15-12-15][14:23:28][192.1.1.109][samuel.datacenter.org][samuel.caldas][http://soa.amorc.org.br/painelDeControle.php?corpo=listaMembrosTransferidos&salvo=1][Chrome]
[15-12-15][14:23:28][192.1.1.109][samuel.datacenter.org][samuel.caldas][http://soa.amorc.org.br/painelDeControle.php?corpo=listaMembrosTransferidos&salvo=1][Chrome]
[15-12-15][14:23:33][192.1.1.109][samuel.datacenter.org][samuel.caldas][http://soa.amorc.org.br/painelDeControle.php?][Chrome]
[15-12-15][14:23:33][192.1.1.109][samuel.datacenter.org][samuel.caldas][http://soa.amorc.org.br/painelDeControle.php?][Chrome]
[15-12-15][14:23:37][192.1.1.109][samuel.datacenter.org][samuel.caldas][http://soa.amorc.org.br/painelDeControle.php?corpo=][Chrome]
[15-12-15][14:23:37][192.1.1.109][samuel.datacenter.org][samuel.caldas][http://soa.amorc.org.br/painelDeControle.php?corpo=][Chrome]
[15-12-15][14:23:46][192.1.1.109][samuel.datacenter.org][samuel.caldas][http://soa.amorc.org.br/painelDeControle.php?corpo=buscaMembrosRosacruzesAtivos][Chrome]
[15-12-15][14:23:49][192.1.1.109][samuel.datacenter.org][samuel.caldas][http://soa.amorc.org.br/painelDeControle.php?corpo=buscaMensalidadeOA][Chrome]
[15-12-15][14:23:49][192.1.1.109][samuel.datacenter.org][samuel.caldas][http://soa.amorc.org.br/painelDeControle.php?corpo=buscaMensalidadeOA][Chrome]
[15-12-15][14:24:10][192.1.1.109][samuel.datacenter.org][samuel.caldas][http://soa.amorc.org.br/painelDeControle.php?corpo=buscaIsencaoOA][Chrome]
[15-12-15][14:24:10][192.1.1.109][samuel.datacenter.org][samuel.caldas][http://soa.amorc.org.br/painelDeControle.php?corpo=buscaIsencaoOA][Chrome]
[15-12-15][14:24:11][192.1.1.109][samuel.datacenter.org][samuel.caldas][http://soa.amorc.org.br/painelDeControle.php?corpo=cadastroIsencaoOA][Chrome]
[15-12-15][14:24:11][192.1.1.109][samuel.datacenter.org][samuel.caldas][http://soa.amorc.org.br/painelDeControle.php?corpo=cadastroIsencaoOA][Chrome]
[15-12-15][14:24:28][192.1.1.109][samuel.datacenter.org][samuel.caldas][http://soa.amorc.org.br/painelDeControle.php?corpo=buscaIsencaoOA&salvo=1][Chrome]
[15-12-15][14:24:28][192.1.1.109][samuel.datacenter.org][samuel.caldas][http://soa.amorc.org.br/painelDeControle.php?corpo=buscaIsencaoOA&salvo=1][Chrome]
[15-12-15][14:24:32][192.1.1.109][samuel.datacenter.org][samuel.caldas][http://soa.amorc.org.br/painelDeControle.php?corpo=buscaIsencaoOA&excluido=1][Chrome]
[15-12-15][14:24:32][192.1.1.109][samuel.datacenter.org][samuel.caldas][http://soa.amorc.org.br/painelDeControle.php?corpo=buscaIsencaoOA&excluido=1][Chrome]
[15-12-15][14:24:35][192.1.1.109][samuel.datacenter.org][samuel.caldas][http://soa.amorc.org.br/painelDeControle.php?corpo=buscaRelatorioMensalFinanceiro][Chrome]
[15-12-15][14:24:37][192.1.1.109][samuel.datacenter.org][samuel.caldas][http://soa.amorc.org.br/painelDeControle.php?corpo=buscaRelatorioMensalFinanceiro&mesAtual=11&anoAtual=2015][Chrome]
[15-12-15][14:24:41][192.1.1.109][samuel.datacenter.org][samuel.caldas][http://soa.amorc.org.br/painelDeControle.php?corpo=buscaRelatorioMensalFinanceiro&mesAtual=01&anoAtual=2015][Chrome]
[15-12-15][14:24:48][192.1.1.109][samuel.datacenter.org][samuel.caldas][http://soa.amorc.org.br/painelDeControle.php?corpo=buscaRecebimentos][Chrome]
[15-12-15][14:24:49][192.1.1.109][samuel.datacenter.org][samuel.caldas][http://soa.amorc.org.br/painelDeControle.php?corpo=buscaRecebimentos&mesAtual=09&anoAtual=2015][Chrome]
[15-12-15][14:24:51][192.1.1.109][samuel.datacenter.org][samuel.caldas][http://soa.amorc.org.br/painelDeControle.php?corpo=buscaRecebimentos&mesAtual=01&anoAtual=2015][Chrome]
[15-12-15][14:25:05][192.1.1.109][samuel.datacenter.org][samuel.caldas][http://soa.amorc.org.br/painelDeControle.php?corpo=buscaDespesas][Chrome]
[15-12-15][14:25:07][192.1.1.109][samuel.datacenter.org][samuel.caldas][http://soa.amorc.org.br/painelDeControle.php?corpo=BuscaDespesas&mesAtual=11&anoAtual=2015][Chrome]
[15-12-15][14:25:07][192.1.1.109][samuel.datacenter.org][samuel.caldas][http://soa.amorc.org.br/painelDeControle.php?corpo=BuscaDespesas&mesAtual=11&anoAtual=2015][Chrome]
[15-12-15][14:25:10][192.1.1.109][samuel.datacenter.org][samuel.caldas][http://soa.amorc.org.br/painelDeControle.php?corpo=buscaRendimentos][Chrome]
[15-12-15][14:25:11][192.1.1.109][samuel.datacenter.org][samuel.caldas][http://soa.amorc.org.br/painelDeControle.php?corpo=BuscaRendimentos&mesAtual=11&anoAtual=2015][Chrome]
[15-12-15][14:25:11][192.1.1.109][samuel.datacenter.org][samuel.caldas][http://soa.amorc.org.br/painelDeControle.php?corpo=BuscaRendimentos&mesAtual=11&anoAtual=2015][Chrome]
[15-12-15][14:25:13][192.1.1.109][samuel.datacenter.org][samuel.caldas][http://soa.amorc.org.br/painelDeControle.php?corpo=BuscaRendimentos&mesAtual=01&anoAtual=2015][Chrome]
[15-12-15][14:25:13][192.1.1.109][samuel.datacenter.org][samuel.caldas][http://soa.amorc.org.br/painelDeControle.php?corpo=BuscaRendimentos&mesAtual=01&anoAtual=2015][Chrome]
[15-12-15][14:25:16][192.1.1.109][samuel.datacenter.org][samuel.caldas][http://soa.amorc.org.br/painelDeControle.php?corpo=buscaRendimentos][Chrome]
[15-12-15][14:25:19][192.1.1.109][samuel.datacenter.org][samuel.caldas][http://soa.amorc.org.br/painelDeControle.php?corpo=buscaRendimentos][Chrome]
[15-12-15][14:25:20][192.1.1.109][samuel.datacenter.org][samuel.caldas][http://soa.amorc.org.br/painelDeControle.php?corpo=buscaRendimentos][Chrome]
[15-12-15][14:25:21][192.1.1.109][samuel.datacenter.org][samuel.caldas][http://soa.amorc.org.br/painelDeControle.php?corpo=buscaDespesas][Chrome]
[15-12-15][14:25:23][192.1.1.109][samuel.datacenter.org][samuel.caldas][http://soa.amorc.org.br/painelDeControle.php?corpo=BuscaDespesas&mesAtual=11&anoAtual=2015][Chrome]
[15-12-15][14:25:23][192.1.1.109][samuel.datacenter.org][samuel.caldas][http://soa.amorc.org.br/painelDeControle.php?corpo=BuscaDespesas&mesAtual=11&anoAtual=2015][Chrome]
[15-12-15][14:25:25][192.1.1.109][samuel.datacenter.org][samuel.caldas][http://soa.amorc.org.br/painelDeControle.php?corpo=buscaRendimentos][Chrome]
[15-12-15][14:25:38][192.1.1.109][samuel.datacenter.org][samuel.caldas][http://soa.amorc.org.br/painelDeControle.php?corpo=BuscaRendimentos&mesAtual=11&anoAtual=2015][Chrome]
[15-12-15][14:25:38][192.1.1.109][samuel.datacenter.org][samuel.caldas][http://soa.amorc.org.br/painelDeControle.php?corpo=BuscaRendimentos&mesAtual=11&anoAtual=2015][Chrome]
[15-12-15][14:25:41][192.1.1.109][samuel.datacenter.org][samuel.caldas][http://soa.amorc.org.br/painelDeControle.php?corpo=BuscaRendimentos&mesAtual=01&anoAtual=2015][Chrome]
[15-12-15][14:25:41][192.1.1.109][samuel.datacenter.org][samuel.caldas][http://soa.amorc.org.br/painelDeControle.php?corpo=BuscaRendimentos&mesAtual=01&anoAtual=2015][Chrome]
[15-12-15][14:25:43][192.1.1.109][samuel.datacenter.org][samuel.caldas][http://soa.amorc.org.br/painelDeControle.php?corpo=buscaMembrosRosacruzesAtivos][Chrome]
[15-12-15][14:25:45][192.1.1.109][samuel.datacenter.org][samuel.caldas][http://soa.amorc.org.br/painelDeControle.php?corpo=buscaMembrosRosacruzesAtivos&mesAtual=02&anoAtual=2015][Chrome]
[15-12-15][14:25:49][192.1.1.109][samuel.datacenter.org][samuel.caldas][http://soa.amorc.org.br/painelDeControle.php?corpo=buscaDividas][Chrome]
[15-12-15][14:27:47][192.1.1.109][samuel.datacenter.org][samuel.caldas][http://soa.amorc.org.br/painelDeControle.php?corpo=buscaRelatorioMensalFinanceiro][Chrome]
[15-12-15][14:27:48][192.1.1.109][samuel.datacenter.org][samuel.caldas][http://soa.amorc.org.br/painelDeControle.php?corpo=buscaRelatorioMensalFinanceiro&mesAtual=12&anoAtual=2014][Chrome]
[15-12-15][14:27:50][192.1.1.109][samuel.datacenter.org][samuel.caldas][http://soa.amorc.org.br/painelDeControle.php?corpo=buscaRelatorioMensalFinanceiro&mesAtual=01&anoAtual=2015][Chrome]
[15-12-15][14:27:54][192.1.1.109][samuel.datacenter.org][samuel.caldas][http://soa.amorc.org.br/painelDeControle.php?corpo=buscaDespesas][Chrome]
[15-12-15][14:27:55][192.1.1.109][samuel.datacenter.org][samuel.caldas][http://soa.amorc.org.br/painelDeControle.php?corpo=BuscaDespesas&mesAtual=11&anoAtual=2015][Chrome]
[15-12-15][14:27:55][192.1.1.109][samuel.datacenter.org][samuel.caldas][http://soa.amorc.org.br/painelDeControle.php?corpo=BuscaDespesas&mesAtual=11&anoAtual=2015][Chrome]
[15-12-15][14:27:59][192.1.1.109][samuel.datacenter.org][samuel.caldas][http://soa.amorc.org.br/painelDeControle.php?corpo=buscaDespesas][Chrome]
[15-12-15][14:28:16][192.1.1.109][samuel.datacenter.org][samuel.caldas][http://soa.amorc.org.br/painelDeControle.php?corpo=buscaRendimentos][Chrome]
[15-12-15][14:28:27][192.1.1.109][samuel.datacenter.org][samuel.caldas][http://soa.amorc.org.br/painelDeControle.php?corpo=buscaRelatorioMensalFinanceiro][Chrome]
[15-12-15][14:29:01][192.1.1.109][samuel.datacenter.org][samuel.caldas][http://soa.amorc.org.br/painelDeControle.php?corpo=buscaRelatorioMensalFinanceiro][Chrome]
[15-12-15][14:29:21][192.1.1.109][samuel.datacenter.org][samuel.caldas][http://soa.amorc.org.br/painelDeControle.php?corpo=buscaControleFinanceiroMensal][Chrome]
[15-12-15][14:29:21][192.1.1.109][samuel.datacenter.org][samuel.caldas][http://soa.amorc.org.br/painelDeControle.php?corpo=buscaControleFinanceiroMensal][Chrome]
[15-12-15][14:29:24][192.1.1.109][samuel.datacenter.org][samuel.caldas][http://soa.amorc.org.br/painelDeControle.php?corpo=buscaControleFinanceiroMensalComFiltro&idOrganismoAfiliado=1][Chrome]
[15-12-15][14:29:24][192.1.1.109][samuel.datacenter.org][samuel.caldas][http://soa.amorc.org.br/painelDeControle.php?corpo=buscaControleFinanceiroMensalComFiltro&idOrganismoAfiliado=1][Chrome]
[15-12-15][14:29:32][192.1.1.109][samuel.datacenter.org][samuel.caldas][http://soa.amorc.org.br/painelDeControle.php?corpo=buscaRelatorioMensalFinanceiro][Chrome]
[15-12-15][14:29:38][192.1.1.109][samuel.datacenter.org][samuel.caldas][http://soa.amorc.org.br/painelDeControle.php?corpo=buscaRelatorioMensalFinanceiro][Chrome]
[15-12-15][14:29:45][192.1.1.109][samuel.datacenter.org][samuel.caldas][http://soa.amorc.org.br/painelDeControle.php?corpo=buscaControleFinanceiroMensal][Chrome]
[15-12-15][14:29:45][192.1.1.109][samuel.datacenter.org][samuel.caldas][http://soa.amorc.org.br/painelDeControle.php?corpo=buscaControleFinanceiroMensal][Chrome]
[15-12-15][14:29:49][192.1.1.109][samuel.datacenter.org][samuel.caldas][http://soa.amorc.org.br/painelDeControle.php?corpo=buscaControleFinanceiroMensalComFiltro&idOrganismoAfiliado=36][Chrome]
[15-12-15][14:29:49][192.1.1.109][samuel.datacenter.org][samuel.caldas][http://soa.amorc.org.br/painelDeControle.php?corpo=buscaControleFinanceiroMensalComFiltro&idOrganismoAfiliado=36][Chrome]
[15-12-15][14:31:15][192.1.1.109][samuel.datacenter.org][samuel.caldas][http://soa.amorc.org.br/painelDeControle.php?corpo=buscaExtratoFinanceiro][Chrome]
[15-12-15][14:31:15][192.1.1.109][samuel.datacenter.org][samuel.caldas][http://soa.amorc.org.br/painelDeControle.php?corpo=buscaExtratoFinanceiro][Chrome]
[15-12-15][14:31:25][192.1.1.109][samuel.datacenter.org][samuel.caldas][http://soa.amorc.org.br/painelDeControle.php?corpo=buscaTrimestralidadeGLP][Chrome]
[15-12-15][14:31:25][192.1.1.109][samuel.datacenter.org][samuel.caldas][http://soa.amorc.org.br/painelDeControle.php?corpo=buscaTrimestralidadeGLP][Chrome]
[15-12-15][14:31:27][192.1.1.109][samuel.datacenter.org][samuel.caldas][http://soa.amorc.org.br/painelDeControle.php?corpo=buscaCartaConstitutiva][Chrome]
[15-12-15][14:31:27][192.1.1.109][samuel.datacenter.org][samuel.caldas][http://soa.amorc.org.br/painelDeControle.php?corpo=buscaCartaConstitutiva][Chrome]
[15-12-15][14:31:29][192.1.1.109][samuel.datacenter.org][samuel.caldas][http://soa.amorc.org.br/painelDeControle.php?corpo=buscaGerarBoletoContribuicao][Chrome]
[15-12-15][14:33:26][192.1.1.109][samuel.datacenter.org][samuel.caldas][http://soa.amorc.org.br/index.php?][Chrome]
[15-12-15][14:33:29][192.1.1.143][cpd2.datacenter.org][samuel.caldas][http://soa.amorc.org.br/index.php?][Chrome]
[15-12-15][14:36:54][192.1.1.109][samuel.datacenter.org][samuel.caldas][http://soa.amorc.org.br/painelDeControle.php?][Chrome]
[15-12-15][14:36:54][192.1.1.109][samuel.datacenter.org][samuel.caldas][http://soa.amorc.org.br/painelDeControle.php?][Chrome]
[15-12-15][14:37:00][192.1.1.109][samuel.datacenter.org][samuel.caldas][http://soa.amorc.org.br/painelDeControle.php?corpo=buscaControleFinanceiroMensal][Chrome]
[15-12-15][14:37:00][192.1.1.109][samuel.datacenter.org][samuel.caldas][http://soa.amorc.org.br/painelDeControle.php?corpo=buscaControleFinanceiroMensal][Chrome]
[15-12-15][14:37:04][192.1.1.109][samuel.datacenter.org][samuel.caldas][http://soa.amorc.org.br/painelDeControle.php?corpo=buscaControleFinanceiroMensalComFiltro&idOrganismoAfiliado=1][Chrome]
[15-12-15][14:37:04][192.1.1.109][samuel.datacenter.org][samuel.caldas][http://soa.amorc.org.br/painelDeControle.php?corpo=buscaControleFinanceiroMensalComFiltro&idOrganismoAfiliado=1][Chrome]
[15-12-15][14:37:50][192.1.1.109][samuel.datacenter.org][samuel.caldas][http://soa.amorc.org.br/painelDeControle.php?corpo=buscaImovel][Chrome]
[15-12-15][14:37:50][192.1.1.109][samuel.datacenter.org][samuel.caldas][http://soa.amorc.org.br/painelDeControle.php?corpo=buscaImovel][Chrome]
[15-12-15][14:37:52][192.1.1.109][samuel.datacenter.org][samuel.caldas][http://soa.amorc.org.br/painelDeControle.php?corpo=cadastroImovel][Chrome]
[15-12-15][14:37:52][192.1.1.109][samuel.datacenter.org][samuel.caldas][http://soa.amorc.org.br/painelDeControle.php?corpo=cadastroImovel][Chrome]
[15-12-15][14:37:56][192.1.1.109][samuel.datacenter.org][samuel.caldas][http://soa.amorc.org.br/painelDeControle.php?][Chrome]
[15-12-15][14:37:56][192.1.1.109][samuel.datacenter.org][samuel.caldas][http://soa.amorc.org.br/painelDeControle.php?][Chrome]
[15-12-15][14:38:04][192.1.1.109][samuel.datacenter.org][samuel.caldas][http://soa.amorc.org.br/painelDeControle.php?corpo=buscaGerarBoletoContribuicao][Chrome]
[15-12-15][14:38:57][192.1.1.109][samuel.datacenter.org][samuel.caldas][http://soa.amorc.org.br/painelDeControle.php?corpo=buscaLivroRegiao][Chrome]
[15-12-15][14:38:57][192.1.1.109][samuel.datacenter.org][samuel.caldas][http://soa.amorc.org.br/painelDeControle.php?corpo=buscaLivroRegiao][Chrome]
[15-12-15][14:39:01][192.1.1.109][samuel.datacenter.org][samuel.caldas][http://soa.amorc.org.br/painelDeControle.php?corpo=buscaMembroOA][Chrome]
[15-12-15][14:39:01][192.1.1.109][samuel.datacenter.org][samuel.caldas][http://soa.amorc.org.br/painelDeControle.php?corpo=buscaMembroOA][Chrome]
[15-12-15][14:39:08][192.1.1.109][samuel.datacenter.org][samuel.caldas][http://soa.amorc.org.br/painelDeControle.php?corpo=buscaOrganismo][Chrome]
[15-12-15][14:39:08][192.1.1.109][samuel.datacenter.org][samuel.caldas][http://soa.amorc.org.br/painelDeControle.php?corpo=buscaOrganismo][Chrome]
[15-12-15][14:39:12][192.1.1.109][samuel.datacenter.org][samuel.caldas][http://soa.amorc.org.br/painelDeControle.php?corpo=buscaOficial][Chrome]
[15-12-15][14:39:12][192.1.1.109][samuel.datacenter.org][samuel.caldas][http://soa.amorc.org.br/painelDeControle.php?corpo=buscaOficial][Chrome]
[15-12-15][14:39:15][192.1.1.109][samuel.datacenter.org][samuel.caldas][http://soa.amorc.org.br/painelDeControle.php?corpo=buscaOficial&listarAtuantes=1][Chrome]
[15-12-15][14:39:15][192.1.1.109][samuel.datacenter.org][samuel.caldas][http://soa.amorc.org.br/painelDeControle.php?corpo=buscaOficial&listarAtuantes=1][Chrome]
[15-12-15][14:39:21][192.1.1.109][samuel.datacenter.org][samuel.caldas][http://soa.amorc.org.br/painelDeControle.php?corpo=buscaOficial&listarMonitoresAtuantes=1][Chrome]
[15-12-15][14:39:21][192.1.1.109][samuel.datacenter.org][samuel.caldas][http://soa.amorc.org.br/painelDeControle.php?corpo=buscaOficial&listarMonitoresAtuantes=1][Chrome]
[15-12-15][14:39:23][192.1.1.109][samuel.datacenter.org][samuel.caldas][http://soa.amorc.org.br/painelDeControle.php?corpo=buscaOficial&listarGrandesConselheirosAtuantes=1][Chrome]
[15-12-15][14:39:23][192.1.1.109][samuel.datacenter.org][samuel.caldas][http://soa.amorc.org.br/painelDeControle.php?corpo=buscaOficial&listarGrandesConselheirosAtuantes=1][Chrome]
[15-12-15][14:39:26][192.1.1.109][samuel.datacenter.org][samuel.caldas][http://soa.amorc.org.br/painelDeControle.php?corpo=atualizaQuadroOficiais][Chrome]
[15-12-15][14:39:26][192.1.1.109][samuel.datacenter.org][samuel.caldas][http://soa.amorc.org.br/painelDeControle.php?corpo=atualizaQuadroOficiais][Chrome]
[15-12-15][14:39:43][192.1.1.109][samuel.datacenter.org][samuel.caldas][http://soa.amorc.org.br/painelDeControle.php?corpo=buscaOficial&salvo=1][Chrome]
[15-12-15][14:39:43][192.1.1.109][samuel.datacenter.org][samuel.caldas][http://soa.amorc.org.br/painelDeControle.php?corpo=buscaOficial&salvo=1][Chrome]
[15-12-15][14:39:58][192.1.1.109][samuel.datacenter.org][samuel.caldas][http://soa.amorc.org.br/painelDeControle.php?corpo=buscaOficial][Chrome]
[15-12-15][14:39:58][192.1.1.109][samuel.datacenter.org][samuel.caldas][http://soa.amorc.org.br/painelDeControle.php?corpo=buscaOficial][Chrome]
[15-12-15][14:40:10][192.1.1.109][samuel.datacenter.org][samuel.caldas][http://soa.amorc.org.br/painelDeControle.php?corpo=buscaOficial&listarAtuantes=1][Chrome]
[15-12-15][14:40:10][192.1.1.109][samuel.datacenter.org][samuel.caldas][http://soa.amorc.org.br/painelDeControle.php?corpo=buscaOficial&listarAtuantes=1][Chrome]
[15-12-15][14:40:14][192.1.1.109][samuel.datacenter.org][samuel.caldas][http://soa.amorc.org.br/painelDeControle.php?corpo=atualizaQuadroOficiais][Chrome]
[15-12-15][14:40:14][192.1.1.109][samuel.datacenter.org][samuel.caldas][http://soa.amorc.org.br/painelDeControle.php?corpo=atualizaQuadroOficiais][Chrome]
[15-12-15][14:40:29][192.1.1.109][samuel.datacenter.org][samuel.caldas][http://soa.amorc.org.br/painelDeControle.php?corpo=buscaOficial&salvo=1][Chrome]
[15-12-15][14:40:29][192.1.1.109][samuel.datacenter.org][samuel.caldas][http://soa.amorc.org.br/painelDeControle.php?corpo=buscaOficial&salvo=1][Chrome]
[15-12-15][14:41:20][192.1.1.109][samuel.datacenter.org][samuel.caldas][http://soa.amorc.org.br/painelDeControle.php?corpo=atualizaQuadroOficiais][Chrome]
[15-12-15][14:41:20][192.1.1.109][samuel.datacenter.org][samuel.caldas][http://soa.amorc.org.br/painelDeControle.php?corpo=atualizaQuadroOficiais][Chrome]
[15-12-15][14:41:37][192.1.1.109][samuel.datacenter.org][samuel.caldas][http://soa.amorc.org.br/painelDeControle.php?corpo=buscaOficial&salvo=1][Chrome]
[15-12-15][14:41:37][192.1.1.109][samuel.datacenter.org][samuel.caldas][http://soa.amorc.org.br/painelDeControle.php?corpo=buscaOficial&salvo=1][Chrome]
[15-12-15][14:41:54][192.1.1.109][samuel.datacenter.org][][http://soa.amorc.org.br/login.php?][Chrome]
[15-12-15][14:41:59][192.1.1.109][samuel.datacenter.org][][http://soa.amorc.org.br/login.php?][Chrome]
[15-12-15][14:42:02][192.1.1.109][samuel.datacenter.org][][http://soa.amorc.org.br/login.php?][Chrome]
[15-12-15][14:43:04][192.1.1.109][samuel.datacenter.org][][http://soa.amorc.org.br/index.php?][Chrome]
[15-12-15][14:44:04][192.1.1.109][samuel.datacenter.org][][http://soa.amorc.org.br/index.php?][Chrome]
[15-12-15][14:45:05][192.1.1.109][samuel.datacenter.org][][http://soa.amorc.org.br/index.php?][Chrome]
[15-12-15][14:49:38][192.1.1.109][samuel.datacenter.org][samuel.caldas][http://soa.amorc.org.br/painelDeControle.php?][Chrome]
[15-12-15][14:49:38][192.1.1.109][samuel.datacenter.org][samuel.caldas][http://soa.amorc.org.br/painelDeControle.php?][Chrome]
[15-12-15][14:56:58][192.1.1.109][samuel.datacenter.org][samuel.caldas][http://soa.amorc.org.br/painelDeControle.php?corpo=buscaTermoVoluntariado][Chrome]
[15-12-15][14:56:58][192.1.1.109][samuel.datacenter.org][samuel.caldas][http://soa.amorc.org.br/painelDeControle.php?corpo=buscaTermoVoluntariado][Chrome]
[15-12-15][14:57:00][192.1.1.109][samuel.datacenter.org][samuel.caldas][http://soa.amorc.org.br/painelDeControle.php?corpo=cadastroTermoVoluntariado][Chrome]
[15-12-15][14:57:00][192.1.1.109][samuel.datacenter.org][samuel.caldas][http://soa.amorc.org.br/painelDeControle.php?corpo=cadastroTermoVoluntariado][Chrome]
[15-12-15][15:00:01][192.1.1.109][samuel.datacenter.org][samuel.caldas][http://soa.amorc.org.br/painelDeControle.php?corpo=buscaTermoVoluntariado&salvo=1][Chrome]
[15-12-15][15:00:01][192.1.1.109][samuel.datacenter.org][samuel.caldas][http://soa.amorc.org.br/painelDeControle.php?corpo=buscaTermoVoluntariado&salvo=1][Chrome]
[15-12-15][15:00:50][192.1.1.109][samuel.datacenter.org][samuel.caldas][http://soa.amorc.org.br/painelDeControle.php?corpo=alteraTermoVoluntariado&idtermo_voluntariado=1][Chrome]
[15-12-15][15:00:50][192.1.1.109][samuel.datacenter.org][samuel.caldas][http://soa.amorc.org.br/painelDeControle.php?corpo=alteraTermoVoluntariado&idtermo_voluntariado=1][Chrome]
[15-12-15][15:01:01][192.1.1.109][samuel.datacenter.org][samuel.caldas][http://soa.amorc.org.br/painelDeControle.php?corpo=buscaTermoVoluntariado&salvo=1][Chrome]
[15-12-15][15:01:01][192.1.1.109][samuel.datacenter.org][samuel.caldas][http://soa.amorc.org.br/painelDeControle.php?corpo=buscaTermoVoluntariado&salvo=1][Chrome]
[15-12-15][15:01:07][192.1.1.109][samuel.datacenter.org][samuel.caldas][http://soa.amorc.org.br/painelDeControle.php?corpo=alteraTermoVoluntariado&idtermo_voluntariado=1][Chrome]
[15-12-15][15:01:07][192.1.1.109][samuel.datacenter.org][samuel.caldas][http://soa.amorc.org.br/painelDeControle.php?corpo=alteraTermoVoluntariado&idtermo_voluntariado=1][Chrome]
[15-12-15][15:01:17][192.1.1.109][samuel.datacenter.org][samuel.caldas][http://soa.amorc.org.br/painelDeControle.php?corpo=buscaTermoVoluntariado][Chrome]
[15-12-15][15:01:17][192.1.1.109][samuel.datacenter.org][samuel.caldas][http://soa.amorc.org.br/painelDeControle.php?corpo=buscaTermoVoluntariado][Chrome]
[15-12-15][15:01:35][192.1.1.109][samuel.datacenter.org][samuel.caldas][http://soa.amorc.org.br/painelDeControle.php?corpo=buscaTermoVoluntariado][Chrome]
[15-12-15][15:01:35][192.1.1.109][samuel.datacenter.org][samuel.caldas][http://soa.amorc.org.br/painelDeControle.php?corpo=buscaTermoVoluntariado][Chrome]
[15-12-15][15:02:42][192.1.1.109][samuel.datacenter.org][samuel.caldas][http://soa.amorc.org.br/painelDeControle.php?corpo=buscaTermoVoluntariado][Chrome]
[15-12-15][15:02:42][192.1.1.109][samuel.datacenter.org][samuel.caldas][http://soa.amorc.org.br/painelDeControle.php?corpo=buscaTermoVoluntariado][Chrome]
[15-12-15][15:03:06][192.1.1.109][samuel.datacenter.org][samuel.caldas][http://soa.amorc.org.br/painelDeControle.php?corpo=buscaTermoVoluntariado][Chrome]
[15-12-15][15:03:06][192.1.1.109][samuel.datacenter.org][samuel.caldas][http://soa.amorc.org.br/painelDeControle.php?corpo=buscaTermoVoluntariado][Chrome]
[15-12-15][15:03:11][192.1.1.109][samuel.datacenter.org][samuel.caldas][http://soa.amorc.org.br/painelDeControle.php?corpo=buscaTermoVoluntariado][Chrome]
[15-12-15][15:03:11][192.1.1.109][samuel.datacenter.org][samuel.caldas][http://soa.amorc.org.br/painelDeControle.php?corpo=buscaTermoVoluntariado][Chrome]
[15-12-15][15:04:15][192.1.1.109][samuel.datacenter.org][samuel.caldas][http://soa.amorc.org.br/painelDeControle.php?corpo=buscaTermoVoluntariado][Chrome]
[15-12-15][15:04:15][192.1.1.109][samuel.datacenter.org][samuel.caldas][http://soa.amorc.org.br/painelDeControle.php?corpo=buscaTermoVoluntariado][Chrome]
[15-12-15][15:04:21][192.1.1.109][samuel.datacenter.org][samuel.caldas][http://soa.amorc.org.br/painelDeControle.php?corpo=buscaTermoVoluntariado][Chrome]
[15-12-15][15:04:21][192.1.1.109][samuel.datacenter.org][samuel.caldas][http://soa.amorc.org.br/painelDeControle.php?corpo=buscaTermoVoluntariado][Chrome]
[15-12-15][15:06:28][192.1.1.109][samuel.datacenter.org][samuel.caldas][http://soa.amorc.org.br/painelDeControle.php?corpo=buscaControleFinanceiroMensal][Chrome]
[15-12-15][15:06:28][192.1.1.109][samuel.datacenter.org][samuel.caldas][http://soa.amorc.org.br/painelDeControle.php?corpo=buscaControleFinanceiroMensal][Chrome]
[15-12-15][15:06:50][192.1.1.109][samuel.datacenter.org][samuel.caldas][http://soa.amorc.org.br/painelDeControle.php?][Chrome]
[15-12-15][15:06:50][192.1.1.109][samuel.datacenter.org][samuel.caldas][http://soa.amorc.org.br/painelDeControle.php?][Chrome]
[15-12-15][15:07:08][192.1.1.109][samuel.datacenter.org][samuel.caldas][http://soa.amorc.org.br/painelDeControle.php?corpo=buscaTermoVoluntariado][Chrome]
[15-12-15][15:07:08][192.1.1.109][samuel.datacenter.org][samuel.caldas][http://soa.amorc.org.br/painelDeControle.php?corpo=buscaTermoVoluntariado][Chrome]
[15-12-15][15:07:14][192.1.1.109][samuel.datacenter.org][samuel.caldas][http://soa.amorc.org.br/painelDeControle.php?corpo=buscaTermoVoluntariado][Chrome]
[15-12-15][15:07:14][192.1.1.109][samuel.datacenter.org][samuel.caldas][http://soa.amorc.org.br/painelDeControle.php?corpo=buscaTermoVoluntariado][Chrome]
[15-12-15][15:07:43][192.1.1.109][samuel.datacenter.org][samuel.caldas][http://soa.amorc.org.br/painelDeControle.php?corpo=buscaAtualizarFuncao][Chrome]
[15-12-15][15:07:43][192.1.1.109][samuel.datacenter.org][samuel.caldas][http://soa.amorc.org.br/painelDeControle.php?corpo=buscaAtualizarFuncao][Chrome]
[15-12-15][15:07:54][192.1.1.109][samuel.datacenter.org][samuel.caldas][http://soa.amorc.org.br/painelDeControle.php?corpo=buscaAtualizarFuncao&sigla=AM101&idOrganismoAfiliado=36&siglaPais=1][Chrome]
[15-12-15][15:07:54][192.1.1.109][samuel.datacenter.org][samuel.caldas][http://soa.amorc.org.br/painelDeControle.php?corpo=buscaAtualizarFuncao&sigla=AM101&idOrganismoAfiliado=36&siglaPais=1][Chrome]
[15-12-15][15:09:07][192.1.1.109][samuel.datacenter.org][samuel.caldas][http://soa.amorc.org.br/painelDeControle.php?corpo=buscaAtualizarFuncao&sigla=AM101&idOrganismoAfiliado=36&siglaPais=1][Chrome]
[15-12-15][15:09:07][192.1.1.109][samuel.datacenter.org][samuel.caldas][http://soa.amorc.org.br/painelDeControle.php?corpo=buscaAtualizarFuncao&sigla=AM101&idOrganismoAfiliado=36&siglaPais=1][Chrome]
[15-12-15][15:09:29][192.1.1.109][samuel.datacenter.org][samuel.caldas][http://soa.amorc.org.br/painelDeControle.php?corpo=buscaAtualizarFuncao&sigla=AM101&idOrganismoAfiliado=36&siglaPais=1][Chrome]
[15-12-15][15:09:29][192.1.1.109][samuel.datacenter.org][samuel.caldas][http://soa.amorc.org.br/painelDeControle.php?corpo=buscaAtualizarFuncao&sigla=AM101&idOrganismoAfiliado=36&siglaPais=1][Chrome]
[15-12-15][15:09:41][192.1.1.109][samuel.datacenter.org][samuel.caldas][http://soa.amorc.org.br/painelDeControle.php?corpo=buscaAtualizarFuncao&sigla=PR101&idOrganismoAfiliado=1&siglaPais=1][Chrome]
[15-12-15][15:09:41][192.1.1.109][samuel.datacenter.org][samuel.caldas][http://soa.amorc.org.br/painelDeControle.php?corpo=buscaAtualizarFuncao&sigla=PR101&idOrganismoAfiliado=1&siglaPais=1][Chrome]
[15-12-15][15:10:37][192.1.1.143][cpd2.datacenter.org][][http://soa.amorc.org.br/painelDeControle.php?][Chrome]
[15-12-15][15:10:37][192.1.1.143][cpd2.datacenter.org][][http://soa.amorc.org.br/painelDeControle.php?][Chrome]
[15-12-15][15:10:37][192.1.1.143][cpd2.datacenter.org][][http://soa.amorc.org.br/telaDeBloqueio.php?][Chrome]
[15-12-15][15:10:37][192.1.1.143][cpd2.datacenter.org][][http://soa.amorc.org.br/login.php?][Chrome]
[15-12-15][15:10:39][192.1.1.143][cpd2.datacenter.org][samuel.caldas][http://soa.amorc.org.br/painelDeControle.php?][Chrome]
[15-12-15][15:10:39][192.1.1.143][cpd2.datacenter.org][samuel.caldas][http://soa.amorc.org.br/painelDeControle.php?][Chrome]
[15-12-15][15:10:42][192.1.1.143][cpd2.datacenter.org][samuel.caldas][http://soa.amorc.org.br/painelDeControle.php?corpo=buscaPlanoAcaoRegiao][Chrome]
[15-12-15][15:10:42][192.1.1.143][cpd2.datacenter.org][samuel.caldas][http://soa.amorc.org.br/painelDeControle.php?corpo=buscaPlanoAcaoRegiao][Chrome]
[15-12-15][15:10:45][192.1.1.143][cpd2.datacenter.org][samuel.caldas][http://soa.amorc.org.br/painelDeControle.php?corpo=cadastroPlanoAcaoRegiao][Chrome]
[15-12-15][15:10:45][192.1.1.143][cpd2.datacenter.org][samuel.caldas][http://soa.amorc.org.br/painelDeControle.php?corpo=cadastroPlanoAcaoRegiao][Chrome]
[15-12-15][15:16:18][192.1.1.109][samuel.datacenter.org][samuel.caldas][http://soa.amorc.org.br/painelDeControle.php?corpo=buscaAtualizarFuncao&sigla=AM101H&idOrganismoAfiliado=93&siglaPais=1][Chrome]
[15-12-15][15:16:18][192.1.1.109][samuel.datacenter.org][samuel.caldas][http://soa.amorc.org.br/painelDeControle.php?corpo=buscaAtualizarFuncao&sigla=AM101H&idOrganismoAfiliado=93&siglaPais=1][Chrome]
[15-12-15][15:16:31][192.1.1.109][samuel.datacenter.org][samuel.caldas][http://soa.amorc.org.br/painelDeControle.php?corpo=buscaAtualizarFuncao&sigla=SP101&idOrganismoAfiliado=81&siglaPais=1][Chrome]
[15-12-15][15:16:31][192.1.1.109][samuel.datacenter.org][samuel.caldas][http://soa.amorc.org.br/painelDeControle.php?corpo=buscaAtualizarFuncao&sigla=SP101&idOrganismoAfiliado=81&siglaPais=1][Chrome]
[15-12-15][15:16:41][192.1.1.109][samuel.datacenter.org][samuel.caldas][http://soa.amorc.org.br/painelDeControle.php?corpo=buscaAtualizarFuncao&sigla=PR101&idOrganismoAfiliado=1&siglaPais=1][Chrome]
[15-12-15][15:16:41][192.1.1.109][samuel.datacenter.org][samuel.caldas][http://soa.amorc.org.br/painelDeControle.php?corpo=buscaAtualizarFuncao&sigla=PR101&idOrganismoAfiliado=1&siglaPais=1][Chrome]
[15-12-15][15:16:48][192.1.1.109][samuel.datacenter.org][samuel.caldas][http://soa.amorc.org.br/painelDeControle.php?corpo=buscaMembroOA][Chrome]
[15-12-15][15:16:48][192.1.1.109][samuel.datacenter.org][samuel.caldas][http://soa.amorc.org.br/painelDeControle.php?corpo=buscaMembroOA][Chrome]
[15-12-15][15:16:50][192.1.1.109][samuel.datacenter.org][samuel.caldas][http://soa.amorc.org.br/painelDeControle.php?corpo=cadastroMembroOA][Chrome]
[15-12-15][15:16:50][192.1.1.109][samuel.datacenter.org][samuel.caldas][http://soa.amorc.org.br/painelDeControle.php?corpo=cadastroMembroOA][Chrome]
[15-12-15][15:17:01][192.1.1.109][samuel.datacenter.org][samuel.caldas][http://soa.amorc.org.br/painelDeControle.php?][Chrome]
[15-12-15][15:17:01][192.1.1.109][samuel.datacenter.org][samuel.caldas][http://soa.amorc.org.br/painelDeControle.php?][Chrome]
[15-12-15][15:17:06][192.1.1.109][samuel.datacenter.org][samuel.caldas][http://soa.amorc.org.br/painelDeControle.php?corpo=buscaDiscurso][Chrome]
[15-12-15][15:17:06][192.1.1.109][samuel.datacenter.org][samuel.caldas][http://soa.amorc.org.br/painelDeControle.php?corpo=buscaDiscurso][Chrome]
[15-12-15][15:17:08][192.1.1.109][samuel.datacenter.org][samuel.caldas][http://soa.amorc.org.br/painelDeControle.php?corpo=cadastroDiscurso][Chrome]
[15-12-15][15:17:08][192.1.1.109][samuel.datacenter.org][samuel.caldas][http://soa.amorc.org.br/painelDeControle.php?corpo=cadastroDiscurso][Chrome]
[15-12-15][15:17:13][192.1.1.109][samuel.datacenter.org][samuel.caldas][http://soa.amorc.org.br/painelDeControle.php?corpo=buscaMembros][Chrome]
[15-12-15][15:17:20][192.1.1.109][samuel.datacenter.org][samuel.caldas][http://soa.amorc.org.br/painelDeControle.php?corpo=buscaIniciantes][Chrome]
[15-12-15][15:17:23][192.1.1.109][samuel.datacenter.org][samuel.caldas][http://soa.amorc.org.br/painelDeControle.php?corpo=buscaAutorizacaoTemplo][Chrome]
[15-12-15][15:17:55][192.1.1.109][samuel.datacenter.org][samuel.caldas][http://soa.amorc.org.br/painelDeControle.php?corpo=buscaCarteiraRitualistica][Chrome]
[15-12-15][15:18:10][192.1.1.109][samuel.datacenter.org][samuel.caldas][http://soa.amorc.org.br/painelDeControle.php?corpo=buscaComprovanteQuitacao][Chrome]
[15-12-15][15:18:17][192.1.1.109][samuel.datacenter.org][samuel.caldas][http://soa.amorc.org.br/painelDeControle.php?corpo=buscaExtrairListaDados][Chrome]
[15-12-15][15:18:17][192.1.1.109][samuel.datacenter.org][samuel.caldas][http://soa.amorc.org.br/painelDeControle.php?corpo=buscaExtrairListaDados][Chrome]
[15-12-15][15:18:44][192.1.1.109][samuel.datacenter.org][samuel.caldas][http://soa.amorc.org.br/painelDeControle.php?corpo=buscaEstatisticasMetas][Chrome]
[15-12-15][15:18:48][192.1.1.109][samuel.datacenter.org][samuel.caldas][http://soa.amorc.org.br/painelDeControle.php?corpo=buscaRelatorioMetasOrganismo][Chrome]
[15-12-15][15:18:48][192.1.1.109][samuel.datacenter.org][samuel.caldas][http://soa.amorc.org.br/painelDeControle.php?corpo=buscaRelatorioMetasOrganismo][Chrome]
[15-12-15][15:18:50][192.1.1.109][samuel.datacenter.org][samuel.caldas][http://soa.amorc.org.br/painelDeControle.php?corpo=buscaRelatorioMetasRegiao][Chrome]
[15-12-15][15:18:50][192.1.1.109][samuel.datacenter.org][samuel.caldas][http://soa.amorc.org.br/painelDeControle.php?corpo=buscaRelatorioMetasRegiao][Chrome]
[15-12-15][15:18:53][192.1.1.109][samuel.datacenter.org][samuel.caldas][http://soa.amorc.org.br/painelDeControle.php?corpo=buscaRelatorioGrandeConselheiro][Chrome]
[15-12-15][15:18:53][192.1.1.109][samuel.datacenter.org][samuel.caldas][http://soa.amorc.org.br/painelDeControle.php?corpo=buscaRelatorioGrandeConselheiro][Chrome]
[15-12-15][15:19:00][192.1.1.109][samuel.datacenter.org][samuel.caldas][http://soa.amorc.org.br/painelDeControle.php?corpo=buscaRelatorioGrandeConselheiro][Chrome]
[15-12-15][15:19:00][192.1.1.109][samuel.datacenter.org][samuel.caldas][http://soa.amorc.org.br/painelDeControle.php?corpo=buscaRelatorioGrandeConselheiro][Chrome]
[15-12-15][15:19:56][192.1.1.109][samuel.datacenter.org][samuel.caldas][http://soa.amorc.org.br/painelDeControle.php?corpo=buscaRelatorioGrandeConselheiro][Chrome]
[15-12-15][15:19:56][192.1.1.109][samuel.datacenter.org][samuel.caldas][http://soa.amorc.org.br/painelDeControle.php?corpo=buscaRelatorioGrandeConselheiro][Chrome]
[15-12-15][15:20:28][192.1.1.109][samuel.datacenter.org][samuel.caldas][http://soa.amorc.org.br/painelDeControle.php?corpo=buscaRelatorioOficiais][Chrome]
[15-12-15][15:20:28][192.1.1.109][samuel.datacenter.org][samuel.caldas][http://soa.amorc.org.br/painelDeControle.php?corpo=buscaRelatorioOficiais][Chrome]
[15-12-15][15:20:57][192.1.1.109][samuel.datacenter.org][samuel.caldas][http://soa.amorc.org.br/painelDeControle.php?corpo=buscaEmailAMORC][Chrome]
[15-12-15][15:21:08][192.1.1.109][samuel.datacenter.org][samuel.caldas][http://soa.amorc.org.br/painelDeControle.php?corpo=buscaEmail][Chrome]
[15-12-15][15:21:13][192.1.1.109][samuel.datacenter.org][][http://soa.amorc.org.br/login.php?][Chrome]
[15-12-15][15:21:19][192.1.1.109][samuel.datacenter.org][][http://soa.amorc.org.br/login.php?][Chrome]
[15-12-15][16:21:09][192.1.1.143][cpd2.datacenter.org][][http://soa.amorc.org.br/painelDeControle.php?corpo=perfilUsuario][Chrome]
[15-12-15][16:21:09][192.1.1.143][cpd2.datacenter.org][][http://soa.amorc.org.br/painelDeControle.php?corpo=perfilUsuario][Chrome]
[15-12-15][16:21:09][192.1.1.143][cpd2.datacenter.org][][http://soa.amorc.org.br/telaDeBloqueio.php?][Chrome]
[15-12-15][16:21:09][192.1.1.143][cpd2.datacenter.org][][http://soa.amorc.org.br/login.php?][Chrome]
[15-12-15][16:21:12][192.1.1.143][cpd2.datacenter.org][samuel.caldas][http://soa.amorc.org.br/painelDeControle.php?][Chrome]
[15-12-15][16:21:12][192.1.1.143][cpd2.datacenter.org][samuel.caldas][http://soa.amorc.org.br/painelDeControle.php?][Chrome]
[15-12-15][16:40:49][192.1.1.143][cpd2.datacenter.org][samuel.caldas][http://soa.amorc.org.br/painelDeControle.php?corpo=buscaNotificacoes][Chrome]
[15-12-15][16:40:49][192.1.1.143][cpd2.datacenter.org][samuel.caldas][http://soa.amorc.org.br/painelDeControle.php?corpo=buscaNotificacoes][Chrome]
