[29-12-15][10:03:01][192.1.1.109][samuel.datacenter.org][][http://soa.amorc.org.br/index.php?][Chrome]
[29-12-15][10:03:33][192.1.1.109][samuel.datacenter.org][][http://soa.amorc.org.br/login.php?][Chrome]
[29-12-15][10:05:47][192.1.1.109][samuel.datacenter.org][lbas][http://soa.amorc.org.br/painelDeControle.php?][Chrome]
[29-12-15][10:05:47][192.1.1.109][samuel.datacenter.org][lbas][http://soa.amorc.org.br/painelDeControle.php?][Chrome]
[29-12-15][10:04:01][192.1.1.109][samuel.datacenter.org][lbas][http://soa.amorc.org.br/login.php?][Chrome]
[29-12-15][10:05:47][192.1.1.109][samuel.datacenter.org][lbas][http://soa.amorc.org.br/index.php?][Chrome]
[29-12-15][10:05:47][192.1.1.109][samuel.datacenter.org][lbas][http://soa.amorc.org.br/index.php?][Chrome]
[29-12-15][10:07:13][192.1.1.109][samuel.datacenter.org][lbas][http://soa.amorc.org.br/index.php?][Chrome]
[29-12-15][10:07:56][192.1.1.109][samuel.datacenter.org][lbas][http://soa.amorc.org.br/login.php?][Chrome]
[29-12-15][10:07:58][192.1.1.109][samuel.datacenter.org][lbas][http://soa.amorc.org.br/painelDeControle.php?][Chrome]
[29-12-15][10:07:58][192.1.1.109][samuel.datacenter.org][lbas][http://soa.amorc.org.br/painelDeControle.php?][Chrome]
[29-12-15][10:08:36][192.1.1.109][samuel.datacenter.org][lbas][http://soa.amorc.org.br/painelDeControle.php?corpo=detalheNotificacao&idNotificacaoGlp=20][Chrome]
[29-12-15][10:08:36][192.1.1.109][samuel.datacenter.org][lbas][http://soa.amorc.org.br/painelDeControle.php?corpo=detalheNotificacao&idNotificacaoGlp=20][Chrome]
[29-12-15][10:08:39][192.1.1.109][samuel.datacenter.org][lbas][http://soa.amorc.org.br/painelDeControle.php?][Chrome]
[29-12-15][10:08:39][192.1.1.109][samuel.datacenter.org][lbas][http://soa.amorc.org.br/painelDeControle.php?][Chrome]
[29-12-15][10:09:04][192.1.1.109][samuel.datacenter.org][lbas][http://soa.amorc.org.br/painelDeControle.php?corpo=buscaUsuario][Chrome]
[29-12-15][10:09:04][192.1.1.109][samuel.datacenter.org][lbas][http://soa.amorc.org.br/painelDeControle.php?corpo=buscaUsuario][Chrome]
[29-12-15][10:09:29][192.1.1.109][samuel.datacenter.org][][http://soa.amorc.org.br/login.php?][Chrome]
