[26-06-15][08:05:17][179.217.79.232][b3d94fe8.virtua.com.br][][http://177.124.60.170:8087/painelDeControle.php?corpo=buscaMembroOA][Chrome]
[26-06-15][08:05:17][179.217.79.232][b3d94fe8.virtua.com.br][][http://177.124.60.170:8087/painelDeControle.php?corpo=buscaMembroOA][Chrome]
[26-06-15][08:05:19][179.217.79.232][b3d94fe8.virtua.com.br][][http://177.124.60.170:8087/painelDeControle.php?corpo=cadastroMembroOA][Chrome]
[26-06-15][08:05:19][179.217.79.232][b3d94fe8.virtua.com.br][][http://177.124.60.170:8087/painelDeControle.php?corpo=cadastroMembroOA][Chrome]
[26-06-15][08:08:10][179.217.79.232][b3d94fe8.virtua.com.br][][http://177.124.60.170:8087/login.php?][Chrome]
[26-06-15][08:08:12][179.217.79.232][b3d94fe8.virtua.com.br][samuel.caldas][http://177.124.60.170:8087/painelDeControle.php?][Chrome]
[26-06-15][08:08:12][179.217.79.232][b3d94fe8.virtua.com.br][samuel.caldas][http://177.124.60.170:8087/painelDeControle.php?][Chrome]
[26-06-15][08:08:21][179.217.79.232][b3d94fe8.virtua.com.br][samuel.caldas][http://177.124.60.170:8087/painelDeControle.php?corpo=buscaOficial][Chrome]
[26-06-15][08:08:21][179.217.79.232][b3d94fe8.virtua.com.br][samuel.caldas][http://177.124.60.170:8087/painelDeControle.php?corpo=buscaOficial][Chrome]
[26-06-15][08:08:33][179.217.79.232][b3d94fe8.virtua.com.br][samuel.caldas][http://177.124.60.170:8087/painelDeControle.php?corpo=atualizaQuadroOficiais][Chrome]
[26-06-15][08:08:33][179.217.79.232][b3d94fe8.virtua.com.br][samuel.caldas][http://177.124.60.170:8087/painelDeControle.php?corpo=atualizaQuadroOficiais][Chrome]
[26-06-15][08:10:30][179.217.79.232][b3d94fe8.virtua.com.br][samuel.caldas][http://177.124.60.170:8087/painelDeControle.php?corpo=atualizaQuadroOficiais][Chrome]
[26-06-15][08:10:30][179.217.79.232][b3d94fe8.virtua.com.br][samuel.caldas][http://177.124.60.170:8087/painelDeControle.php?corpo=atualizaQuadroOficiais][Chrome]
[26-06-15][08:11:27][179.217.79.232][b3d94fe8.virtua.com.br][][http://177.124.60.170:8087/painelDeControle.php?corpo=buscaImovel][Chrome]
[26-06-15][08:11:27][179.217.79.232][b3d94fe8.virtua.com.br][][http://177.124.60.170:8087/painelDeControle.php?corpo=buscaImovel][Chrome]
[26-06-15][08:13:59][179.217.79.232][b3d94fe8.virtua.com.br][samuel.caldas][http://177.124.60.170:8087/painelDeControle.php?corpo=buscaOficial][Chrome]
[26-06-15][08:13:59][179.217.79.232][b3d94fe8.virtua.com.br][samuel.caldas][http://177.124.60.170:8087/painelDeControle.php?corpo=buscaOficial][Chrome]
[26-06-15][08:16:16][179.217.79.232][b3d94fe8.virtua.com.br][samuel.caldas][http://177.124.60.170:8087/painelDeControle.php?corpo=buscaOficial][Chrome]
[26-06-15][08:16:16][179.217.79.232][b3d94fe8.virtua.com.br][samuel.caldas][http://177.124.60.170:8087/painelDeControle.php?corpo=buscaOficial][Chrome]
[26-06-15][08:17:19][179.217.79.232][b3d94fe8.virtua.com.br][samuel.caldas][http://177.124.60.170:8087/painelDeControle.php?corpo=buscaOficial][Chrome]
[26-06-15][08:17:19][179.217.79.232][b3d94fe8.virtua.com.br][samuel.caldas][http://177.124.60.170:8087/painelDeControle.php?corpo=buscaOficial][Chrome]
[26-06-15][08:20:28][179.217.79.232][b3d94fe8.virtua.com.br][samuel.caldas][http://177.124.60.170:8087/painelDeControle.php?corpo=atualizaQuadroOficiais][Chrome]
[26-06-15][08:20:28][179.217.79.232][b3d94fe8.virtua.com.br][samuel.caldas][http://177.124.60.170:8087/painelDeControle.php?corpo=atualizaQuadroOficiais][Chrome]
[26-06-15][08:21:21][179.217.79.232][b3d94fe8.virtua.com.br][samuel.caldas][http://177.124.60.170:8087/painelDeControle.php?corpo=buscaOficial][Chrome]
[26-06-15][08:21:21][179.217.79.232][b3d94fe8.virtua.com.br][samuel.caldas][http://177.124.60.170:8087/painelDeControle.php?corpo=buscaOficial][Chrome]
[26-06-15][08:22:28][179.217.79.232][b3d94fe8.virtua.com.br][samuel.caldas][http://177.124.60.170:8087/painelDeControle.php?corpo=buscaOficial][Chrome]
[26-06-15][08:22:28][179.217.79.232][b3d94fe8.virtua.com.br][samuel.caldas][http://177.124.60.170:8087/painelDeControle.php?corpo=buscaOficial][Chrome]
[26-06-15][08:23:29][179.217.79.232][b3d94fe8.virtua.com.br][samuel.caldas][http://177.124.60.170:8087/painelDeControle.php?corpo=atualizaQuadroOficiais][Chrome]
[26-06-15][08:23:29][179.217.79.232][b3d94fe8.virtua.com.br][samuel.caldas][http://177.124.60.170:8087/painelDeControle.php?corpo=atualizaQuadroOficiais][Chrome]
[26-06-15][09:01:33][179.217.79.232][b3d94fe8.virtua.com.br][][http://177.124.60.170:8087/index.php?][Chrome]
[26-06-15][09:08:29][179.217.79.232][b3d94fe8.virtua.com.br][][http://177.124.60.170:8087/index.php?][Chrome]
[26-06-15][09:08:40][179.217.79.232][b3d94fe8.virtua.com.br][][http://177.124.60.170:8087/login.php?][Chrome]
[26-06-15][09:08:45][179.217.79.232][b3d94fe8.virtua.com.br][samuel.caldas][http://177.124.60.170:8087/painelDeControle.php?][Chrome]
[26-06-15][09:08:45][179.217.79.232][b3d94fe8.virtua.com.br][samuel.caldas][http://177.124.60.170:8087/painelDeControle.php?][Chrome]
[26-06-15][09:19:38][179.217.79.232][b3d94fe8.virtua.com.br][samuel.caldas][http://177.124.60.170:8087/painelDeControle.php?corpo=buscaOficial][Chrome]
[26-06-15][09:19:38][179.217.79.232][b3d94fe8.virtua.com.br][samuel.caldas][http://177.124.60.170:8087/painelDeControle.php?corpo=buscaOficial][Chrome]
[26-06-15][09:21:46][179.217.79.232][b3d94fe8.virtua.com.br][samuel.caldas][http://177.124.60.170:8087/painelDeControle.php?corpo=atualizaQuadroOficiais][Chrome]
[26-06-15][09:21:46][179.217.79.232][b3d94fe8.virtua.com.br][samuel.caldas][http://177.124.60.170:8087/painelDeControle.php?corpo=atualizaQuadroOficiais][Chrome]
[26-06-15][09:23:48][179.217.79.232][b3d94fe8.virtua.com.br][samuel.caldas][http://177.124.60.170:8087/painelDeControle.php?corpo=buscaOficial][Chrome]
[26-06-15][09:23:48][179.217.79.232][b3d94fe8.virtua.com.br][samuel.caldas][http://177.124.60.170:8087/painelDeControle.php?corpo=buscaOficial][Chrome]
[26-06-15][09:28:52][179.217.79.232][b3d94fe8.virtua.com.br][samuel.caldas][http://177.124.60.170:8087/painelDeControle.php?corpo=buscaMembroOA][Chrome]
[26-06-15][09:28:52][179.217.79.232][b3d94fe8.virtua.com.br][samuel.caldas][http://177.124.60.170:8087/painelDeControle.php?corpo=buscaMembroOA][Chrome]
[26-06-15][09:29:01][179.217.79.232][b3d94fe8.virtua.com.br][samuel.caldas][http://177.124.60.170:8087/painelDeControle.php?corpo=buscaOrganismo][Chrome]
[26-06-15][09:29:01][179.217.79.232][b3d94fe8.virtua.com.br][samuel.caldas][http://177.124.60.170:8087/painelDeControle.php?corpo=buscaOrganismo][Chrome]
[26-06-15][09:30:48][179.217.79.232][b3d94fe8.virtua.com.br][samuel.caldas][http://177.124.60.170:8087/painelDeControle.php?corpo=alteraOrganismo&idOrganismoAfiliado=150][Chrome]
[26-06-15][09:30:48][179.217.79.232][b3d94fe8.virtua.com.br][samuel.caldas][http://177.124.60.170:8087/painelDeControle.php?corpo=alteraOrganismo&idOrganismoAfiliado=150][Chrome]
[26-06-15][09:30:55][179.217.79.232][b3d94fe8.virtua.com.br][samuel.caldas][http://177.124.60.170:8087/painelDeControle.php?corpo=buscaOrganismo][Chrome]
[26-06-15][09:30:55][179.217.79.232][b3d94fe8.virtua.com.br][samuel.caldas][http://177.124.60.170:8087/painelDeControle.php?corpo=buscaOrganismo][Chrome]
[26-06-15][09:31:16][179.217.79.232][b3d94fe8.virtua.com.br][samuel.caldas][http://177.124.60.170:8087/painelDeControle.php?corpo=alteraOrganismo&idOrganismoAfiliado=278][Chrome]
[26-06-15][09:31:16][179.217.79.232][b3d94fe8.virtua.com.br][samuel.caldas][http://177.124.60.170:8087/painelDeControle.php?corpo=alteraOrganismo&idOrganismoAfiliado=278][Chrome]
[26-06-15][09:34:42][179.217.79.232][b3d94fe8.virtua.com.br][samuel.caldas][http://177.124.60.170:8087/painelDeControle.php?corpo=buscaOrganismo][Chrome]
[26-06-15][09:34:42][179.217.79.232][b3d94fe8.virtua.com.br][samuel.caldas][http://177.124.60.170:8087/painelDeControle.php?corpo=buscaOrganismo][Chrome]
[26-06-15][09:37:54][179.217.79.232][b3d94fe8.virtua.com.br][samuel.caldas][http://177.124.60.170:8087/painelDeControle.php?corpo=buscaRegiaoRosacruz][Chrome]
[26-06-15][09:37:54][179.217.79.232][b3d94fe8.virtua.com.br][samuel.caldas][http://177.124.60.170:8087/painelDeControle.php?corpo=buscaRegiaoRosacruz][Chrome]
[26-06-15][09:39:27][179.217.79.232][b3d94fe8.virtua.com.br][samuel.caldas][http://177.124.60.170:8087/painelDeControle.php?corpo=cadastroRegiaoRosacruz][Chrome]
[26-06-15][09:39:27][179.217.79.232][b3d94fe8.virtua.com.br][samuel.caldas][http://177.124.60.170:8087/painelDeControle.php?corpo=cadastroRegiaoRosacruz][Chrome]
[26-06-15][09:39:36][179.217.79.232][b3d94fe8.virtua.com.br][samuel.caldas][http://177.124.60.170:8087/painelDeControle.php?corpo=buscaRegiaoRosacruz][Chrome]
[26-06-15][09:39:36][179.217.79.232][b3d94fe8.virtua.com.br][samuel.caldas][http://177.124.60.170:8087/painelDeControle.php?corpo=buscaRegiaoRosacruz][Chrome]
[26-06-15][09:41:18][179.217.79.232][b3d94fe8.virtua.com.br][samuel.caldas][http://177.124.60.170:8087/painelDeControle.php?corpo=buscaMembroOA][Chrome]
[26-06-15][09:41:18][179.217.79.232][b3d94fe8.virtua.com.br][samuel.caldas][http://177.124.60.170:8087/painelDeControle.php?corpo=buscaMembroOA][Chrome]
[26-06-15][09:41:29][179.217.79.232][b3d94fe8.virtua.com.br][samuel.caldas][http://177.124.60.170:8087/painelDeControle.php?corpo=cadastroMembroOA][Chrome]
[26-06-15][09:41:29][179.217.79.232][b3d94fe8.virtua.com.br][samuel.caldas][http://177.124.60.170:8087/painelDeControle.php?corpo=cadastroMembroOA][Chrome]
[26-06-15][09:42:04][179.217.79.232][b3d94fe8.virtua.com.br][samuel.caldas][http://177.124.60.170:8087/painelDeControle.php?corpo=buscaMembroOA][Chrome]
[26-06-15][09:42:04][179.217.79.232][b3d94fe8.virtua.com.br][samuel.caldas][http://177.124.60.170:8087/painelDeControle.php?corpo=buscaMembroOA][Chrome]
[26-06-15][09:44:25][179.217.79.232][b3d94fe8.virtua.com.br][samuel.caldas][http://177.124.60.170:8087/painelDeControle.php?corpo=cadastroMembroOA][Chrome]
[26-06-15][09:44:25][179.217.79.232][b3d94fe8.virtua.com.br][samuel.caldas][http://177.124.60.170:8087/painelDeControle.php?corpo=cadastroMembroOA][Chrome]
[26-06-15][09:45:31][179.217.79.232][b3d94fe8.virtua.com.br][samuel.caldas][http://177.124.60.170:8087/painelDeControle.php?corpo=buscaMembros][Chrome]
[26-06-15][09:45:41][179.217.79.232][b3d94fe8.virtua.com.br][samuel.caldas][http://177.124.60.170:8087/painelDeControle.php?corpo=buscaIniciantes][Chrome]
[26-06-15][09:45:45][179.217.79.232][b3d94fe8.virtua.com.br][samuel.caldas][http://177.124.60.170:8087/painelDeControle.php?corpo=buscaMembroOA][Chrome]
[26-06-15][09:45:45][179.217.79.232][b3d94fe8.virtua.com.br][samuel.caldas][http://177.124.60.170:8087/painelDeControle.php?corpo=buscaMembroOA][Chrome]
[26-06-15][10:47:33][179.217.79.232][b3d94fe8.virtua.com.br][][http://177.124.60.170:8087/painelDeControle.php?corpo=buscaMembroOA][Chrome]
[26-06-15][10:47:33][179.217.79.232][b3d94fe8.virtua.com.br][][http://177.124.60.170:8087/painelDeControle.php?corpo=buscaMembroOA][Chrome]
[26-06-15][10:47:37][179.217.79.232][b3d94fe8.virtua.com.br][][http://177.124.60.170:8087/login.php?][Chrome]
[26-06-15][10:47:38][179.217.79.232][b3d94fe8.virtua.com.br][samuel.caldas][http://177.124.60.170:8087/painelDeControle.php?][Chrome]
[26-06-15][10:47:38][179.217.79.232][b3d94fe8.virtua.com.br][samuel.caldas][http://177.124.60.170:8087/painelDeControle.php?][Chrome]
[26-06-15][10:48:03][179.217.79.232][b3d94fe8.virtua.com.br][samuel.caldas][http://177.124.60.170:8087/painelDeControle.php?corpo=buscaOrganismo][Chrome]
[26-06-15][10:48:03][179.217.79.232][b3d94fe8.virtua.com.br][samuel.caldas][http://177.124.60.170:8087/painelDeControle.php?corpo=buscaOrganismo][Chrome]
[26-06-15][10:48:22][179.217.79.232][b3d94fe8.virtua.com.br][samuel.caldas][http://177.124.60.170:8087/painelDeControle.php?corpo=alteraOrganismo&idOrganismoAfiliado=81][Chrome]
[26-06-15][10:48:22][179.217.79.232][b3d94fe8.virtua.com.br][samuel.caldas][http://177.124.60.170:8087/painelDeControle.php?corpo=alteraOrganismo&idOrganismoAfiliado=81][Chrome]
[26-06-15][10:54:49][179.217.79.232][b3d94fe8.virtua.com.br][][http://177.124.60.170:8087/index.php?][Chrome]
[26-06-15][10:54:59][179.217.79.232][b3d94fe8.virtua.com.br][lbas][http://177.124.60.170:8087/painelDeControle.php?][Chrome]
[26-06-15][10:54:59][179.217.79.232][b3d94fe8.virtua.com.br][lbas][http://177.124.60.170:8087/painelDeControle.php?][Chrome]
[26-06-15][10:55:35][179.217.79.232][b3d94fe8.virtua.com.br][lbas][http://177.124.60.170:8087/painelDeControle.php?corpo=buscaOrganismo][Chrome]
[26-06-15][10:55:35][179.217.79.232][b3d94fe8.virtua.com.br][lbas][http://177.124.60.170:8087/painelDeControle.php?corpo=buscaOrganismo][Chrome]
[26-06-15][10:55:44][179.217.79.232][b3d94fe8.virtua.com.br][lbas][http://177.124.60.170:8087/painelDeControle.php?corpo=alteraOrganismo&idOrganismoAfiliado=81][Chrome]
[26-06-15][10:55:44][179.217.79.232][b3d94fe8.virtua.com.br][lbas][http://177.124.60.170:8087/painelDeControle.php?corpo=alteraOrganismo&idOrganismoAfiliado=81][Chrome]
[26-06-15][10:56:13][179.217.79.232][b3d94fe8.virtua.com.br][lbas][http://177.124.60.170:8087/painelDeControle.php?corpo=buscaOrganismo][Chrome]
[26-06-15][10:56:13][179.217.79.232][b3d94fe8.virtua.com.br][lbas][http://177.124.60.170:8087/painelDeControle.php?corpo=buscaOrganismo][Chrome]
[26-06-15][10:56:17][179.217.79.232][b3d94fe8.virtua.com.br][lbas][http://177.124.60.170:8087/painelDeControle.php?corpo=cadastroOrganismo][Chrome]
[26-06-15][10:56:17][179.217.79.232][b3d94fe8.virtua.com.br][lbas][http://177.124.60.170:8087/painelDeControle.php?corpo=cadastroOrganismo][Chrome]
[26-06-15][11:05:48][179.217.79.232][b3d94fe8.virtua.com.br][lbas][http://177.124.60.170:8087/painelDeControle.php?corpo=buscaOrganismo][Chrome]
[26-06-15][11:05:48][179.217.79.232][b3d94fe8.virtua.com.br][lbas][http://177.124.60.170:8087/painelDeControle.php?corpo=buscaOrganismo][Chrome]
[26-06-15][11:05:50][179.217.79.232][b3d94fe8.virtua.com.br][lbas][http://177.124.60.170:8087/painelDeControle.php?corpo=cadastroOrganismo][Chrome]
[26-06-15][11:05:50][179.217.79.232][b3d94fe8.virtua.com.br][lbas][http://177.124.60.170:8087/painelDeControle.php?corpo=cadastroOrganismo][Chrome]
[26-06-15][11:09:53][179.217.79.232][b3d94fe8.virtua.com.br][lbas][http://177.124.60.170:8087/painelDeControle.php?corpo=buscaOrganismo][Chrome]
[26-06-15][11:09:53][179.217.79.232][b3d94fe8.virtua.com.br][lbas][http://177.124.60.170:8087/painelDeControle.php?corpo=buscaOrganismo][Chrome]
[26-06-15][11:09:55][179.217.79.232][b3d94fe8.virtua.com.br][lbas][http://177.124.60.170:8087/painelDeControle.php?corpo=cadastroOrganismo][Chrome]
[26-06-15][11:09:55][179.217.79.232][b3d94fe8.virtua.com.br][lbas][http://177.124.60.170:8087/painelDeControle.php?corpo=cadastroOrganismo][Chrome]
[26-06-15][11:10:00][179.217.79.232][b3d94fe8.virtua.com.br][lbas][http://177.124.60.170:8087/painelDeControle.php?corpo=buscaOrganismo][Chrome]
[26-06-15][11:10:00][179.217.79.232][b3d94fe8.virtua.com.br][lbas][http://177.124.60.170:8087/painelDeControle.php?corpo=buscaOrganismo][Chrome]
[26-06-15][11:21:48][179.217.79.232][b3d94fe8.virtua.com.br][lbas][http://177.124.60.170:8087/painelDeControle.php?corpo=buscaOrganismo][Chrome]
[26-06-15][11:21:48][179.217.79.232][b3d94fe8.virtua.com.br][lbas][http://177.124.60.170:8087/painelDeControle.php?corpo=buscaOrganismo][Chrome]
[26-06-15][13:53:21][179.217.79.232][b3d94fe8.virtua.com.br][][http://177.124.60.170:8087/painelDeControle.php?][Chrome]
[26-06-15][13:53:21][179.217.79.232][b3d94fe8.virtua.com.br][][http://177.124.60.170:8087/painelDeControle.php?][Chrome]
[26-06-15][13:54:40][179.217.79.232][b3d94fe8.virtua.com.br][][http://177.124.60.170:8087/login.php?][Chrome]
[26-06-15][13:54:42][179.217.79.232][b3d94fe8.virtua.com.br][samuel.caldas][http://177.124.60.170:8087/painelDeControle.php?][Chrome]
[26-06-15][13:54:42][179.217.79.232][b3d94fe8.virtua.com.br][samuel.caldas][http://177.124.60.170:8087/painelDeControle.php?][Chrome]
[26-06-15][13:54:44][179.217.79.232][b3d94fe8.virtua.com.br][samuel.caldas][http://177.124.60.170:8087/painelDeControle.php?][Chrome]
[26-06-15][13:54:44][179.217.79.232][b3d94fe8.virtua.com.br][samuel.caldas][http://177.124.60.170:8087/painelDeControle.php?][Chrome]
[26-06-15][14:01:37][179.217.79.232][b3d94fe8.virtua.com.br][samuel.caldas][http://177.124.60.170:8087/painelDeControle.php?][Chrome]
[26-06-15][14:01:37][179.217.79.232][b3d94fe8.virtua.com.br][samuel.caldas][http://177.124.60.170:8087/painelDeControle.php?][Chrome]
[26-06-15][14:17:23][179.217.79.232][b3d94fe8.virtua.com.br][samuel.caldas][http://177.124.60.170:8087/painelDeControle.php?corpo=buscaImovel][Chrome]
[26-06-15][14:17:23][179.217.79.232][b3d94fe8.virtua.com.br][samuel.caldas][http://177.124.60.170:8087/painelDeControle.php?corpo=buscaImovel][Chrome]
[26-06-15][14:17:25][179.217.79.232][b3d94fe8.virtua.com.br][samuel.caldas][http://177.124.60.170:8087/painelDeControle.php?corpo=cadastroImovel][Chrome]
[26-06-15][14:17:25][179.217.79.232][b3d94fe8.virtua.com.br][samuel.caldas][http://177.124.60.170:8087/painelDeControle.php?corpo=cadastroImovel][Chrome]
[26-06-15][14:18:09][179.217.79.232][b3d94fe8.virtua.com.br][samuel.caldas][http://177.124.60.170:8087/login.php?][Chrome]
[26-06-15][14:18:11][179.217.79.232][b3d94fe8.virtua.com.br][samuel.caldas][http://177.124.60.170:8087/painelDeControle.php?][Chrome]
[26-06-15][14:18:11][179.217.79.232][b3d94fe8.virtua.com.br][samuel.caldas][http://177.124.60.170:8087/painelDeControle.php?][Chrome]
[26-06-15][14:18:13][179.217.79.232][b3d94fe8.virtua.com.br][samuel.caldas][http://177.124.60.170:8087/painelDeControle.php?][Chrome]
[26-06-15][14:18:13][179.217.79.232][b3d94fe8.virtua.com.br][samuel.caldas][http://177.124.60.170:8087/painelDeControle.php?][Chrome]
[26-06-15][14:18:16][179.217.79.232][b3d94fe8.virtua.com.br][samuel.caldas][http://177.124.60.170:8087/login.php?][Chrome]
[26-06-15][14:18:17][179.217.79.232][b3d94fe8.virtua.com.br][samuel.caldas][http://177.124.60.170:8087/login.php?][Chrome]
[26-06-15][14:18:19][179.217.79.232][b3d94fe8.virtua.com.br][samuel.caldas][http://177.124.60.170:8087/painelDeControle.php?][Chrome]
[26-06-15][14:18:19][179.217.79.232][b3d94fe8.virtua.com.br][samuel.caldas][http://177.124.60.170:8087/painelDeControle.php?][Chrome]
[26-06-15][14:18:22][179.217.79.232][b3d94fe8.virtua.com.br][samuel.caldas][http://177.124.60.170:8087/painelDeControle.php?corpo=buscaImovel][Chrome]
[26-06-15][14:18:22][179.217.79.232][b3d94fe8.virtua.com.br][samuel.caldas][http://177.124.60.170:8087/painelDeControle.php?corpo=buscaImovel][Chrome]
[26-06-15][14:18:24][179.217.79.232][b3d94fe8.virtua.com.br][samuel.caldas][http://177.124.60.170:8087/painelDeControle.php?corpo=cadastroImovel][Chrome]
[26-06-15][14:18:24][179.217.79.232][b3d94fe8.virtua.com.br][samuel.caldas][http://177.124.60.170:8087/painelDeControle.php?corpo=cadastroImovel][Chrome]
[26-06-15][14:18:26][179.217.79.232][b3d94fe8.virtua.com.br][samuel.caldas][http://177.124.60.170:8087/login.php?][Chrome]
[26-06-15][14:18:40][179.217.79.232][b3d94fe8.virtua.com.br][samuel.caldas][http://177.124.60.170:8087/painelDeControle.php?][Chrome]
[26-06-15][14:18:40][179.217.79.232][b3d94fe8.virtua.com.br][samuel.caldas][http://177.124.60.170:8087/painelDeControle.php?][Chrome]
[26-06-15][14:18:41][179.217.79.232][b3d94fe8.virtua.com.br][samuel.caldas][http://177.124.60.170:8087/login.php?][Chrome]
[26-06-15][14:18:42][179.217.79.232][b3d94fe8.virtua.com.br][samuel.caldas][http://177.124.60.170:8087/login.php?][Chrome]
[26-06-15][14:18:44][179.217.79.232][b3d94fe8.virtua.com.br][samuel.caldas][http://177.124.60.170:8087/painelDeControle.php?][Chrome]
[26-06-15][14:18:44][179.217.79.232][b3d94fe8.virtua.com.br][samuel.caldas][http://177.124.60.170:8087/painelDeControle.php?][Chrome]
[26-06-15][14:18:46][179.217.79.232][b3d94fe8.virtua.com.br][samuel.caldas][http://177.124.60.170:8087/painelDeControle.php?corpo=buscaImovel][Chrome]
[26-06-15][14:18:46][179.217.79.232][b3d94fe8.virtua.com.br][samuel.caldas][http://177.124.60.170:8087/painelDeControle.php?corpo=buscaImovel][Chrome]
[26-06-15][14:18:48][179.217.79.232][b3d94fe8.virtua.com.br][samuel.caldas][http://177.124.60.170:8087/painelDeControle.php?corpo=cadastroImovel][Chrome]
[26-06-15][14:18:48][179.217.79.232][b3d94fe8.virtua.com.br][samuel.caldas][http://177.124.60.170:8087/painelDeControle.php?corpo=cadastroImovel][Chrome]
[26-06-15][14:18:51][179.217.79.232][b3d94fe8.virtua.com.br][samuel.caldas][http://177.124.60.170:8087/login.php?][Chrome]
[26-06-15][14:19:08][179.217.79.232][b3d94fe8.virtua.com.br][samuel.caldas][http://177.124.60.170:8087/painelDeControle.php?][Chrome]
[26-06-15][14:19:08][179.217.79.232][b3d94fe8.virtua.com.br][samuel.caldas][http://177.124.60.170:8087/painelDeControle.php?][Chrome]
[26-06-15][14:19:11][179.217.79.232][b3d94fe8.virtua.com.br][samuel.caldas][http://177.124.60.170:8087/painelDeControle.php?corpo=buscaImovel][Chrome]
[26-06-15][14:19:11][179.217.79.232][b3d94fe8.virtua.com.br][samuel.caldas][http://177.124.60.170:8087/painelDeControle.php?corpo=buscaImovel][Chrome]
[26-06-15][14:19:13][179.217.79.232][b3d94fe8.virtua.com.br][samuel.caldas][http://177.124.60.170:8087/painelDeControle.php?corpo=cadastroImovel][Chrome]
[26-06-15][14:19:13][179.217.79.232][b3d94fe8.virtua.com.br][samuel.caldas][http://177.124.60.170:8087/painelDeControle.php?corpo=cadastroImovel][Chrome]
[26-06-15][14:19:16][179.217.79.232][b3d94fe8.virtua.com.br][samuel.caldas][http://177.124.60.170:8087/login.php?][Chrome]
[26-06-15][14:19:30][179.217.79.232][b3d94fe8.virtua.com.br][samuel.caldas][http://177.124.60.170:8087/painelDeControle.php?][Chrome]
[26-06-15][14:19:30][179.217.79.232][b3d94fe8.virtua.com.br][samuel.caldas][http://177.124.60.170:8087/painelDeControle.php?][Chrome]
[26-06-15][14:19:51][179.217.79.232][b3d94fe8.virtua.com.br][samuel.caldas][http://177.124.60.170:8087/painelDeControle.php?corpo=buscaImovel][Chrome]
[26-06-15][14:19:51][179.217.79.232][b3d94fe8.virtua.com.br][samuel.caldas][http://177.124.60.170:8087/painelDeControle.php?corpo=buscaImovel][Chrome]
[26-06-15][14:19:53][179.217.79.232][b3d94fe8.virtua.com.br][samuel.caldas][http://177.124.60.170:8087/painelDeControle.php?corpo=cadastroImovel][Chrome]
[26-06-15][14:19:53][179.217.79.232][b3d94fe8.virtua.com.br][samuel.caldas][http://177.124.60.170:8087/painelDeControle.php?corpo=cadastroImovel][Chrome]
[26-06-15][14:20:27][179.217.79.232][b3d94fe8.virtua.com.br][samuel.caldas][http://177.124.60.170:8087/login.php?][Chrome]
[26-06-15][14:20:30][179.217.79.232][b3d94fe8.virtua.com.br][samuel.caldas][http://177.124.60.170:8087/painelDeControle.php?][Chrome]
[26-06-15][14:20:30][179.217.79.232][b3d94fe8.virtua.com.br][samuel.caldas][http://177.124.60.170:8087/painelDeControle.php?][Chrome]
[26-06-15][14:20:33][179.217.79.232][b3d94fe8.virtua.com.br][samuel.caldas][http://177.124.60.170:8087/painelDeControle.php?corpo=buscaImovel][Chrome]
[26-06-15][14:20:33][179.217.79.232][b3d94fe8.virtua.com.br][samuel.caldas][http://177.124.60.170:8087/painelDeControle.php?corpo=buscaImovel][Chrome]
[26-06-15][14:20:34][179.217.79.232][b3d94fe8.virtua.com.br][samuel.caldas][http://177.124.60.170:8087/painelDeControle.php?corpo=cadastroImovel][Chrome]
[26-06-15][14:20:34][179.217.79.232][b3d94fe8.virtua.com.br][samuel.caldas][http://177.124.60.170:8087/painelDeControle.php?corpo=cadastroImovel][Chrome]
[26-06-15][14:21:06][179.217.79.232][b3d94fe8.virtua.com.br][samuel.caldas][http://177.124.60.170:8087/login.php?][Chrome]
[26-06-15][14:21:07][179.217.79.232][b3d94fe8.virtua.com.br][samuel.caldas][http://177.124.60.170:8087/painelDeControle.php?][Chrome]
[26-06-15][14:21:07][179.217.79.232][b3d94fe8.virtua.com.br][samuel.caldas][http://177.124.60.170:8087/painelDeControle.php?][Chrome]
[26-06-15][14:21:09][179.217.79.232][b3d94fe8.virtua.com.br][samuel.caldas][http://177.124.60.170:8087/painelDeControle.php?corpo=buscaImovel][Chrome]
[26-06-15][14:21:09][179.217.79.232][b3d94fe8.virtua.com.br][samuel.caldas][http://177.124.60.170:8087/painelDeControle.php?corpo=buscaImovel][Chrome]
[26-06-15][14:21:11][179.217.79.232][b3d94fe8.virtua.com.br][samuel.caldas][http://177.124.60.170:8087/painelDeControle.php?corpo=cadastroImovel][Chrome]
[26-06-15][14:21:11][179.217.79.232][b3d94fe8.virtua.com.br][samuel.caldas][http://177.124.60.170:8087/painelDeControle.php?corpo=cadastroImovel][Chrome]
[26-06-15][14:23:15][179.217.79.232][b3d94fe8.virtua.com.br][samuel.caldas][http://177.124.60.170:8087/painelDeControle.php?corpo=buscaImovel][Chrome]
[26-06-15][14:23:15][179.217.79.232][b3d94fe8.virtua.com.br][samuel.caldas][http://177.124.60.170:8087/painelDeControle.php?corpo=buscaImovel][Chrome]
[26-06-15][14:23:32][179.217.79.232][b3d94fe8.virtua.com.br][samuel.caldas][http://177.124.60.170:8087/painelDeControle.php?corpo=alteraImovel&idImovel=4][Chrome]
[26-06-15][14:26:08][179.217.79.232][b3d94fe8.virtua.com.br][samuel.caldas][http://177.124.60.170:8087/painelDeControle.php?corpo=buscaImovel][Chrome]
[26-06-15][14:26:08][179.217.79.232][b3d94fe8.virtua.com.br][samuel.caldas][http://177.124.60.170:8087/painelDeControle.php?corpo=buscaImovel][Chrome]
[26-06-15][14:26:11][179.217.79.232][b3d94fe8.virtua.com.br][samuel.caldas][http://177.124.60.170:8087/painelDeControle.php?corpo=alteraImovel&idImovel=4][Chrome]
[26-06-15][14:26:17][179.217.79.232][b3d94fe8.virtua.com.br][samuel.caldas][http://177.124.60.170:8087/painelDeControle.php?corpo=buscaImovel][Chrome]
[26-06-15][14:26:17][179.217.79.232][b3d94fe8.virtua.com.br][samuel.caldas][http://177.124.60.170:8087/painelDeControle.php?corpo=buscaImovel][Chrome]
[26-06-15][14:28:08][179.217.79.232][b3d94fe8.virtua.com.br][samuel.caldas][http://177.124.60.170:8087/login.php?][Chrome]
[26-06-15][14:28:11][179.217.79.232][b3d94fe8.virtua.com.br][lbas][http://177.124.60.170:8087/painelDeControle.php?][Chrome]
[26-06-15][14:28:11][179.217.79.232][b3d94fe8.virtua.com.br][lbas][http://177.124.60.170:8087/painelDeControle.php?][Chrome]
[26-06-15][14:28:15][179.217.79.232][b3d94fe8.virtua.com.br][lbas][http://177.124.60.170:8087/painelDeControle.php?corpo=detalheNotificacao&idNotificacaoGlp=2][Chrome]
[26-06-15][14:28:15][179.217.79.232][b3d94fe8.virtua.com.br][lbas][http://177.124.60.170:8087/painelDeControle.php?corpo=detalheNotificacao&idNotificacaoGlp=2][Chrome]
[26-06-15][14:28:19][179.217.79.232][b3d94fe8.virtua.com.br][lbas][http://177.124.60.170:8087/painelDeControle.php?corpo=detalheNotificacao&idNotificacaoGlp=1][Chrome]
[26-06-15][14:28:19][179.217.79.232][b3d94fe8.virtua.com.br][lbas][http://177.124.60.170:8087/painelDeControle.php?corpo=detalheNotificacao&idNotificacaoGlp=1][Chrome]
[26-06-15][14:28:19][179.217.79.232][b3d94fe8.virtua.com.br][lbas][http://177.124.60.170:8087/login.php?][Chrome]
[26-06-15][14:28:21][179.217.79.232][b3d94fe8.virtua.com.br][samuel.caldas][http://177.124.60.170:8087/painelDeControle.php?][Chrome]
[26-06-15][14:28:21][179.217.79.232][b3d94fe8.virtua.com.br][samuel.caldas][http://177.124.60.170:8087/painelDeControle.php?][Chrome]
[26-06-15][14:28:23][179.217.79.232][b3d94fe8.virtua.com.br][samuel.caldas][http://177.124.60.170:8087/painelDeControle.php?corpo=buscaImovel][Chrome]
[26-06-15][14:28:23][179.217.79.232][b3d94fe8.virtua.com.br][samuel.caldas][http://177.124.60.170:8087/painelDeControle.php?corpo=buscaImovel][Chrome]
[26-06-15][14:28:24][179.217.79.232][b3d94fe8.virtua.com.br][samuel.caldas][http://177.124.60.170:8087/painelDeControle.php?corpo=buscaImovelGaleria&idImovel=4][Chrome]
[26-06-15][14:28:24][179.217.79.232][b3d94fe8.virtua.com.br][samuel.caldas][http://177.124.60.170:8087/painelDeControle.php?corpo=buscaImovelGaleria&idImovel=4][Chrome]
[26-06-15][14:28:26][179.217.79.232][b3d94fe8.virtua.com.br][samuel.caldas][http://177.124.60.170:8087/index.php?][Chrome]
[26-06-15][14:31:07][179.217.79.232][b3d94fe8.virtua.com.br][samuel.caldas][http://177.124.60.170:8087/painelDeControle.php?corpo=buscaImovelGaleria&idImovel=4][Chrome]
[26-06-15][14:31:07][179.217.79.232][b3d94fe8.virtua.com.br][samuel.caldas][http://177.124.60.170:8087/painelDeControle.php?corpo=buscaImovelGaleria&idImovel=4][Chrome]
[26-06-15][14:31:34][179.217.79.232][b3d94fe8.virtua.com.br][samuel.caldas][http://177.124.60.170:8087/painelDeControle.php?][Chrome]
[26-06-15][14:31:34][179.217.79.232][b3d94fe8.virtua.com.br][samuel.caldas][http://177.124.60.170:8087/painelDeControle.php?][Chrome]
[26-06-15][14:31:54][179.217.79.232][b3d94fe8.virtua.com.br][samuel.caldas][http://177.124.60.170:8087/painelDeControle.php?corpo=buscaImovel][Chrome]
[26-06-15][14:31:54][179.217.79.232][b3d94fe8.virtua.com.br][samuel.caldas][http://177.124.60.170:8087/painelDeControle.php?corpo=buscaImovel][Chrome]
[26-06-15][14:31:59][179.217.79.232][b3d94fe8.virtua.com.br][samuel.caldas][http://177.124.60.170:8087/painelDeControle.php?corpo=buscaImovelControle&idOrganismoAfiliado=1][Chrome]
[26-06-15][14:35:45][179.217.79.232][b3d94fe8.virtua.com.br][samuel.caldas][http://177.124.60.170:8087/painelDeControle.php?corpo=cadastroImovelControle][Chrome]
[26-06-15][14:36:55][179.217.79.232][b3d94fe8.virtua.com.br][samuel.caldas][http://177.124.60.170:8087/painelDeControle.php?corpo=buscaImovelControle&idOrganismoAfiliado=1&referenteAnoImovelControle=2014][Chrome]
[26-06-15][14:37:32][179.217.79.232][b3d94fe8.virtua.com.br][samuel.caldas][http://177.124.60.170:8087/painelDeControle.php?corpo=alteraImovelControle&idImovelControle=1][Chrome]
[26-06-15][14:37:37][179.217.79.232][b3d94fe8.virtua.com.br][samuel.caldas][http://177.124.60.170:8087/painelDeControle.php?corpo=buscaImovelControle&idOrganismoAfiliado=1&referenteAnoImovelControle=2014][Chrome]
[26-06-15][14:37:51][179.217.79.232][b3d94fe8.virtua.com.br][samuel.caldas][http://177.124.60.170:8087/login.php?][Chrome]
[26-06-15][14:37:55][179.217.79.232][b3d94fe8.virtua.com.br][lbas][http://177.124.60.170:8087/painelDeControle.php?][Chrome]
[26-06-15][14:37:55][179.217.79.232][b3d94fe8.virtua.com.br][lbas][http://177.124.60.170:8087/painelDeControle.php?][Chrome]
[26-06-15][14:37:58][179.217.79.232][b3d94fe8.virtua.com.br][lbas][http://177.124.60.170:8087/painelDeControle.php?corpo=detalheNotificacao&idNotificacaoGlp=3][Chrome]
[26-06-15][14:37:58][179.217.79.232][b3d94fe8.virtua.com.br][lbas][http://177.124.60.170:8087/painelDeControle.php?corpo=detalheNotificacao&idNotificacaoGlp=3][Chrome]
[26-06-15][14:38:00][179.217.79.232][b3d94fe8.virtua.com.br][lbas][http://177.124.60.170:8087/login.php?][Chrome]
[26-06-15][14:38:02][179.217.79.232][b3d94fe8.virtua.com.br][samuel.caldas][http://177.124.60.170:8087/painelDeControle.php?][Chrome]
[26-06-15][14:38:02][179.217.79.232][b3d94fe8.virtua.com.br][samuel.caldas][http://177.124.60.170:8087/painelDeControle.php?][Chrome]
[26-06-15][14:38:04][179.217.79.232][b3d94fe8.virtua.com.br][samuel.caldas][http://177.124.60.170:8087/painelDeControle.php?corpo=buscaImovel][Chrome]
[26-06-15][14:38:04][179.217.79.232][b3d94fe8.virtua.com.br][samuel.caldas][http://177.124.60.170:8087/painelDeControle.php?corpo=buscaImovel][Chrome]
[26-06-15][14:39:37][179.217.79.232][b3d94fe8.virtua.com.br][samuel.caldas][http://177.124.60.170:8087/painelDeControle.php?corpo=buscaImovel][Chrome]
[26-06-15][14:39:37][179.217.79.232][b3d94fe8.virtua.com.br][samuel.caldas][http://177.124.60.170:8087/painelDeControle.php?corpo=buscaImovel][Chrome]
[26-06-15][14:39:40][179.217.79.232][b3d94fe8.virtua.com.br][samuel.caldas][http://177.124.60.170:8087/painelDeControle.php?corpo=buscaImovel][Chrome]
[26-06-15][14:39:40][179.217.79.232][b3d94fe8.virtua.com.br][samuel.caldas][http://177.124.60.170:8087/painelDeControle.php?corpo=buscaImovel][Chrome]
[26-06-15][14:39:41][179.217.79.232][b3d94fe8.virtua.com.br][samuel.caldas][http://177.124.60.170:8087/login.php?][Chrome]
[26-06-15][14:39:43][179.217.79.232][b3d94fe8.virtua.com.br][samuel.caldas][http://177.124.60.170:8087/painelDeControle.php?][Chrome]
[26-06-15][14:39:43][179.217.79.232][b3d94fe8.virtua.com.br][samuel.caldas][http://177.124.60.170:8087/painelDeControle.php?][Chrome]
[26-06-15][14:40:08][179.217.79.232][b3d94fe8.virtua.com.br][samuel.caldas][http://177.124.60.170:8087/painelDeControle.php?][Chrome]
[26-06-15][14:40:08][179.217.79.232][b3d94fe8.virtua.com.br][samuel.caldas][http://177.124.60.170:8087/painelDeControle.php?][Chrome]
[26-06-15][15:11:23][179.217.79.232][b3d94fe8.virtua.com.br][samuel.caldas][http://177.124.60.170:8087/index.php?][Chrome]
[26-06-15][15:11:35][179.217.79.232][b3d94fe8.virtua.com.br][samuel.caldas][http://177.124.60.170:8087/painelDeControle.php?][Chrome]
[26-06-15][15:11:35][179.217.79.232][b3d94fe8.virtua.com.br][samuel.caldas][http://177.124.60.170:8087/painelDeControle.php?][Chrome]
[26-06-15][15:11:37][179.217.79.232][b3d94fe8.virtua.com.br][samuel.caldas][http://177.124.60.170:8087/painelDeControle.php?corpo=biblioteca][Chrome]
[26-06-15][15:11:37][179.217.79.232][b3d94fe8.virtua.com.br][samuel.caldas][http://177.124.60.170:8087/painelDeControle.php?corpo=biblioteca][Chrome]
[26-06-15][15:18:06][179.217.79.232][b3d94fe8.virtua.com.br][samuel.caldas][http://177.124.60.170:8087/index.php?][Chrome]
[26-06-15][15:18:09][179.217.79.232][b3d94fe8.virtua.com.br][samuel.caldas][http://177.124.60.170:8087/painelDeControle.php?][Chrome]
[26-06-15][15:18:09][179.217.79.232][b3d94fe8.virtua.com.br][samuel.caldas][http://177.124.60.170:8087/painelDeControle.php?][Chrome]
[26-06-15][15:18:17][179.217.79.232][b3d94fe8.virtua.com.br][samuel.caldas][http://177.124.60.170:8087/painelDeControle.php?corpo=biblioteca][Chrome]
[26-06-15][15:18:17][179.217.79.232][b3d94fe8.virtua.com.br][samuel.caldas][http://177.124.60.170:8087/painelDeControle.php?corpo=biblioteca][Chrome]
[26-06-15][15:18:35][179.217.79.232][b3d94fe8.virtua.com.br][samuel.caldas][http://177.124.60.170:8087/painelDeControle.php?corpo=biblioteca&doc=ficha211][Chrome]
[26-06-15][15:18:35][179.217.79.232][b3d94fe8.virtua.com.br][samuel.caldas][http://177.124.60.170:8087/painelDeControle.php?corpo=biblioteca&doc=ficha211][Chrome]
[26-06-15][15:18:36][179.217.79.232][b3d94fe8.virtua.com.br][samuel.caldas][http://177.124.60.170:8087/painelDeControle.php?corpo=biblioteca][Chrome]
[26-06-15][15:18:36][179.217.79.232][b3d94fe8.virtua.com.br][samuel.caldas][http://177.124.60.170:8087/painelDeControle.php?corpo=biblioteca][Chrome]
[26-06-15][15:23:46][179.217.79.232][b3d94fe8.virtua.com.br][samuel.caldas][http://177.124.60.170:8087/painelDeControle.php?][Chrome]
[26-06-15][15:23:46][179.217.79.232][b3d94fe8.virtua.com.br][samuel.caldas][http://177.124.60.170:8087/painelDeControle.php?][Chrome]
[26-06-15][15:26:42][179.217.79.232][b3d94fe8.virtua.com.br][samuel.caldas][http://177.124.60.170:8087/painelDeControle.php?corpo=buscaImovel][Chrome]
[26-06-15][15:26:43][179.217.79.232][b3d94fe8.virtua.com.br][samuel.caldas][http://177.124.60.170:8087/painelDeControle.php?corpo=buscaImovel][Chrome]
[26-06-15][15:26:46][179.217.79.232][b3d94fe8.virtua.com.br][samuel.caldas][http://177.124.60.170:8087/painelDeControle.php?corpo=buscaImovel][Chrome]
[26-06-15][15:26:46][179.217.79.232][b3d94fe8.virtua.com.br][samuel.caldas][http://177.124.60.170:8087/painelDeControle.php?corpo=buscaImovel][Chrome]
[26-06-15][15:26:47][179.217.79.232][b3d94fe8.virtua.com.br][samuel.caldas][http://177.124.60.170:8087/painelDeControle.php?][Chrome]
[26-06-15][15:26:47][179.217.79.232][b3d94fe8.virtua.com.br][samuel.caldas][http://177.124.60.170:8087/painelDeControle.php?][Chrome]
[26-06-15][16:13:50][179.217.79.232][b3d94fe8.virtua.com.br][samuel.caldas][http://177.124.60.170:8087/painelDeControle.php?corpo=buscaOrganismo][Chrome]
[26-06-15][16:13:50][179.217.79.232][b3d94fe8.virtua.com.br][samuel.caldas][http://177.124.60.170:8087/painelDeControle.php?corpo=buscaOrganismo][Chrome]
[26-06-15][16:13:52][179.217.79.232][b3d94fe8.virtua.com.br][samuel.caldas][http://177.124.60.170:8087/painelDeControle.php?corpo=cadastroOrganismo][Chrome]
[26-06-15][16:13:52][179.217.79.232][b3d94fe8.virtua.com.br][samuel.caldas][http://177.124.60.170:8087/painelDeControle.php?corpo=cadastroOrganismo][Chrome]
[26-06-15][17:01:27][179.217.79.232][b3d94fe8.virtua.com.br][][http://177.124.60.170:8087/index.php?][Chrome]
[26-06-15][17:01:29][179.217.79.232][b3d94fe8.virtua.com.br][admin][http://177.124.60.170:8087/painelDeControle.php?][Chrome]
[26-06-15][17:01:29][179.217.79.232][b3d94fe8.virtua.com.br][admin][http://177.124.60.170:8087/painelDeControle.php?][Chrome]
[26-06-15][17:01:31][179.217.79.232][b3d94fe8.virtua.com.br][admin][http://177.124.60.170:8087/painelDeControle.php?corpo=buscaImovel][Chrome]
[26-06-15][17:01:31][179.217.79.232][b3d94fe8.virtua.com.br][admin][http://177.124.60.170:8087/painelDeControle.php?corpo=buscaImovel][Chrome]
[26-06-15][17:01:50][179.217.79.232][b3d94fe8.virtua.com.br][samuel.caldas][http://177.124.60.170:8087/painelDeControle.php?corpo=buscaImovel][Chrome]
[26-06-15][17:01:50][179.217.79.232][b3d94fe8.virtua.com.br][samuel.caldas][http://177.124.60.170:8087/painelDeControle.php?corpo=buscaImovel][Chrome]
[26-06-15][17:01:51][179.217.79.232][b3d94fe8.virtua.com.br][samuel.caldas][http://177.124.60.170:8087/painelDeControle.php?corpo=cadastroImovel][Chrome]
[26-06-15][17:01:51][179.217.79.232][b3d94fe8.virtua.com.br][samuel.caldas][http://177.124.60.170:8087/painelDeControle.php?corpo=cadastroImovel][Chrome]
[26-06-15][17:02:07][179.217.79.232][b3d94fe8.virtua.com.br][samuel.caldas][http://177.124.60.170:8087/painelDeControle.php?corpo=buscaImovel][Chrome]
[26-06-15][17:02:07][179.217.79.232][b3d94fe8.virtua.com.br][samuel.caldas][http://177.124.60.170:8087/painelDeControle.php?corpo=buscaImovel][Chrome]
[26-06-15][17:02:17][179.217.79.232][b3d94fe8.virtua.com.br][samuel.caldas][http://177.124.60.170:8087/painelDeControle.php?corpo=buscaImovelControle&idOrganismoAfiliado=1][Chrome]
[26-06-15][17:02:28][179.217.79.232][b3d94fe8.virtua.com.br][samuel.caldas][http://177.124.60.170:8087/painelDeControle.php?corpo=buscaImovelControle&idOrganismoAfiliado=1&referenteAnoImovelControle=2014][Chrome]
[26-06-15][17:02:29][179.217.79.232][b3d94fe8.virtua.com.br][samuel.caldas][http://177.124.60.170:8087/painelDeControle.php?corpo=buscaImovelControle&idOrganismoAfiliado=1&referenteAnoImovelControle=2013][Chrome]
[26-06-15][17:02:36][179.217.79.232][b3d94fe8.virtua.com.br][samuel.caldas][http://177.124.60.170:8087/painelDeControle.php?corpo=buscaImovelControle&idOrganismoAfiliado=1&referenteAnoImovelControle=2012][Chrome]
[26-06-15][17:02:38][179.217.79.232][b3d94fe8.virtua.com.br][samuel.caldas][http://177.124.60.170:8087/painelDeControle.php?corpo=buscaImovelControle&idOrganismoAfiliado=1&referenteAnoImovelControle=2011][Chrome]
[26-06-15][17:02:42][179.217.79.232][b3d94fe8.virtua.com.br][samuel.caldas][http://177.124.60.170:8087/painelDeControle.php?corpo=buscaImovelControle&idOrganismoAfiliado=1&referenteAnoImovelControle=1500][Chrome]
[26-06-15][17:02:53][179.217.79.232][b3d94fe8.virtua.com.br][samuel.caldas][http://177.124.60.170:8087/painelDeControle.php?corpo=buscaImovelControle&idOrganismoAfiliado=1&referenteAnoImovelControle=1][Chrome]
[26-06-15][17:02:59][179.217.79.232][b3d94fe8.virtua.com.br][samuel.caldas][http://177.124.60.170:8087/painelDeControle.php?corpo=buscaImovelControle&idOrganismoAfiliado=1&referenteAnoImovelControle=-1][Chrome]
[26-06-15][17:03:04][179.217.79.232][b3d94fe8.virtua.com.br][samuel.caldas][http://177.124.60.170:8087/painelDeControle.php?corpo=buscaImovelControle&idOrganismoAfiliado=1&referenteAnoImovelControle=-10][Chrome]
[26-06-15][17:03:10][179.217.79.232][b3d94fe8.virtua.com.br][samuel.caldas][http://177.124.60.170:8087/painelDeControle.php?corpo=buscaImovelControle&idOrganismoAfiliado=1&referenteAnoImovelControle=-99999][Chrome]
[26-06-15][17:03:13][179.217.79.232][b3d94fe8.virtua.com.br][samuel.caldas][http://177.124.60.170:8087/painelDeControle.php?][Chrome]
[26-06-15][17:03:13][179.217.79.232][b3d94fe8.virtua.com.br][samuel.caldas][http://177.124.60.170:8087/painelDeControle.php?][Chrome]
[26-06-15][17:05:05][179.217.79.232][b3d94fe8.virtua.com.br][admin][http://177.124.60.170:8087/index.php?][Chrome]
[26-06-15][17:05:11][179.217.79.232][b3d94fe8.virtua.com.br][admin][http://177.124.60.170:8087/painelDeControle.php?][Chrome]
[26-06-15][17:05:11][179.217.79.232][b3d94fe8.virtua.com.br][admin][http://177.124.60.170:8087/painelDeControle.php?][Chrome]
[26-06-15][17:05:15][179.217.79.232][b3d94fe8.virtua.com.br][admin][http://177.124.60.170:8087/painelDeControle.php?corpo=buscaImovel][Chrome]
[26-06-15][17:05:15][179.217.79.232][b3d94fe8.virtua.com.br][admin][http://177.124.60.170:8087/painelDeControle.php?corpo=buscaImovel][Chrome]
[26-06-15][17:12:58][179.217.79.232][b3d94fe8.virtua.com.br][admin][http://177.124.60.170:8087/painelDeControle.php?corpo=buscaImovelControle&idOrganismoAfiliado=1][Chrome]
[26-06-15][17:13:13][179.217.79.232][b3d94fe8.virtua.com.br][samuel.caldas][http://177.124.60.170:8087/painelDeControle.php?][Chrome]
[26-06-15][17:13:13][179.217.79.232][b3d94fe8.virtua.com.br][samuel.caldas][http://177.124.60.170:8087/painelDeControle.php?][Chrome]
[26-06-15][17:13:16][179.217.79.232][b3d94fe8.virtua.com.br][samuel.caldas][http://177.124.60.170:8087/painelDeControle.php?corpo=buscaAtaReuniaoMensal][Chrome]
[26-06-15][17:13:16][179.217.79.232][b3d94fe8.virtua.com.br][samuel.caldas][http://177.124.60.170:8087/painelDeControle.php?corpo=buscaAtaReuniaoMensal][Chrome]
