[23-12-15][10:09:11][192.1.1.48][cpd3.datacenter.org][][http://soa.amorc.org.br/index.php?][Chrome]
[23-12-15][11:04:29][192.1.1.48][cpd3.datacenter.org][][http://soa.amorc.org.br/login.php?][Chrome]
[23-12-15][11:04:33][192.1.1.48][cpd3.datacenter.org][balv][http://soa.amorc.org.br/painelDeControle.php?][Chrome]
[23-12-15][11:04:33][192.1.1.48][cpd3.datacenter.org][balv][http://soa.amorc.org.br/painelDeControle.php?][Chrome]
[23-12-15][11:05:11][192.1.1.48][cpd3.datacenter.org][balv][http://soa.amorc.org.br/painelDeControle.php?corpo=buscaUsuario][Chrome]
[23-12-15][11:05:11][192.1.1.48][cpd3.datacenter.org][balv][http://soa.amorc.org.br/painelDeControle.php?corpo=buscaUsuario][Chrome]
[23-12-15][11:05:52][192.1.1.48][cpd3.datacenter.org][][http://soa.amorc.org.br/login.php?][Chrome]
[23-12-15][11:17:42][192.1.1.48][cpd3.datacenter.org][][http://soa.amorc.org.br/login.php?][Chrome]
[23-12-15][11:17:48][192.1.1.48][cpd3.datacenter.org][pped][http://soa.amorc.org.br/painelDeControle.php?][Chrome]
[23-12-15][11:17:48][192.1.1.48][cpd3.datacenter.org][pped][http://soa.amorc.org.br/painelDeControle.php?][Chrome]
[23-12-15][11:18:13][192.1.1.48][cpd3.datacenter.org][][http://soa.amorc.org.br/login.php?][Chrome]
[23-12-15][11:42:25][192.1.1.86][gravacao.datacenter.org][ttat][http://soa.amorc.org.br/painelDeControle.php?][Chrome]
[23-12-15][11:42:25][192.1.1.86][gravacao.datacenter.org][ttat][http://soa.amorc.org.br/painelDeControle.php?][Chrome]
[23-12-15][11:42:25][192.1.1.86][gravacao.datacenter.org][ttat][http://soa.amorc.org.br/index.php?][Chrome]
[23-12-15][11:42:25][192.1.1.86][gravacao.datacenter.org][ttat][http://soa.amorc.org.br/index.php?][Chrome]
[23-12-15][11:42:25][192.1.1.86][gravacao.datacenter.org][ttat][http://soa.amorc.org.br/index.php?][Chrome]
[23-12-15][11:42:25][192.1.1.86][gravacao.datacenter.org][ttat][http://soa.amorc.org.br/index.php?][Chrome]
[23-12-15][11:42:25][192.1.1.86][gravacao.datacenter.org][ttat][http://soa.amorc.org.br/index.php?][Chrome]
[23-12-15][11:42:25][192.1.1.86][gravacao.datacenter.org][ttat][http://soa.amorc.org.br/index.php?][Chrome]
[23-12-15][11:42:25][192.1.1.86][gravacao.datacenter.org][ttat][http://soa.amorc.org.br/index.php?][Chrome]
[23-12-15][13:23:12][192.1.1.48][cpd3.datacenter.org][balv][http://soa.amorc.org.br/painelDeControle.php?][Chrome]
[23-12-15][13:23:12][192.1.1.48][cpd3.datacenter.org][balv][http://soa.amorc.org.br/painelDeControle.php?][Chrome]
[23-12-15][13:23:12][192.1.1.48][cpd3.datacenter.org][balv][http://soa.amorc.org.br/index.php?][Chrome]
[23-12-15][14:18:15][192.1.1.96][bastos.datacenter.org][][http://soa.amorc.org.br/index.php?][Chrome]
