[14-07-15][08:30:44][179.184.37.5][179.184.37.5.static.gvt.net.br][][http://177.124.60.170:8087/index.php?][Chrome]
[14-07-15][08:30:57][179.184.37.5][179.184.37.5.static.gvt.net.br][wwil][http://177.124.60.170:8087/painelDeControle.php?][Chrome]
[14-07-15][08:30:57][179.184.37.5][179.184.37.5.static.gvt.net.br][wwil][http://177.124.60.170:8087/painelDeControle.php?][Chrome]
[14-07-15][08:31:04][179.184.37.5][179.184.37.5.static.gvt.net.br][wwil][http://177.124.60.170:8087/painelDeControle.php?corpo=buscaImovel][Chrome]
[14-07-15][08:31:04][179.184.37.5][179.184.37.5.static.gvt.net.br][wwil][http://177.124.60.170:8087/painelDeControle.php?corpo=buscaImovel][Chrome]
[14-07-15][08:31:14][179.184.37.5][179.184.37.5.static.gvt.net.br][wwil][http://177.124.60.170:8087/painelDeControle.php?][Chrome]
[14-07-15][08:31:14][179.184.37.5][179.184.37.5.static.gvt.net.br][wwil][http://177.124.60.170:8087/painelDeControle.php?][Chrome]
[14-07-15][08:31:21][179.184.37.5][179.184.37.5.static.gvt.net.br][wwil][http://177.124.60.170:8087/painelDeControle.php?corpo=buscaImovel][Chrome]
[14-07-15][08:31:21][179.184.37.5][179.184.37.5.static.gvt.net.br][wwil][http://177.124.60.170:8087/painelDeControle.php?corpo=buscaImovel][Chrome]
[14-07-15][08:31:23][179.184.37.5][179.184.37.5.static.gvt.net.br][wwil][http://177.124.60.170:8087/painelDeControle.php?corpo=cadastroImovel][Chrome]
[14-07-15][08:31:23][179.184.37.5][179.184.37.5.static.gvt.net.br][wwil][http://177.124.60.170:8087/painelDeControle.php?corpo=cadastroImovel][Chrome]
[14-07-15][08:39:30][179.184.37.5][179.184.37.5.static.gvt.net.br][wwil][http://177.124.60.170:8087/painelDeControle.php?corpo=buscaImovel][Chrome]
[14-07-15][08:39:30][179.184.37.5][179.184.37.5.static.gvt.net.br][wwil][http://177.124.60.170:8087/painelDeControle.php?corpo=buscaImovel][Chrome]
[14-07-15][08:39:38][179.184.37.5][179.184.37.5.static.gvt.net.br][wwil][http://177.124.60.170:8087/painelDeControle.php?corpo=buscaImovelControle&idOrganismoAfiliado=242][Chrome]
[14-07-15][08:39:40][179.184.37.5][179.184.37.5.static.gvt.net.br][wwil][http://177.124.60.170:8087/painelDeControle.php?corpo=cadastroImovelControle][Chrome]
[14-07-15][08:41:59][179.184.37.5][179.184.37.5.static.gvt.net.br][][http://177.124.60.170:8087/index.php?][Chrome]
[14-07-15][08:42:06][179.184.37.5][179.184.37.5.static.gvt.net.br][][http://177.124.60.170:8087/index.php?][Chrome]
[14-07-15][08:42:09][179.184.37.5][179.184.37.5.static.gvt.net.br][eele][http://177.124.60.170:8087/painelDeControle.php?][Chrome]
[14-07-15][08:42:09][179.184.37.5][179.184.37.5.static.gvt.net.br][eele][http://177.124.60.170:8087/painelDeControle.php?][Chrome]
[14-07-15][08:42:18][179.184.37.5][179.184.37.5.static.gvt.net.br][eele][http://177.124.60.170:8087/painelDeControle.php?corpo=buscaOficial][Chrome]
[14-07-15][08:42:18][179.184.37.5][179.184.37.5.static.gvt.net.br][eele][http://177.124.60.170:8087/painelDeControle.php?corpo=buscaOficial][Chrome]
[14-07-15][08:42:24][179.184.37.5][179.184.37.5.static.gvt.net.br][eele][http://177.124.60.170:8087/painelDeControle.php?corpo=atualizaQuadroOficiais][Chrome]
[14-07-15][08:42:24][179.184.37.5][179.184.37.5.static.gvt.net.br][eele][http://177.124.60.170:8087/painelDeControle.php?corpo=atualizaQuadroOficiais][Chrome]
[14-07-15][08:45:05][179.184.37.5][179.184.37.5.static.gvt.net.br][eele][http://177.124.60.170:8087/painelDeControle.php?corpo=buscaOficial][Chrome]
[14-07-15][08:45:05][179.184.37.5][179.184.37.5.static.gvt.net.br][eele][http://177.124.60.170:8087/painelDeControle.php?corpo=buscaOficial][Chrome]
[14-07-15][08:45:55][179.184.37.5][179.184.37.5.static.gvt.net.br][eele][http://177.124.60.170:8087/painelDeControle.php?corpo=buscaOficial&listarAtuantes=1][Chrome]
[14-07-15][08:45:55][179.184.37.5][179.184.37.5.static.gvt.net.br][eele][http://177.124.60.170:8087/painelDeControle.php?corpo=buscaOficial&listarAtuantes=1][Chrome]
[14-07-15][08:47:33][179.184.37.5][179.184.37.5.static.gvt.net.br][eele][http://177.124.60.170:8087/painelDeControle.php?corpo=atualizaQuadroOficiais][Chrome]
[14-07-15][08:47:33][179.184.37.5][179.184.37.5.static.gvt.net.br][eele][http://177.124.60.170:8087/painelDeControle.php?corpo=atualizaQuadroOficiais][Chrome]
[14-07-15][08:50:10][179.184.37.5][179.184.37.5.static.gvt.net.br][eele][http://177.124.60.170:8087/painelDeControle.php?corpo=buscaOficial][Chrome]
[14-07-15][08:50:10][179.184.37.5][179.184.37.5.static.gvt.net.br][eele][http://177.124.60.170:8087/painelDeControle.php?corpo=buscaOficial][Chrome]
[14-07-15][08:51:13][179.184.37.5][179.184.37.5.static.gvt.net.br][eele][http://177.124.60.170:8087/painelDeControle.php?corpo=buscaOficial][Chrome]
[14-07-15][08:51:13][179.184.37.5][179.184.37.5.static.gvt.net.br][eele][http://177.124.60.170:8087/painelDeControle.php?corpo=buscaOficial][Chrome]
[14-07-15][08:51:38][179.184.37.5][179.184.37.5.static.gvt.net.br][eele][http://177.124.60.170:8087/painelDeControle.php?corpo=atualizaQuadroOficiais][Chrome]
[14-07-15][08:51:38][179.184.37.5][179.184.37.5.static.gvt.net.br][eele][http://177.124.60.170:8087/painelDeControle.php?corpo=atualizaQuadroOficiais][Chrome]
[14-07-15][08:56:57][179.184.37.5][179.184.37.5.static.gvt.net.br][eele][http://177.124.60.170:8087/painelDeControle.php?corpo=buscaOficial][Chrome]
[14-07-15][08:56:57][179.184.37.5][179.184.37.5.static.gvt.net.br][eele][http://177.124.60.170:8087/painelDeControle.php?corpo=buscaOficial][Chrome]
[14-07-15][08:57:02][179.184.37.5][179.184.37.5.static.gvt.net.br][eele][http://177.124.60.170:8087/painelDeControle.php?corpo=buscaOficial][Chrome]
[14-07-15][08:57:02][179.184.37.5][179.184.37.5.static.gvt.net.br][eele][http://177.124.60.170:8087/painelDeControle.php?corpo=buscaOficial][Chrome]
[14-07-15][08:57:18][179.184.37.5][179.184.37.5.static.gvt.net.br][][http://177.124.60.170:8087/index.php?][Chrome]
[14-07-15][08:57:21][179.184.37.5][179.184.37.5.static.gvt.net.br][carol][http://177.124.60.170:8087/painelDeControle.php?][Chrome]
[14-07-15][08:57:21][179.184.37.5][179.184.37.5.static.gvt.net.br][carol][http://177.124.60.170:8087/painelDeControle.php?][Chrome]
[14-07-15][08:57:27][179.184.37.5][179.184.37.5.static.gvt.net.br][eele][http://177.124.60.170:8087/painelDeControle.php?corpo=buscaOficial][Chrome]
[14-07-15][08:57:27][179.184.37.5][179.184.37.5.static.gvt.net.br][eele][http://177.124.60.170:8087/painelDeControle.php?corpo=buscaOficial][Chrome]
[14-07-15][08:57:31][179.184.37.5][179.184.37.5.static.gvt.net.br][carol][http://177.124.60.170:8087/painelDeControle.php?corpo=buscaFuncao][Chrome]
[14-07-15][08:57:31][179.184.37.5][179.184.37.5.static.gvt.net.br][carol][http://177.124.60.170:8087/painelDeControle.php?corpo=buscaFuncao][Chrome]
[14-07-15][08:57:33][179.184.37.5][179.184.37.5.static.gvt.net.br][carol][http://177.124.60.170:8087/painelDeControle.php?corpo=cadastroFuncao][Chrome]
[14-07-15][08:57:33][179.184.37.5][179.184.37.5.static.gvt.net.br][carol][http://177.124.60.170:8087/painelDeControle.php?corpo=cadastroFuncao][Chrome]
[14-07-15][08:57:39][179.184.37.5][179.184.37.5.static.gvt.net.br][carol][http://177.124.60.170:8087/painelDeControle.php?corpo=buscaOficial][Chrome]
[14-07-15][08:57:39][179.184.37.5][179.184.37.5.static.gvt.net.br][carol][http://177.124.60.170:8087/painelDeControle.php?corpo=buscaOficial][Chrome]
[14-07-15][08:57:39][179.184.37.5][179.184.37.5.static.gvt.net.br][carol][http://177.124.60.170:8087/painelDeControle.php?corpo=atualizaQuadroOficiais][Chrome]
[14-07-15][08:57:39][179.184.37.5][179.184.37.5.static.gvt.net.br][carol][http://177.124.60.170:8087/painelDeControle.php?corpo=atualizaQuadroOficiais][Chrome]
[14-07-15][08:59:20][179.184.37.5][179.184.37.5.static.gvt.net.br][carol][http://177.124.60.170:8087/painelDeControle.php?corpo=buscaOficial][Chrome]
[14-07-15][08:59:20][179.184.37.5][179.184.37.5.static.gvt.net.br][carol][http://177.124.60.170:8087/painelDeControle.php?corpo=buscaOficial][Chrome]
[14-07-15][08:59:33][179.184.37.5][179.184.37.5.static.gvt.net.br][carol][http://177.124.60.170:8087/painelDeControle.php?corpo=buscaOficial][Chrome]
[14-07-15][08:59:33][179.184.37.5][179.184.37.5.static.gvt.net.br][carol][http://177.124.60.170:8087/painelDeControle.php?corpo=buscaOficial][Chrome]
[14-07-15][08:59:35][179.184.37.5][179.184.37.5.static.gvt.net.br][eele][http://177.124.60.170:8087/painelDeControle.php?corpo=buscaOficial][Chrome]
[14-07-15][08:59:35][179.184.37.5][179.184.37.5.static.gvt.net.br][eele][http://177.124.60.170:8087/painelDeControle.php?corpo=buscaOficial][Chrome]
[14-07-15][09:06:04][179.184.37.5][179.184.37.5.static.gvt.net.br][][http://177.124.60.170:8087/index.php?][Chrome]
[14-07-15][09:06:06][179.184.37.5][179.184.37.5.static.gvt.net.br][lbas][http://177.124.60.170:8087/painelDeControle.php?][Chrome]
[14-07-15][09:06:06][179.184.37.5][179.184.37.5.static.gvt.net.br][lbas][http://177.124.60.170:8087/painelDeControle.php?][Chrome]
[14-07-15][09:06:16][179.184.37.5][179.184.37.5.static.gvt.net.br][lbas][http://177.124.60.170:8087/painelDeControle.php?corpo=buscaOficial][Chrome]
[14-07-15][09:06:16][179.184.37.5][179.184.37.5.static.gvt.net.br][lbas][http://177.124.60.170:8087/painelDeControle.php?corpo=buscaOficial][Chrome]
[14-07-15][09:06:16][179.184.37.5][179.184.37.5.static.gvt.net.br][lbas][http://177.124.60.170:8087/painelDeControle.php?corpo=atualizaQuadroOficiais][Chrome]
[14-07-15][09:06:16][179.184.37.5][179.184.37.5.static.gvt.net.br][lbas][http://177.124.60.170:8087/painelDeControle.php?corpo=atualizaQuadroOficiais][Chrome]
[14-07-15][09:12:22][179.184.37.5][179.184.37.5.static.gvt.net.br][lbas][http://177.124.60.170:8087/painelDeControle.php?][Chrome]
[14-07-15][09:12:22][179.184.37.5][179.184.37.5.static.gvt.net.br][lbas][http://177.124.60.170:8087/painelDeControle.php?][Chrome]
[14-07-15][09:12:28][179.184.37.5][179.184.37.5.static.gvt.net.br][lbas][http://177.124.60.170:8087/painelDeControle.php?corpo=buscaOficial][Chrome]
[14-07-15][09:12:28][179.184.37.5][179.184.37.5.static.gvt.net.br][lbas][http://177.124.60.170:8087/painelDeControle.php?corpo=buscaOficial][Chrome]
[14-07-15][09:12:29][179.184.37.5][179.184.37.5.static.gvt.net.br][lbas][http://177.124.60.170:8087/painelDeControle.php?corpo=atualizaQuadroOficiais][Chrome]
[14-07-15][09:12:29][179.184.37.5][179.184.37.5.static.gvt.net.br][lbas][http://177.124.60.170:8087/painelDeControle.php?corpo=atualizaQuadroOficiais][Chrome]
[14-07-15][09:13:53][179.184.37.5][179.184.37.5.static.gvt.net.br][lbas][http://177.124.60.170:8087/painelDeControle.php?corpo=buscaOficial][Chrome]
[14-07-15][09:13:53][179.184.37.5][179.184.37.5.static.gvt.net.br][lbas][http://177.124.60.170:8087/painelDeControle.php?corpo=buscaOficial][Chrome]
[14-07-15][09:15:33][179.184.37.5][179.184.37.5.static.gvt.net.br][lbas][http://177.124.60.170:8087/painelDeControle.php?corpo=buscaOficial&listarAtuantes=1][Chrome]
[14-07-15][09:15:33][179.184.37.5][179.184.37.5.static.gvt.net.br][lbas][http://177.124.60.170:8087/painelDeControle.php?corpo=buscaOficial&listarAtuantes=1][Chrome]
[14-07-15][09:15:50][179.184.37.5][179.184.37.5.static.gvt.net.br][lbas][http://177.124.60.170:8087/painelDeControle.php?corpo=atualizaQuadroOficiais][Chrome]
[14-07-15][09:15:50][179.184.37.5][179.184.37.5.static.gvt.net.br][lbas][http://177.124.60.170:8087/painelDeControle.php?corpo=atualizaQuadroOficiais][Chrome]
[14-07-15][09:16:00][179.184.37.5][179.184.37.5.static.gvt.net.br][lbas][http://177.124.60.170:8087/painelDeControle.php?corpo=buscaOficial][Chrome]
[14-07-15][09:16:00][179.184.37.5][179.184.37.5.static.gvt.net.br][lbas][http://177.124.60.170:8087/painelDeControle.php?corpo=buscaOficial][Chrome]
[14-07-15][09:16:00][179.184.37.5][179.184.37.5.static.gvt.net.br][lbas][http://177.124.60.170:8087/painelDeControle.php?corpo=buscaOficial&listarAtuantes=1][Chrome]
[14-07-15][09:16:00][179.184.37.5][179.184.37.5.static.gvt.net.br][lbas][http://177.124.60.170:8087/painelDeControle.php?corpo=buscaOficial&listarAtuantes=1][Chrome]
[14-07-15][09:16:12][179.184.37.5][179.184.37.5.static.gvt.net.br][lbas][http://177.124.60.170:8087/painelDeControle.php?corpo=atualizaQuadroOficiais][Chrome]
[14-07-15][09:16:12][179.184.37.5][179.184.37.5.static.gvt.net.br][lbas][http://177.124.60.170:8087/painelDeControle.php?corpo=atualizaQuadroOficiais][Chrome]
[14-07-15][09:17:31][179.184.37.5][179.184.37.5.static.gvt.net.br][lbas][http://177.124.60.170:8087/painelDeControle.php?corpo=buscaOficial][Chrome]
[14-07-15][09:17:31][179.184.37.5][179.184.37.5.static.gvt.net.br][lbas][http://177.124.60.170:8087/painelDeControle.php?corpo=buscaOficial][Chrome]
[14-07-15][09:17:34][179.184.37.5][179.184.37.5.static.gvt.net.br][lbas][http://177.124.60.170:8087/painelDeControle.php?corpo=buscaOficial&listarAtuantes=1][Chrome]
[14-07-15][09:17:34][179.184.37.5][179.184.37.5.static.gvt.net.br][lbas][http://177.124.60.170:8087/painelDeControle.php?corpo=buscaOficial&listarAtuantes=1][Chrome]
[14-07-15][09:17:41][179.184.37.5][179.184.37.5.static.gvt.net.br][lbas][http://177.124.60.170:8087/painelDeControle.php?corpo=buscaOficial&listarNaoAtuantes=1][Chrome]
[14-07-15][09:17:41][179.184.37.5][179.184.37.5.static.gvt.net.br][lbas][http://177.124.60.170:8087/painelDeControle.php?corpo=buscaOficial&listarNaoAtuantes=1][Chrome]
[14-07-15][09:18:54][179.184.37.5][179.184.37.5.static.gvt.net.br][lbas][http://177.124.60.170:8087/painelDeControle.php?corpo=atualizaQuadroOficiais][Chrome]
[14-07-15][09:18:54][179.184.37.5][179.184.37.5.static.gvt.net.br][lbas][http://177.124.60.170:8087/painelDeControle.php?corpo=atualizaQuadroOficiais][Chrome]
[14-07-15][09:19:45][179.184.37.5][179.184.37.5.static.gvt.net.br][lbas][http://177.124.60.170:8087/painelDeControle.php?corpo=buscaOficial][Chrome]
[14-07-15][09:19:45][179.184.37.5][179.184.37.5.static.gvt.net.br][lbas][http://177.124.60.170:8087/painelDeControle.php?corpo=buscaOficial][Chrome]
[14-07-15][09:20:06][179.184.37.5][179.184.37.5.static.gvt.net.br][lbas][http://177.124.60.170:8087/painelDeControle.php?corpo=buscaOficial&listarNaoAtuantes=1][Chrome]
[14-07-15][09:20:06][179.184.37.5][179.184.37.5.static.gvt.net.br][lbas][http://177.124.60.170:8087/painelDeControle.php?corpo=buscaOficial&listarNaoAtuantes=1][Chrome]
[14-07-15][09:20:55][179.184.37.5][179.184.37.5.static.gvt.net.br][lbas][http://177.124.60.170:8087/painelDeControle.php?corpo=atualizaQuadroOficiais][Chrome]
[14-07-15][09:20:55][179.184.37.5][179.184.37.5.static.gvt.net.br][lbas][http://177.124.60.170:8087/painelDeControle.php?corpo=atualizaQuadroOficiais][Chrome]
[14-07-15][09:40:23][179.184.37.5][179.184.37.5.static.gvt.net.br][lbas][http://177.124.60.170:8087/login.php?][Chrome]
[14-07-15][09:40:26][179.184.37.5][179.184.37.5.static.gvt.net.br][lbas][http://177.124.60.170:8087/painelDeControle.php?][Chrome]
[14-07-15][09:40:26][179.184.37.5][179.184.37.5.static.gvt.net.br][lbas][http://177.124.60.170:8087/painelDeControle.php?][Chrome]
[14-07-15][09:40:37][179.184.37.5][179.184.37.5.static.gvt.net.br][lbas][http://177.124.60.170:8087/painelDeControle.php?][Chrome]
[14-07-15][09:40:37][179.184.37.5][179.184.37.5.static.gvt.net.br][lbas][http://177.124.60.170:8087/painelDeControle.php?][Chrome]
[14-07-15][09:40:51][179.184.37.5][179.184.37.5.static.gvt.net.br][lbas][http://177.124.60.170:8087/painelDeControle.php?corpo=buscaOficial][Chrome]
[14-07-15][09:40:51][179.184.37.5][179.184.37.5.static.gvt.net.br][lbas][http://177.124.60.170:8087/painelDeControle.php?corpo=buscaOficial][Chrome]
[14-07-15][09:40:51][179.184.37.5][179.184.37.5.static.gvt.net.br][lbas][http://177.124.60.170:8087/painelDeControle.php?corpo=atualizaQuadroOficiais][Chrome]
[14-07-15][09:40:51][179.184.37.5][179.184.37.5.static.gvt.net.br][lbas][http://177.124.60.170:8087/painelDeControle.php?corpo=atualizaQuadroOficiais][Chrome]
[14-07-15][09:43:17][179.184.37.5][179.184.37.5.static.gvt.net.br][lbas][http://177.124.60.170:8087/painelDeControle.php?corpo=buscaOficial][Chrome]
[14-07-15][09:43:17][179.184.37.5][179.184.37.5.static.gvt.net.br][lbas][http://177.124.60.170:8087/painelDeControle.php?corpo=buscaOficial][Chrome]
[14-07-15][09:45:10][179.184.37.5][179.184.37.5.static.gvt.net.br][lbas][http://177.124.60.170:8087/painelDeControle.php?corpo=atualizaQuadroOficiais][Chrome]
[14-07-15][09:45:10][179.184.37.5][179.184.37.5.static.gvt.net.br][lbas][http://177.124.60.170:8087/painelDeControle.php?corpo=atualizaQuadroOficiais][Chrome]
[14-07-15][09:46:22][179.184.37.5][179.184.37.5.static.gvt.net.br][lbas][http://177.124.60.170:8087/painelDeControle.php?corpo=buscaOficial][Chrome]
[14-07-15][09:46:22][179.184.37.5][179.184.37.5.static.gvt.net.br][lbas][http://177.124.60.170:8087/painelDeControle.php?corpo=buscaOficial][Chrome]
[14-07-15][09:46:35][179.184.37.5][179.184.37.5.static.gvt.net.br][lbas][http://177.124.60.170:8087/painelDeControle.php?corpo=atualizaQuadroOficiais][Chrome]
[14-07-15][09:46:35][179.184.37.5][179.184.37.5.static.gvt.net.br][lbas][http://177.124.60.170:8087/painelDeControle.php?corpo=atualizaQuadroOficiais][Chrome]
[14-07-15][09:48:04][179.184.37.5][179.184.37.5.static.gvt.net.br][lbas][http://177.124.60.170:8087/painelDeControle.php?corpo=buscaOficial][Chrome]
[14-07-15][09:48:04][179.184.37.5][179.184.37.5.static.gvt.net.br][lbas][http://177.124.60.170:8087/painelDeControle.php?corpo=buscaOficial][Chrome]
[14-07-15][09:48:41][179.184.37.5][179.184.37.5.static.gvt.net.br][lbas][http://177.124.60.170:8087/painelDeControle.php?corpo=buscaOficial&listarAtuantes=1][Chrome]
[14-07-15][09:48:41][179.184.37.5][179.184.37.5.static.gvt.net.br][lbas][http://177.124.60.170:8087/painelDeControle.php?corpo=buscaOficial&listarAtuantes=1][Chrome]
[14-07-15][09:49:50][179.184.37.5][179.184.37.5.static.gvt.net.br][lbas][http://177.124.60.170:8087/painelDeControle.php?corpo=atualizaQuadroOficiais][Chrome]
[14-07-15][09:49:50][179.184.37.5][179.184.37.5.static.gvt.net.br][lbas][http://177.124.60.170:8087/painelDeControle.php?corpo=atualizaQuadroOficiais][Chrome]
[14-07-15][09:50:52][179.184.37.5][179.184.37.5.static.gvt.net.br][lbas][http://177.124.60.170:8087/login.php?][Chrome]
[14-07-15][09:53:09][179.184.37.5][179.184.37.5.static.gvt.net.br][lbas][http://177.124.60.170:8087/login.php?][Chrome]
[14-07-15][09:53:18][179.184.37.5][179.184.37.5.static.gvt.net.br][ffla][http://177.124.60.170:8087/painelDeControle.php?][Chrome]
[14-07-15][09:53:18][179.184.37.5][179.184.37.5.static.gvt.net.br][ffla][http://177.124.60.170:8087/painelDeControle.php?][Chrome]
[14-07-15][09:53:23][179.184.37.5][179.184.37.5.static.gvt.net.br][ffla][http://177.124.60.170:8087/painelDeControle.php?corpo=perfilUsuario][Chrome]
[14-07-15][09:53:23][179.184.37.5][179.184.37.5.static.gvt.net.br][ffla][http://177.124.60.170:8087/painelDeControle.php?corpo=perfilUsuario][Chrome]
[14-07-15][09:53:39][179.184.37.5][179.184.37.5.static.gvt.net.br][ffla][http://177.124.60.170:8087/painelDeControle.php?][Chrome]
[14-07-15][09:53:39][179.184.37.5][179.184.37.5.static.gvt.net.br][ffla][http://177.124.60.170:8087/painelDeControle.php?][Chrome]
[14-07-15][09:54:07][179.184.37.5][179.184.37.5.static.gvt.net.br][ffla][http://177.124.60.170:8087/login.php?][Chrome]
[14-07-15][09:54:10][179.184.37.5][179.184.37.5.static.gvt.net.br][lbas][http://177.124.60.170:8087/painelDeControle.php?][Chrome]
[14-07-15][09:54:10][179.184.37.5][179.184.37.5.static.gvt.net.br][lbas][http://177.124.60.170:8087/painelDeControle.php?][Chrome]
[14-07-15][09:54:21][179.184.37.5][179.184.37.5.static.gvt.net.br][lbas][http://177.124.60.170:8087/painelDeControle.php?corpo=buscaPermissao][Chrome]
[14-07-15][09:54:21][179.184.37.5][179.184.37.5.static.gvt.net.br][lbas][http://177.124.60.170:8087/painelDeControle.php?corpo=buscaPermissao][Chrome]
[14-07-15][09:55:34][179.184.37.5][179.184.37.5.static.gvt.net.br][lbas][http://177.124.60.170:8087/login.php?][Chrome]
[14-07-15][09:55:40][179.184.37.5][179.184.37.5.static.gvt.net.br][ffla][http://177.124.60.170:8087/painelDeControle.php?][Chrome]
[14-07-15][09:55:40][179.184.37.5][179.184.37.5.static.gvt.net.br][ffla][http://177.124.60.170:8087/painelDeControle.php?][Chrome]
[14-07-15][09:55:43][179.184.37.5][179.184.37.5.static.gvt.net.br][ffla][http://177.124.60.170:8087/painelDeControle.php?corpo=perfilUsuario][Chrome]
[14-07-15][09:55:43][179.184.37.5][179.184.37.5.static.gvt.net.br][ffla][http://177.124.60.170:8087/painelDeControle.php?corpo=perfilUsuario][Chrome]
[14-07-15][09:55:46][179.184.37.5][179.184.37.5.static.gvt.net.br][ffla][http://177.124.60.170:8087/login.php?][Chrome]
[14-07-15][09:55:49][179.184.37.5][179.184.37.5.static.gvt.net.br][lbas][http://177.124.60.170:8087/painelDeControle.php?][Chrome]
[14-07-15][09:55:49][179.184.37.5][179.184.37.5.static.gvt.net.br][lbas][http://177.124.60.170:8087/painelDeControle.php?][Chrome]
[14-07-15][09:55:53][179.184.37.5][179.184.37.5.static.gvt.net.br][lbas][http://177.124.60.170:8087/painelDeControle.php?corpo=buscaDepartamento][Chrome]
[14-07-15][09:55:53][179.184.37.5][179.184.37.5.static.gvt.net.br][lbas][http://177.124.60.170:8087/painelDeControle.php?corpo=buscaDepartamento][Chrome]
[14-07-15][09:55:55][179.184.37.5][179.184.37.5.static.gvt.net.br][lbas][http://177.124.60.170:8087/painelDeControle.php?corpo=buscaNivelDePermissao][Chrome]
[14-07-15][09:55:55][179.184.37.5][179.184.37.5.static.gvt.net.br][lbas][http://177.124.60.170:8087/painelDeControle.php?corpo=buscaNivelDePermissao][Chrome]
[14-07-15][09:55:58][179.184.37.5][179.184.37.5.static.gvt.net.br][lbas][http://177.124.60.170:8087/painelDeControle.php?corpo=buscaPermissao][Chrome]
[14-07-15][09:55:58][179.184.37.5][179.184.37.5.static.gvt.net.br][lbas][http://177.124.60.170:8087/painelDeControle.php?corpo=buscaPermissao][Chrome]
[14-07-15][09:56:26][179.184.37.5][179.184.37.5.static.gvt.net.br][lbas][http://177.124.60.170:8087/login.php?][Chrome]
[14-07-15][09:56:33][179.184.37.5][179.184.37.5.static.gvt.net.br][ffla][http://177.124.60.170:8087/painelDeControle.php?][Chrome]
[14-07-15][09:56:33][179.184.37.5][179.184.37.5.static.gvt.net.br][ffla][http://177.124.60.170:8087/painelDeControle.php?][Chrome]
[14-07-15][09:56:47][179.184.37.5][179.184.37.5.static.gvt.net.br][ffla][http://177.124.60.170:8087/login.php?][Chrome]
[14-07-15][09:56:50][179.184.37.5][179.184.37.5.static.gvt.net.br][lbas][http://177.124.60.170:8087/painelDeControle.php?][Chrome]
[14-07-15][09:56:50][179.184.37.5][179.184.37.5.static.gvt.net.br][lbas][http://177.124.60.170:8087/painelDeControle.php?][Chrome]
[14-07-15][09:56:56][179.184.37.5][179.184.37.5.static.gvt.net.br][lbas][http://177.124.60.170:8087/painelDeControle.php?corpo=buscaPermissao][Chrome]
[14-07-15][09:56:56][179.184.37.5][179.184.37.5.static.gvt.net.br][lbas][http://177.124.60.170:8087/painelDeControle.php?corpo=buscaPermissao][Chrome]
[14-07-15][09:58:02][179.184.37.5][179.184.37.5.static.gvt.net.br][lbas][http://177.124.60.170:8087/painelDeControle.php?corpo=buscaMembroOA][Chrome]
[14-07-15][09:58:02][179.184.37.5][179.184.37.5.static.gvt.net.br][lbas][http://177.124.60.170:8087/painelDeControle.php?corpo=buscaMembroOA][Chrome]
[14-07-15][09:59:38][179.184.37.5][179.184.37.5.static.gvt.net.br][lbas][http://177.124.60.170:8087/painelDeControle.php?corpo=buscaOficial][Chrome]
[14-07-15][09:59:38][179.184.37.5][179.184.37.5.static.gvt.net.br][lbas][http://177.124.60.170:8087/painelDeControle.php?corpo=buscaOficial][Chrome]
[14-07-15][09:59:39][179.184.37.5][179.184.37.5.static.gvt.net.br][lbas][http://177.124.60.170:8087/painelDeControle.php?corpo=atualizaQuadroOficiais][Chrome]
[14-07-15][09:59:39][179.184.37.5][179.184.37.5.static.gvt.net.br][lbas][http://177.124.60.170:8087/painelDeControle.php?corpo=atualizaQuadroOficiais][Chrome]
[14-07-15][10:06:46][179.184.37.5][179.184.37.5.static.gvt.net.br][lbas][http://177.124.60.170:8087/painelDeControle.php?corpo=buscaPermissao][Chrome]
[14-07-15][10:06:46][179.184.37.5][179.184.37.5.static.gvt.net.br][lbas][http://177.124.60.170:8087/painelDeControle.php?corpo=buscaPermissao][Chrome]
[14-07-15][10:06:54][179.184.37.5][179.184.37.5.static.gvt.net.br][lbas][http://177.124.60.170:8087/login.php?][Chrome]
[14-07-15][10:07:01][179.184.37.5][179.184.37.5.static.gvt.net.br][eele][http://177.124.60.170:8087/painelDeControle.php?][Chrome]
[14-07-15][10:07:01][179.184.37.5][179.184.37.5.static.gvt.net.br][eele][http://177.124.60.170:8087/painelDeControle.php?][Chrome]
[14-07-15][10:07:05][179.184.37.5][179.184.37.5.static.gvt.net.br][eele][http://177.124.60.170:8087/painelDeControle.php?corpo=perfilUsuario][Chrome]
[14-07-15][10:07:05][179.184.37.5][179.184.37.5.static.gvt.net.br][eele][http://177.124.60.170:8087/painelDeControle.php?corpo=perfilUsuario][Chrome]
[14-07-15][10:07:09][179.184.37.5][179.184.37.5.static.gvt.net.br][eele][http://177.124.60.170:8087/login.php?][Chrome]
[14-07-15][10:23:09][179.184.37.5][179.184.37.5.static.gvt.net.br][lbas][http://177.124.60.170:8087/painelDeControle.php?][Chrome]
[14-07-15][10:23:09][179.184.37.5][179.184.37.5.static.gvt.net.br][lbas][http://177.124.60.170:8087/painelDeControle.php?][Chrome]
[14-07-15][10:23:18][179.184.37.5][179.184.37.5.static.gvt.net.br][lbas][http://177.124.60.170:8087/painelDeControle.php?corpo=buscaOficial][Chrome]
[14-07-15][10:23:18][179.184.37.5][179.184.37.5.static.gvt.net.br][lbas][http://177.124.60.170:8087/painelDeControle.php?corpo=buscaOficial][Chrome]
[14-07-15][10:23:18][179.184.37.5][179.184.37.5.static.gvt.net.br][lbas][http://177.124.60.170:8087/painelDeControle.php?corpo=atualizaQuadroOficiais][Chrome]
[14-07-15][10:23:18][179.184.37.5][179.184.37.5.static.gvt.net.br][lbas][http://177.124.60.170:8087/painelDeControle.php?corpo=atualizaQuadroOficiais][Chrome]
[14-07-15][10:49:32][179.184.37.5][179.184.37.5.static.gvt.net.br][lbas][http://177.124.60.170:8087/index.php?][Chrome]
[14-07-15][11:12:24][179.184.37.5][179.184.37.5.static.gvt.net.br][][http://177.124.60.170:8087/index.php?][Chrome]
[14-07-15][11:12:32][179.184.37.5][179.184.37.5.static.gvt.net.br][samuel.caldas][http://177.124.60.170:8087/painelDeControle.php?][Chrome]
[14-07-15][11:12:32][179.184.37.5][179.184.37.5.static.gvt.net.br][samuel.caldas][http://177.124.60.170:8087/painelDeControle.php?][Chrome]
[14-07-15][11:13:51][179.184.37.5][179.184.37.5.static.gvt.net.br][samuel.caldas][http://177.124.60.170:8087/painelDeControle.php?corpo=buscaMensalidadeOA][Chrome]
[14-07-15][11:13:51][179.184.37.5][179.184.37.5.static.gvt.net.br][samuel.caldas][http://177.124.60.170:8087/painelDeControle.php?corpo=buscaMensalidadeOA][Chrome]
[14-07-15][11:13:55][179.184.37.5][179.184.37.5.static.gvt.net.br][samuel.caldas][http://177.124.60.170:8087/painelDeControle.php?corpo=buscaRelatorioMensalFinanceiro][Chrome]
[14-07-15][11:14:01][179.184.37.5][179.184.37.5.static.gvt.net.br][samuel.caldas][http://177.124.60.170:8087/painelDeControle.php?corpo=buscaRelatorioAnualFinanceiro][Chrome]
[14-07-15][11:14:11][179.184.37.5][179.184.37.5.static.gvt.net.br][samuel.caldas][http://177.124.60.170:8087/painelDeControle.php?corpo=buscaRelatorioAnualFinanceiro&anoAtual=2014][Chrome]
[14-07-15][11:14:14][179.184.37.5][179.184.37.5.static.gvt.net.br][samuel.caldas][http://177.124.60.170:8087/painelDeControle.php?corpo=buscaRelatorioAnualFinanceiro&anoAtual=2015][Chrome]
[14-07-15][11:14:20][179.184.37.5][179.184.37.5.static.gvt.net.br][samuel.caldas][http://177.124.60.170:8087/painelDeControle.php?corpo=buscaSaldoInicial][Chrome]
[14-07-15][11:14:20][179.184.37.5][179.184.37.5.static.gvt.net.br][samuel.caldas][http://177.124.60.170:8087/painelDeControle.php?corpo=buscaSaldoInicial][Chrome]
[14-07-15][11:14:21][179.184.37.5][179.184.37.5.static.gvt.net.br][samuel.caldas][http://177.124.60.170:8087/painelDeControle.php?corpo=buscaRecebimentos][Chrome]
[14-07-15][11:14:25][179.184.37.5][179.184.37.5.static.gvt.net.br][samuel.caldas][http://177.124.60.170:8087/painelDeControle.php?][Chrome]
[14-07-15][11:14:25][179.184.37.5][179.184.37.5.static.gvt.net.br][samuel.caldas][http://177.124.60.170:8087/painelDeControle.php?][Chrome]
[14-07-15][11:14:28][179.184.37.5][179.184.37.5.static.gvt.net.br][samuel.caldas][http://177.124.60.170:8087/painelDeControle.php?corpo=buscaSaldoInicial][Chrome]
[14-07-15][11:14:28][179.184.37.5][179.184.37.5.static.gvt.net.br][samuel.caldas][http://177.124.60.170:8087/painelDeControle.php?corpo=buscaSaldoInicial][Chrome]
[14-07-15][11:14:34][179.184.37.5][179.184.37.5.static.gvt.net.br][samuel.caldas][http://177.124.60.170:8087/painelDeControle.php?][Chrome]
[14-07-15][11:14:34][179.184.37.5][179.184.37.5.static.gvt.net.br][samuel.caldas][http://177.124.60.170:8087/painelDeControle.php?][Chrome]
[14-07-15][11:15:28][179.184.37.5][179.184.37.5.static.gvt.net.br][samuel.caldas][http://177.124.60.170:8087/painelDeControle.php?corpo=buscaRelatorioMensalFinanceiro][Chrome]
[14-07-15][11:15:30][179.184.37.5][179.184.37.5.static.gvt.net.br][samuel.caldas][http://177.124.60.170:8087/painelDeControle.php?corpo=buscaRelatorioMensalFinanceiro&mesAtual=06&anoAtual=2015][Chrome]
[14-07-15][11:15:33][179.184.37.5][179.184.37.5.static.gvt.net.br][samuel.caldas][http://177.124.60.170:8087/painelDeControle.php?corpo=buscaRelatorioMensalFinanceiro&mesAtual=05&anoAtual=2015][Chrome]
[14-07-15][11:15:34][179.184.37.5][179.184.37.5.static.gvt.net.br][samuel.caldas][http://177.124.60.170:8087/painelDeControle.php?corpo=buscaRelatorioMensalFinanceiro&mesAtual=04&anoAtual=2015][Chrome]
[14-07-15][11:15:35][179.184.37.5][179.184.37.5.static.gvt.net.br][samuel.caldas][http://177.124.60.170:8087/painelDeControle.php?corpo=buscaRelatorioMensalFinanceiro&mesAtual=03&anoAtual=2015][Chrome]
[14-07-15][11:15:36][179.184.37.5][179.184.37.5.static.gvt.net.br][samuel.caldas][http://177.124.60.170:8087/painelDeControle.php?corpo=buscaRelatorioMensalFinanceiro&mesAtual=02&anoAtual=2015][Chrome]
[14-07-15][11:15:38][179.184.37.5][179.184.37.5.static.gvt.net.br][samuel.caldas][http://177.124.60.170:8087/painelDeControle.php?corpo=buscaRelatorioMensalFinanceiro&mesAtual=01&anoAtual=2015][Chrome]
[14-07-15][11:15:40][179.184.37.5][179.184.37.5.static.gvt.net.br][samuel.caldas][http://177.124.60.170:8087/painelDeControle.php?corpo=buscaRecebimentos][Chrome]
[14-07-15][11:16:27][179.184.37.5][179.184.37.5.static.gvt.net.br][samuel.caldas][http://177.124.60.170:8087/painelDeControle.php?corpo=buscaRecebimentos][Chrome]
[14-07-15][11:18:07][179.184.37.5][179.184.37.5.static.gvt.net.br][samuel.caldas][http://177.124.60.170:8087/painelDeControle.php?corpo=buscaRecebimentos][Chrome]
[14-07-15][11:18:50][179.184.37.5][179.184.37.5.static.gvt.net.br][samuel.caldas][http://177.124.60.170:8087/painelDeControle.php?corpo=buscaRecebimentos][Chrome]
[14-07-15][11:19:21][179.184.37.5][179.184.37.5.static.gvt.net.br][samuel.caldas][http://177.124.60.170:8087/painelDeControle.php?corpo=buscaRecebimentos][Chrome]
[14-07-15][11:19:51][179.184.37.5][179.184.37.5.static.gvt.net.br][samuel.caldas][http://177.124.60.170:8087/painelDeControle.php?corpo=buscaRecebimentos][Chrome]
[14-07-15][11:20:06][179.184.37.5][179.184.37.5.static.gvt.net.br][samuel.caldas][http://177.124.60.170:8087/painelDeControle.php?corpo=BuscaRecebimentos&mesAtual=06&anoAtual=2015][Chrome]
[14-07-15][11:20:08][179.184.37.5][179.184.37.5.static.gvt.net.br][samuel.caldas][http://177.124.60.170:8087/painelDeControle.php?corpo=BuscaRecebimentos&mesAtual=07&anoAtual=2015][Chrome]
[14-07-15][11:20:10][179.184.37.5][179.184.37.5.static.gvt.net.br][samuel.caldas][http://177.124.60.170:8087/painelDeControle.php?corpo=BuscaRecebimentos&mesAtual=08&anoAtual=2015][Chrome]
[14-07-15][11:20:41][179.184.37.5][179.184.37.5.static.gvt.net.br][samuel.caldas][http://177.124.60.170:8087/painelDeControle.php?corpo=BuscaRecebimentos&mesAtual=09&anoAtual=2015][Chrome]
[14-07-15][11:21:13][179.184.37.5][179.184.37.5.static.gvt.net.br][samuel.caldas][http://177.124.60.170:8087/painelDeControle.php?corpo=BuscaRecebimentos&mesAtual=10&anoAtual=2015][Chrome]
[14-07-15][11:21:15][179.184.37.5][179.184.37.5.static.gvt.net.br][lbas][http://177.124.60.170:8087/painelDeControle.php?corpo=buscaMembroOA][Chrome]
[14-07-15][11:21:15][179.184.37.5][179.184.37.5.static.gvt.net.br][lbas][http://177.124.60.170:8087/painelDeControle.php?corpo=buscaMembroOA][Chrome]
[14-07-15][11:21:19][179.184.37.5][179.184.37.5.static.gvt.net.br][lbas][http://177.124.60.170:8087/painelDeControle.php?corpo=cadastroMembroOA][Chrome]
[14-07-15][11:21:19][179.184.37.5][179.184.37.5.static.gvt.net.br][lbas][http://177.124.60.170:8087/painelDeControle.php?corpo=cadastroMembroOA][Chrome]
[14-07-15][11:21:25][179.184.37.5][179.184.37.5.static.gvt.net.br][lbas][http://177.124.60.170:8087/painelDeControle.php?corpo=buscaMembroOA][Chrome]
[14-07-15][11:21:25][179.184.37.5][179.184.37.5.static.gvt.net.br][lbas][http://177.124.60.170:8087/painelDeControle.php?corpo=buscaMembroOA][Chrome]
[14-07-15][11:21:28][179.184.37.5][179.184.37.5.static.gvt.net.br][samuel.caldas][http://177.124.60.170:8087/painelDeControle.php?corpo=BuscaRecebimentos&mesAtual=11&anoAtual=2015][Chrome]
[14-07-15][11:21:30][179.184.37.5][179.184.37.5.static.gvt.net.br][lbas][http://177.124.60.170:8087/painelDeControle.php?corpo=buscaOrganismo][Chrome]
[14-07-15][11:21:30][179.184.37.5][179.184.37.5.static.gvt.net.br][lbas][http://177.124.60.170:8087/painelDeControle.php?corpo=buscaOrganismo][Chrome]
[14-07-15][11:22:05][179.184.37.5][179.184.37.5.static.gvt.net.br][samuel.caldas][http://177.124.60.170:8087/painelDeControle.php?corpo=BuscaRecebimentos&mesAtual=12&anoAtual=2015][Chrome]
[14-07-15][11:22:25][179.184.37.5][179.184.37.5.static.gvt.net.br][lbas][http://177.124.60.170:8087/painelDeControle.php?corpo=buscaOficial][Chrome]
[14-07-15][11:22:25][179.184.37.5][179.184.37.5.static.gvt.net.br][lbas][http://177.124.60.170:8087/painelDeControle.php?corpo=buscaOficial][Chrome]
[14-07-15][11:22:39][179.184.37.5][179.184.37.5.static.gvt.net.br][lbas][http://177.124.60.170:8087/painelDeControle.php?corpo=buscaDiscurso][Chrome]
[14-07-15][11:22:39][179.184.37.5][179.184.37.5.static.gvt.net.br][lbas][http://177.124.60.170:8087/painelDeControle.php?corpo=buscaDiscurso][Chrome]
[14-07-15][11:22:44][179.184.37.5][179.184.37.5.static.gvt.net.br][lbas][http://177.124.60.170:8087/painelDeControle.php?corpo=buscaRegiaoRosacruz][Chrome]
[14-07-15][11:22:44][179.184.37.5][179.184.37.5.static.gvt.net.br][lbas][http://177.124.60.170:8087/painelDeControle.php?corpo=buscaRegiaoRosacruz][Chrome]
[14-07-15][11:23:00][179.184.37.5][179.184.37.5.static.gvt.net.br][lbas][http://177.124.60.170:8087/painelDeControle.php?corpo=buscaMembroOA][Chrome]
[14-07-15][11:23:00][179.184.37.5][179.184.37.5.static.gvt.net.br][lbas][http://177.124.60.170:8087/painelDeControle.php?corpo=buscaMembroOA][Chrome]
[14-07-15][11:25:17][179.184.37.5][179.184.37.5.static.gvt.net.br][lbas][http://177.124.60.170:8087/painelDeControle.php?corpo=buscaMembroOA][Chrome]
[14-07-15][11:25:17][179.184.37.5][179.184.37.5.static.gvt.net.br][lbas][http://177.124.60.170:8087/painelDeControle.php?corpo=buscaMembroOA][Chrome]
[14-07-15][11:25:19][179.184.37.5][179.184.37.5.static.gvt.net.br][lbas][http://177.124.60.170:8087/login.php?][Chrome]
[14-07-15][11:25:21][179.184.37.5][179.184.37.5.static.gvt.net.br][lbas][http://177.124.60.170:8087/painelDeControle.php?][Chrome]
[14-07-15][11:25:21][179.184.37.5][179.184.37.5.static.gvt.net.br][lbas][http://177.124.60.170:8087/painelDeControle.php?][Chrome]
[14-07-15][11:25:30][179.184.37.5][179.184.37.5.static.gvt.net.br][lbas][http://177.124.60.170:8087/painelDeControle.php?corpo=buscaMembroOA][Chrome]
[14-07-15][11:25:30][179.184.37.5][179.184.37.5.static.gvt.net.br][lbas][http://177.124.60.170:8087/painelDeControle.php?corpo=buscaMembroOA][Chrome]
[14-07-15][11:25:33][179.184.37.5][179.184.37.5.static.gvt.net.br][lbas][http://177.124.60.170:8087/painelDeControle.php?corpo=cadastroMembroOA][Chrome]
[14-07-15][11:25:33][179.184.37.5][179.184.37.5.static.gvt.net.br][lbas][http://177.124.60.170:8087/painelDeControle.php?corpo=cadastroMembroOA][Chrome]
[14-07-15][11:25:43][179.184.37.5][179.184.37.5.static.gvt.net.br][samuel.caldas][http://177.124.60.170:8087/painelDeControle.php?corpo=buscaDespesas][Chrome]
[14-07-15][11:25:46][179.184.37.5][179.184.37.5.static.gvt.net.br][samuel.caldas][http://177.124.60.170:8087/painelDeControle.php?corpo=BuscaDespesas&mesAtual=06&anoAtual=2015][Chrome]
[14-07-15][11:25:49][179.184.37.5][179.184.37.5.static.gvt.net.br][samuel.caldas][http://177.124.60.170:8087/painelDeControle.php?corpo=BuscaDespesas&mesAtual=01&anoAtual=2015][Chrome]
[14-07-15][11:25:51][179.184.37.5][179.184.37.5.static.gvt.net.br][lbas][http://177.124.60.170:8087/painelDeControle.php?corpo=buscaMembroOA][Chrome]
[14-07-15][11:25:51][179.184.37.5][179.184.37.5.static.gvt.net.br][lbas][http://177.124.60.170:8087/painelDeControle.php?corpo=buscaMembroOA][Chrome]
[14-07-15][11:25:55][179.184.37.5][179.184.37.5.static.gvt.net.br][lbas][http://177.124.60.170:8087/painelDeControle.php?corpo=cadastroMembroOA][Chrome]
[14-07-15][11:25:55][179.184.37.5][179.184.37.5.static.gvt.net.br][lbas][http://177.124.60.170:8087/painelDeControle.php?corpo=cadastroMembroOA][Chrome]
[14-07-15][11:26:04][179.184.37.5][179.184.37.5.static.gvt.net.br][lbas][http://177.124.60.170:8087/painelDeControle.php?corpo=cadastroMembroOA][Chrome]
[14-07-15][11:26:04][179.184.37.5][179.184.37.5.static.gvt.net.br][lbas][http://177.124.60.170:8087/painelDeControle.php?corpo=cadastroMembroOA][Chrome]
[14-07-15][11:26:18][179.184.37.5][179.184.37.5.static.gvt.net.br][lbas][http://177.124.60.170:8087/painelDeControle.php?corpo=buscaMembroOA][Chrome]
[14-07-15][11:26:18][179.184.37.5][179.184.37.5.static.gvt.net.br][lbas][http://177.124.60.170:8087/painelDeControle.php?corpo=buscaMembroOA][Chrome]
[14-07-15][11:26:22][179.184.37.5][179.184.37.5.static.gvt.net.br][lbas][http://177.124.60.170:8087/painelDeControle.php?corpo=cadastroMembroOA][Chrome]
[14-07-15][11:26:22][179.184.37.5][179.184.37.5.static.gvt.net.br][lbas][http://177.124.60.170:8087/painelDeControle.php?corpo=cadastroMembroOA][Chrome]
[14-07-15][11:26:27][179.184.37.5][179.184.37.5.static.gvt.net.br][samuel.caldas][http://177.124.60.170:8087/painelDeControle.php?corpo=BuscaDespesas&mesAtual=02&anoAtual=2015][Chrome]
[14-07-15][11:26:46][179.184.37.5][179.184.37.5.static.gvt.net.br][lbas][http://177.124.60.170:8087/painelDeControle.php?corpo=buscaMembroOA][Chrome]
[14-07-15][11:26:46][179.184.37.5][179.184.37.5.static.gvt.net.br][lbas][http://177.124.60.170:8087/painelDeControle.php?corpo=buscaMembroOA][Chrome]
[14-07-15][11:26:53][179.184.37.5][179.184.37.5.static.gvt.net.br][lbas][http://177.124.60.170:8087/painelDeControle.php?corpo=cadastroMembroOA][Chrome]
[14-07-15][11:26:53][179.184.37.5][179.184.37.5.static.gvt.net.br][lbas][http://177.124.60.170:8087/painelDeControle.php?corpo=cadastroMembroOA][Chrome]
[14-07-15][11:26:56][179.184.37.5][179.184.37.5.static.gvt.net.br][samuel.caldas][http://177.124.60.170:8087/painelDeControle.php?corpo=BuscaDespesas&mesAtual=03&anoAtual=2015][Chrome]
[14-07-15][11:27:07][179.184.37.5][179.184.37.5.static.gvt.net.br][lbas][http://177.124.60.170:8087/painelDeControle.php?corpo=buscaMembroOA][Chrome]
[14-07-15][11:27:07][179.184.37.5][179.184.37.5.static.gvt.net.br][lbas][http://177.124.60.170:8087/painelDeControle.php?corpo=buscaMembroOA][Chrome]
[14-07-15][11:27:19][179.184.37.5][179.184.37.5.static.gvt.net.br][samuel.caldas][http://177.124.60.170:8087/painelDeControle.php?corpo=BuscaDespesas&mesAtual=04&anoAtual=2015][Chrome]
[14-07-15][11:27:45][179.184.37.5][179.184.37.5.static.gvt.net.br][lbas][http://177.124.60.170:8087/painelDeControle.php?corpo=cadastroMembroOA][Chrome]
[14-07-15][11:27:45][179.184.37.5][179.184.37.5.static.gvt.net.br][lbas][http://177.124.60.170:8087/painelDeControle.php?corpo=cadastroMembroOA][Chrome]
[14-07-15][11:28:04][179.184.37.5][179.184.37.5.static.gvt.net.br][samuel.caldas][http://177.124.60.170:8087/painelDeControle.php?corpo=BuscaDespesas&mesAtual=05&anoAtual=2015][Chrome]
[14-07-15][11:28:05][179.184.37.5][179.184.37.5.static.gvt.net.br][lbas][http://177.124.60.170:8087/painelDeControle.php?corpo=buscaMembroOA][Chrome]
[14-07-15][11:28:05][179.184.37.5][179.184.37.5.static.gvt.net.br][lbas][http://177.124.60.170:8087/painelDeControle.php?corpo=buscaMembroOA][Chrome]
[14-07-15][11:28:17][179.184.37.5][179.184.37.5.static.gvt.net.br][lbas][http://177.124.60.170:8087/painelDeControle.php?corpo=buscaMembroOA][Chrome]
[14-07-15][11:28:17][179.184.37.5][179.184.37.5.static.gvt.net.br][lbas][http://177.124.60.170:8087/painelDeControle.php?corpo=buscaMembroOA][Chrome]
[14-07-15][11:28:28][179.184.37.5][179.184.37.5.static.gvt.net.br][samuel.caldas][http://177.124.60.170:8087/painelDeControle.php?corpo=BuscaDespesas&mesAtual=06&anoAtual=2015][Chrome]
[14-07-15][11:28:57][179.184.37.5][179.184.37.5.static.gvt.net.br][samuel.caldas][http://177.124.60.170:8087/painelDeControle.php?corpo=BuscaDespesas&mesAtual=07&anoAtual=2015][Chrome]
[14-07-15][11:28:59][179.184.37.5][179.184.37.5.static.gvt.net.br][samuel.caldas][http://177.124.60.170:8087/painelDeControle.php?corpo=BuscaDespesas&mesAtual=08&anoAtual=2015][Chrome]
[14-07-15][11:29:15][179.184.37.5][179.184.37.5.static.gvt.net.br][samuel.caldas][http://177.124.60.170:8087/painelDeControle.php?corpo=BuscaDespesas&mesAtual=08&anoAtual=2015][Chrome]
[14-07-15][11:29:18][179.184.37.5][179.184.37.5.static.gvt.net.br][samuel.caldas][http://177.124.60.170:8087/painelDeControle.php?corpo=BuscaDespesas&mesAtual=08&anoAtual=2015][Chrome]
[14-07-15][11:29:47][179.184.37.5][179.184.37.5.static.gvt.net.br][samuel.caldas][http://177.124.60.170:8087/painelDeControle.php?corpo=BuscaDespesas&mesAtual=08&anoAtual=2015][Chrome]
[14-07-15][11:29:49][179.184.37.5][179.184.37.5.static.gvt.net.br][samuel.caldas][http://177.124.60.170:8087/painelDeControle.php?corpo=BuscaDespesas&mesAtual=09&anoAtual=2015][Chrome]
[14-07-15][11:30:12][179.184.37.5][179.184.37.5.static.gvt.net.br][samuel.caldas][http://177.124.60.170:8087/painelDeControle.php?corpo=BuscaDespesas&mesAtual=10&anoAtual=2015][Chrome]
[14-07-15][11:30:44][179.184.37.5][179.184.37.5.static.gvt.net.br][samuel.caldas][http://177.124.60.170:8087/painelDeControle.php?corpo=BuscaDespesas&mesAtual=11&anoAtual=2015][Chrome]
[14-07-15][11:31:05][179.184.37.5][179.184.37.5.static.gvt.net.br][samuel.caldas][http://177.124.60.170:8087/painelDeControle.php?corpo=BuscaDespesas&mesAtual=12&anoAtual=2015][Chrome]
[14-07-15][11:31:38][179.184.37.5][179.184.37.5.static.gvt.net.br][samuel.caldas][http://177.124.60.170:8087/painelDeControle.php?corpo=BuscaDespesas&mesAtual=12&anoAtual=2015][Chrome]
[14-07-15][11:31:45][179.184.37.5][179.184.37.5.static.gvt.net.br][samuel.caldas][http://177.124.60.170:8087/painelDeControle.php?corpo=buscaRendimentos][Chrome]
[14-07-15][11:31:48][179.184.37.5][179.184.37.5.static.gvt.net.br][samuel.caldas][http://177.124.60.170:8087/painelDeControle.php?corpo=buscaRelatorioMensalFinanceiro][Chrome]
[14-07-15][11:31:51][179.184.37.5][179.184.37.5.static.gvt.net.br][samuel.caldas][http://177.124.60.170:8087/painelDeControle.php?corpo=buscaRelatorioMensalFinanceiro&mesAtual=06&anoAtual=2015][Chrome]
[14-07-15][11:31:53][179.184.37.5][179.184.37.5.static.gvt.net.br][samuel.caldas][http://177.124.60.170:8087/painelDeControle.php?corpo=buscaRelatorioMensalFinanceiro&mesAtual=01&anoAtual=2015][Chrome]
[14-07-15][11:32:00][179.184.37.5][179.184.37.5.static.gvt.net.br][samuel.caldas][http://177.124.60.170:8087/painelDeControle.php?corpo=buscaRelatorioMensalFinanceiro&mesAtual=02&anoAtual=2015][Chrome]
[14-07-15][11:32:02][179.184.37.5][179.184.37.5.static.gvt.net.br][samuel.caldas][http://177.124.60.170:8087/painelDeControle.php?corpo=buscaRelatorioMensalFinanceiro&mesAtual=03&anoAtual=2015][Chrome]
[14-07-15][11:32:06][179.184.37.5][179.184.37.5.static.gvt.net.br][samuel.caldas][http://177.124.60.170:8087/painelDeControle.php?corpo=buscaRelatorioAnualFinanceiro][Chrome]
[14-07-15][11:32:10][179.184.37.5][179.184.37.5.static.gvt.net.br][samuel.caldas][http://177.124.60.170:8087/painelDeControle.php?corpo=buscaRecebimentos][Chrome]
[14-07-15][11:32:12][179.184.37.5][179.184.37.5.static.gvt.net.br][samuel.caldas][http://177.124.60.170:8087/painelDeControle.php?corpo=BuscaRecebimentos&mesAtual=08&anoAtual=2015][Chrome]
[14-07-15][11:32:15][179.184.37.5][179.184.37.5.static.gvt.net.br][samuel.caldas][http://177.124.60.170:8087/painelDeControle.php?corpo=BuscaRecebimentos&mesAtual=12&anoAtual=2015][Chrome]
[14-07-15][11:32:35][179.184.37.5][179.184.37.5.static.gvt.net.br][samuel.caldas][http://177.124.60.170:8087/painelDeControle.php?corpo=buscaRelatorioAnualFinanceiro][Chrome]
[14-07-15][11:32:49][179.184.37.5][179.184.37.5.static.gvt.net.br][samuel.caldas][http://177.124.60.170:8087/painelDeControle.php?corpo=buscaRendimentos][Chrome]
[14-07-15][11:32:51][179.184.37.5][179.184.37.5.static.gvt.net.br][samuel.caldas][http://177.124.60.170:8087/painelDeControle.php?corpo=BuscaRendimentos&mesAtual=06&anoAtual=2015][Chrome]
[14-07-15][11:32:54][179.184.37.5][179.184.37.5.static.gvt.net.br][samuel.caldas][http://177.124.60.170:8087/painelDeControle.php?corpo=BuscaRendimentos&mesAtual=01&anoAtual=2015][Chrome]
[14-07-15][11:33:08][179.184.37.5][179.184.37.5.static.gvt.net.br][samuel.caldas][http://177.124.60.170:8087/painelDeControle.php?corpo=BuscaRendimentos&mesAtual=02&anoAtual=2015][Chrome]
[14-07-15][11:33:18][179.184.37.5][179.184.37.5.static.gvt.net.br][samuel.caldas][http://177.124.60.170:8087/painelDeControle.php?corpo=BuscaRendimentos&mesAtual=03&anoAtual=2015][Chrome]
[14-07-15][11:33:30][179.184.37.5][179.184.37.5.static.gvt.net.br][samuel.caldas][http://177.124.60.170:8087/painelDeControle.php?corpo=BuscaRendimentos&mesAtual=04&anoAtual=2015][Chrome]
[14-07-15][11:33:43][179.184.37.5][179.184.37.5.static.gvt.net.br][samuel.caldas][http://177.124.60.170:8087/painelDeControle.php?corpo=BuscaRendimentos&mesAtual=05&anoAtual=2015][Chrome]
[14-07-15][11:33:55][179.184.37.5][179.184.37.5.static.gvt.net.br][samuel.caldas][http://177.124.60.170:8087/painelDeControle.php?corpo=BuscaRendimentos&mesAtual=06&anoAtual=2015][Chrome]
[14-07-15][11:34:10][179.184.37.5][179.184.37.5.static.gvt.net.br][samuel.caldas][http://177.124.60.170:8087/painelDeControle.php?corpo=BuscaRendimentos&mesAtual=07&anoAtual=2015][Chrome]
[14-07-15][11:34:12][179.184.37.5][179.184.37.5.static.gvt.net.br][samuel.caldas][http://177.124.60.170:8087/painelDeControle.php?corpo=BuscaRendimentos&mesAtual=08&anoAtual=2015][Chrome]
[14-07-15][11:34:27][179.184.37.5][179.184.37.5.static.gvt.net.br][samuel.caldas][http://177.124.60.170:8087/painelDeControle.php?corpo=BuscaRendimentos&mesAtual=08&anoAtual=2015][Chrome]
[14-07-15][11:34:30][179.184.37.5][179.184.37.5.static.gvt.net.br][samuel.caldas][http://177.124.60.170:8087/painelDeControle.php?corpo=BuscaRendimentos&mesAtual=09&anoAtual=2015][Chrome]
[14-07-15][11:34:31][179.184.37.5][179.184.37.5.static.gvt.net.br][samuel.caldas][http://177.124.60.170:8087/painelDeControle.php?corpo=BuscaRendimentos&mesAtual=08&anoAtual=2015][Chrome]
[14-07-15][11:34:32][179.184.37.5][179.184.37.5.static.gvt.net.br][samuel.caldas][http://177.124.60.170:8087/painelDeControle.php?corpo=BuscaRendimentos&mesAtual=09&anoAtual=2015][Chrome]
[14-07-15][11:34:46][179.184.37.5][179.184.37.5.static.gvt.net.br][samuel.caldas][http://177.124.60.170:8087/painelDeControle.php?corpo=BuscaRendimentos&mesAtual=09&anoAtual=2015][Chrome]
[14-07-15][11:34:51][179.184.37.5][179.184.37.5.static.gvt.net.br][samuel.caldas][http://177.124.60.170:8087/painelDeControle.php?corpo=BuscaRendimentos&mesAtual=10&anoAtual=2015][Chrome]
[14-07-15][11:35:00][179.184.37.5][179.184.37.5.static.gvt.net.br][samuel.caldas][http://177.124.60.170:8087/painelDeControle.php?corpo=BuscaRendimentos&mesAtual=11&anoAtual=2015][Chrome]
[14-07-15][11:35:16][179.184.37.5][179.184.37.5.static.gvt.net.br][samuel.caldas][http://177.124.60.170:8087/painelDeControle.php?corpo=BuscaRendimentos&mesAtual=12&anoAtual=2015][Chrome]
[14-07-15][11:35:26][179.184.37.5][179.184.37.5.static.gvt.net.br][samuel.caldas][http://177.124.60.170:8087/painelDeControle.php?corpo=buscaRelatorioAnualFinanceiro][Chrome]
[14-07-15][11:36:11][179.184.37.5][179.184.37.5.static.gvt.net.br][samuel.caldas][http://177.124.60.170:8087/painelDeControle.php?corpo=buscaMensalidadeOA][Chrome]
[14-07-15][11:36:11][179.184.37.5][179.184.37.5.static.gvt.net.br][samuel.caldas][http://177.124.60.170:8087/painelDeControle.php?corpo=buscaMensalidadeOA][Chrome]
[14-07-15][11:36:17][179.184.37.5][179.184.37.5.static.gvt.net.br][samuel.caldas][http://177.124.60.170:8087/painelDeControle.php?corpo=buscaMembroOA][Chrome]
[14-07-15][11:36:17][179.184.37.5][179.184.37.5.static.gvt.net.br][samuel.caldas][http://177.124.60.170:8087/painelDeControle.php?corpo=buscaMembroOA][Chrome]
[14-07-15][11:36:20][179.184.37.5][179.184.37.5.static.gvt.net.br][samuel.caldas][http://177.124.60.170:8087/painelDeControle.php?corpo=cadastroMembroOA][Chrome]
[14-07-15][11:36:20][179.184.37.5][179.184.37.5.static.gvt.net.br][samuel.caldas][http://177.124.60.170:8087/painelDeControle.php?corpo=cadastroMembroOA][Chrome]
[14-07-15][11:36:38][179.184.37.5][179.184.37.5.static.gvt.net.br][samuel.caldas][http://177.124.60.170:8087/painelDeControle.php?][Chrome]
[14-07-15][11:36:38][179.184.37.5][179.184.37.5.static.gvt.net.br][samuel.caldas][http://177.124.60.170:8087/painelDeControle.php?][Chrome]
[14-07-15][11:36:45][179.184.37.5][179.184.37.5.static.gvt.net.br][samuel.caldas][http://177.124.60.170:8087/painelDeControle.php?corpo=buscaMembroOA][Chrome]
[14-07-15][11:36:45][179.184.37.5][179.184.37.5.static.gvt.net.br][samuel.caldas][http://177.124.60.170:8087/painelDeControle.php?corpo=buscaMembroOA][Chrome]
[14-07-15][11:36:47][179.184.37.5][179.184.37.5.static.gvt.net.br][samuel.caldas][http://177.124.60.170:8087/painelDeControle.php?corpo=cadastroMembroOA][Chrome]
[14-07-15][11:36:47][179.184.37.5][179.184.37.5.static.gvt.net.br][samuel.caldas][http://177.124.60.170:8087/painelDeControle.php?corpo=cadastroMembroOA][Chrome]
[14-07-15][11:37:44][179.184.37.5][179.184.37.5.static.gvt.net.br][samuel.caldas][http://177.124.60.170:8087/painelDeControle.php?][Chrome]
[14-07-15][11:37:44][179.184.37.5][179.184.37.5.static.gvt.net.br][samuel.caldas][http://177.124.60.170:8087/painelDeControle.php?][Chrome]
[14-07-15][11:37:49][179.184.37.5][179.184.37.5.static.gvt.net.br][samuel.caldas][http://177.124.60.170:8087/painelDeControle.php?corpo=buscaMembroOA][Chrome]
[14-07-15][11:37:49][179.184.37.5][179.184.37.5.static.gvt.net.br][samuel.caldas][http://177.124.60.170:8087/painelDeControle.php?corpo=buscaMembroOA][Chrome]
[14-07-15][11:37:52][179.184.37.5][179.184.37.5.static.gvt.net.br][samuel.caldas][http://177.124.60.170:8087/painelDeControle.php?corpo=cadastroMembroOA][Chrome]
[14-07-15][11:37:52][179.184.37.5][179.184.37.5.static.gvt.net.br][samuel.caldas][http://177.124.60.170:8087/painelDeControle.php?corpo=cadastroMembroOA][Chrome]
[14-07-15][11:38:04][179.184.37.5][179.184.37.5.static.gvt.net.br][samuel.caldas][http://177.124.60.170:8087/painelDeControle.php?][Chrome]
[14-07-15][11:38:04][179.184.37.5][179.184.37.5.static.gvt.net.br][samuel.caldas][http://177.124.60.170:8087/painelDeControle.php?][Chrome]
[14-07-15][11:39:49][179.184.37.5][179.184.37.5.static.gvt.net.br][samuel.caldas][http://177.124.60.170:8087/painelDeControle.php?corpo=buscaMensalidadeOA][Chrome]
[14-07-15][11:39:49][179.184.37.5][179.184.37.5.static.gvt.net.br][samuel.caldas][http://177.124.60.170:8087/painelDeControle.php?corpo=buscaMensalidadeOA][Chrome]
[14-07-15][11:40:16][179.184.37.5][179.184.37.5.static.gvt.net.br][samuel.caldas][http://177.124.60.170:8087/painelDeControle.php?corpo=buscaMembroOA][Chrome]
[14-07-15][11:40:16][179.184.37.5][179.184.37.5.static.gvt.net.br][samuel.caldas][http://177.124.60.170:8087/painelDeControle.php?corpo=buscaMembroOA][Chrome]
[14-07-15][11:40:29][179.184.37.5][179.184.37.5.static.gvt.net.br][samuel.caldas][http://177.124.60.170:8087/painelDeControle.php?corpo=cadastroMembroOA][Chrome]
[14-07-15][11:40:29][179.184.37.5][179.184.37.5.static.gvt.net.br][samuel.caldas][http://177.124.60.170:8087/painelDeControle.php?corpo=cadastroMembroOA][Chrome]
[14-07-15][11:40:51][179.184.37.5][179.184.37.5.static.gvt.net.br][samuel.caldas][http://177.124.60.170:8087/painelDeControle.php?corpo=buscaMembroOA][Chrome]
[14-07-15][11:40:51][179.184.37.5][179.184.37.5.static.gvt.net.br][samuel.caldas][http://177.124.60.170:8087/painelDeControle.php?corpo=buscaMembroOA][Chrome]
[14-07-15][11:41:23][179.184.37.5][179.184.37.5.static.gvt.net.br][samuel.caldas][http://177.124.60.170:8087/painelDeControle.php?corpo=buscaMensalidadeOA][Chrome]
[14-07-15][11:41:23][179.184.37.5][179.184.37.5.static.gvt.net.br][samuel.caldas][http://177.124.60.170:8087/painelDeControle.php?corpo=buscaMensalidadeOA][Chrome]
[14-07-15][11:42:28][179.184.37.5][179.184.37.5.static.gvt.net.br][samuel.caldas][http://177.124.60.170:8087/painelDeControle.php?corpo=buscaMensalidadeOA][Chrome]
[14-07-15][11:42:28][179.184.37.5][179.184.37.5.static.gvt.net.br][samuel.caldas][http://177.124.60.170:8087/painelDeControle.php?corpo=buscaMensalidadeOA][Chrome]
[14-07-15][11:42:37][179.184.37.5][179.184.37.5.static.gvt.net.br][samuel.caldas][http://177.124.60.170:8087/painelDeControle.php?][Chrome]
[14-07-15][11:42:37][179.184.37.5][179.184.37.5.static.gvt.net.br][samuel.caldas][http://177.124.60.170:8087/painelDeControle.php?][Chrome]
[14-07-15][11:43:40][179.184.37.5][179.184.37.5.static.gvt.net.br][samuel.caldas][http://177.124.60.170:8087/painelDeControle.php?corpo=buscaMensalidadeOA][Chrome]
[14-07-15][11:43:40][179.184.37.5][179.184.37.5.static.gvt.net.br][samuel.caldas][http://177.124.60.170:8087/painelDeControle.php?corpo=buscaMensalidadeOA][Chrome]
[14-07-15][11:44:12][179.184.37.5][179.184.37.5.static.gvt.net.br][samuel.caldas][http://177.124.60.170:8087/painelDeControle.php?corpo=buscaMensalidadeOA&anoAtual=2015&idOrganismoAfiliado=1&semestre=2][Chrome]
[14-07-15][11:44:12][179.184.37.5][179.184.37.5.static.gvt.net.br][samuel.caldas][http://177.124.60.170:8087/painelDeControle.php?corpo=buscaMensalidadeOA&anoAtual=2015&idOrganismoAfiliado=1&semestre=2][Chrome]
[14-07-15][11:44:18][179.184.37.5][179.184.37.5.static.gvt.net.br][samuel.caldas][http://177.124.60.170:8087/painelDeControle.php?corpo=buscaMensalidadeOA&anoAtual=2015&idOrganismoAfiliado=1&semestre=1][Chrome]
[14-07-15][11:44:18][179.184.37.5][179.184.37.5.static.gvt.net.br][samuel.caldas][http://177.124.60.170:8087/painelDeControle.php?corpo=buscaMensalidadeOA&anoAtual=2015&idOrganismoAfiliado=1&semestre=1][Chrome]
[14-07-15][11:44:58][179.184.37.5][179.184.37.5.static.gvt.net.br][samuel.caldas][http://177.124.60.170:8087/painelDeControle.php?corpo=buscaMembroOA][Chrome]
[14-07-15][11:44:58][179.184.37.5][179.184.37.5.static.gvt.net.br][samuel.caldas][http://177.124.60.170:8087/painelDeControle.php?corpo=buscaMembroOA][Chrome]
[14-07-15][11:45:09][179.184.37.5][179.184.37.5.static.gvt.net.br][samuel.caldas][http://177.124.60.170:8087/painelDeControle.php?corpo=cadastroMembroOA][Chrome]
[14-07-15][11:45:09][179.184.37.5][179.184.37.5.static.gvt.net.br][samuel.caldas][http://177.124.60.170:8087/painelDeControle.php?corpo=cadastroMembroOA][Chrome]
[14-07-15][11:45:36][179.184.37.5][179.184.37.5.static.gvt.net.br][samuel.caldas][http://177.124.60.170:8087/painelDeControle.php?corpo=buscaMembroOA][Chrome]
[14-07-15][11:45:36][179.184.37.5][179.184.37.5.static.gvt.net.br][samuel.caldas][http://177.124.60.170:8087/painelDeControle.php?corpo=buscaMembroOA][Chrome]
[14-07-15][11:46:07][179.184.37.5][179.184.37.5.static.gvt.net.br][samuel.caldas][http://177.124.60.170:8087/painelDeControle.php?corpo=buscaMensalidadeOA][Chrome]
[14-07-15][11:46:07][179.184.37.5][179.184.37.5.static.gvt.net.br][samuel.caldas][http://177.124.60.170:8087/painelDeControle.php?corpo=buscaMensalidadeOA][Chrome]
[14-07-15][11:48:24][179.184.37.5][179.184.37.5.static.gvt.net.br][samuel.caldas][http://177.124.60.170:8087/painelDeControle.php?corpo=buscaMensalidadeOA&anoAtual=2015&idOrganismoAfiliado=1&semestre=2][Chrome]
[14-07-15][11:48:24][179.184.37.5][179.184.37.5.static.gvt.net.br][samuel.caldas][http://177.124.60.170:8087/painelDeControle.php?corpo=buscaMensalidadeOA&anoAtual=2015&idOrganismoAfiliado=1&semestre=2][Chrome]
[14-07-15][11:48:51][179.184.37.5][179.184.37.5.static.gvt.net.br][samuel.caldas][http://177.124.60.170:8087/painelDeControle.php?corpo=buscaMensalidadeOA&anoAtual=2016&idOrganismoAfiliado=1&semestre=1][Chrome]
[14-07-15][11:48:51][179.184.37.5][179.184.37.5.static.gvt.net.br][samuel.caldas][http://177.124.60.170:8087/painelDeControle.php?corpo=buscaMensalidadeOA&anoAtual=2016&idOrganismoAfiliado=1&semestre=1][Chrome]
[14-07-15][11:48:53][179.184.37.5][179.184.37.5.static.gvt.net.br][samuel.caldas][http://177.124.60.170:8087/painelDeControle.php?corpo=buscaMensalidadeOA&anoAtual=2015&idOrganismoAfiliado=1&semestre=2][Chrome]
[14-07-15][11:48:53][179.184.37.5][179.184.37.5.static.gvt.net.br][samuel.caldas][http://177.124.60.170:8087/painelDeControle.php?corpo=buscaMensalidadeOA&anoAtual=2015&idOrganismoAfiliado=1&semestre=2][Chrome]
[14-07-15][11:48:55][179.184.37.5][179.184.37.5.static.gvt.net.br][samuel.caldas][http://177.124.60.170:8087/painelDeControle.php?corpo=buscaMensalidadeOA&anoAtual=2014&idOrganismoAfiliado=1&semestre=2][Chrome]
[14-07-15][11:48:55][179.184.37.5][179.184.37.5.static.gvt.net.br][samuel.caldas][http://177.124.60.170:8087/painelDeControle.php?corpo=buscaMensalidadeOA&anoAtual=2014&idOrganismoAfiliado=1&semestre=2][Chrome]
[14-07-15][11:48:57][179.184.37.5][179.184.37.5.static.gvt.net.br][samuel.caldas][http://177.124.60.170:8087/painelDeControle.php?corpo=buscaMensalidadeOA&anoAtual=2015&idOrganismoAfiliado=1&semestre=1][Chrome]
[14-07-15][11:48:57][179.184.37.5][179.184.37.5.static.gvt.net.br][samuel.caldas][http://177.124.60.170:8087/painelDeControle.php?corpo=buscaMensalidadeOA&anoAtual=2015&idOrganismoAfiliado=1&semestre=1][Chrome]
[14-07-15][11:49:05][179.184.37.5][179.184.37.5.static.gvt.net.br][samuel.caldas][http://177.124.60.170:8087/painelDeControle.php?corpo=buscaRelatorioMensalFinanceiro][Chrome]
[14-07-15][11:49:25][179.184.37.5][179.184.37.5.static.gvt.net.br][samuel.caldas][http://177.124.60.170:8087/painelDeControle.php?corpo=buscaRelatorioMensalFinanceiro&mesAtual=08&anoAtual=2015][Chrome]
[14-07-15][11:49:30][179.184.37.5][179.184.37.5.static.gvt.net.br][samuel.caldas][http://177.124.60.170:8087/painelDeControle.php?corpo=buscaRelatorioMensalFinanceiro&mesAtual=07&anoAtual=2015][Chrome]
[14-07-15][11:50:43][179.184.37.5][179.184.37.5.static.gvt.net.br][samuel.caldas][http://177.124.60.170:8087/painelDeControle.php?corpo=buscaRelatorioMensalFinanceiro&mesAtual=08&anoAtual=2015][Chrome]
[14-07-15][11:50:59][179.184.37.5][179.184.37.5.static.gvt.net.br][samuel.caldas][http://177.124.60.170:8087/painelDeControle.php?corpo=buscaRelatorioMensalFinanceiro&mesAtual=07&anoAtual=2015][Chrome]
[14-07-15][11:51:01][179.184.37.5][179.184.37.5.static.gvt.net.br][samuel.caldas][http://177.124.60.170:8087/painelDeControle.php?corpo=buscaRelatorioMensalFinanceiro&mesAtual=06&anoAtual=2015][Chrome]
[14-07-15][11:51:02][179.184.37.5][179.184.37.5.static.gvt.net.br][samuel.caldas][http://177.124.60.170:8087/painelDeControle.php?corpo=buscaRelatorioMensalFinanceiro&mesAtual=05&anoAtual=2015][Chrome]
[14-07-15][11:51:04][179.184.37.5][179.184.37.5.static.gvt.net.br][samuel.caldas][http://177.124.60.170:8087/painelDeControle.php?corpo=buscaRelatorioMensalFinanceiro&mesAtual=04&anoAtual=2015][Chrome]
[14-07-15][11:51:05][179.184.37.5][179.184.37.5.static.gvt.net.br][samuel.caldas][http://177.124.60.170:8087/painelDeControle.php?corpo=buscaRelatorioMensalFinanceiro&mesAtual=03&anoAtual=2015][Chrome]
[14-07-15][11:51:07][179.184.37.5][179.184.37.5.static.gvt.net.br][samuel.caldas][http://177.124.60.170:8087/painelDeControle.php?corpo=buscaRelatorioMensalFinanceiro&mesAtual=02&anoAtual=2015][Chrome]
[14-07-15][11:51:08][179.184.37.5][179.184.37.5.static.gvt.net.br][samuel.caldas][http://177.124.60.170:8087/painelDeControle.php?corpo=buscaRelatorioMensalFinanceiro&mesAtual=01&anoAtual=2015][Chrome]
[14-07-15][11:52:30][179.184.37.5][179.184.37.5.static.gvt.net.br][samuel.caldas][http://177.124.60.170:8087/painelDeControle.php?corpo=buscaRelatorioMensalFinanceiro&mesAtual=01&anoAtual=2015][Chrome]
[14-07-15][11:52:47][179.184.37.5][179.184.37.5.static.gvt.net.br][samuel.caldas][http://177.124.60.170:8087/painelDeControle.php?corpo=buscaRelatorioMensalFinanceiro&mesAtual=01&anoAtual=2015][Chrome]
[14-07-15][11:56:52][179.184.37.5][179.184.37.5.static.gvt.net.br][samuel.caldas][http://177.124.60.170:8087/painelDeControle.php?corpo=buscaMembroOA][Chrome]
[14-07-15][11:56:52][179.184.37.5][179.184.37.5.static.gvt.net.br][samuel.caldas][http://177.124.60.170:8087/painelDeControle.php?corpo=buscaMembroOA][Chrome]
[14-07-15][11:56:54][179.184.37.5][179.184.37.5.static.gvt.net.br][samuel.caldas][http://177.124.60.170:8087/painelDeControle.php?corpo=cadastroMembroOA][Chrome]
[14-07-15][11:56:54][179.184.37.5][179.184.37.5.static.gvt.net.br][samuel.caldas][http://177.124.60.170:8087/painelDeControle.php?corpo=cadastroMembroOA][Chrome]
[14-07-15][13:12:27][179.184.37.5][179.184.37.5.static.gvt.net.br][samuel.caldas][http://177.124.60.170:8087/painelDeControle.php?][Chrome]
[14-07-15][13:12:27][179.184.37.5][179.184.37.5.static.gvt.net.br][samuel.caldas][http://177.124.60.170:8087/painelDeControle.php?][Chrome]
[14-07-15][13:14:24][179.184.37.5][179.184.37.5.static.gvt.net.br][samuel.caldas][http://177.124.60.170:8087/painelDeControle.php?][Chrome]
[14-07-15][13:14:24][179.184.37.5][179.184.37.5.static.gvt.net.br][samuel.caldas][http://177.124.60.170:8087/painelDeControle.php?][Chrome]
[14-07-15][13:14:29][179.184.37.5][179.184.37.5.static.gvt.net.br][samuel.caldas][http://177.124.60.170:8087/painelDeControle.php?corpo=buscaRelatorioMensalFinanceiro][Chrome]
[14-07-15][13:16:22][179.184.37.5][179.184.37.5.static.gvt.net.br][samuel.caldas][http://177.124.60.170:8087/painelDeControle.php?corpo=buscaControleFinanceiroMensal][Chrome]
[14-07-15][13:16:22][179.184.37.5][179.184.37.5.static.gvt.net.br][samuel.caldas][http://177.124.60.170:8087/painelDeControle.php?corpo=buscaControleFinanceiroMensal][Chrome]
[14-07-15][13:17:10][179.184.37.5][179.184.37.5.static.gvt.net.br][samuel.caldas][http://177.124.60.170:8087/painelDeControle.php?corpo=buscaRelatorioMensalFinanceiro][Chrome]
[14-07-15][13:17:15][179.184.37.5][179.184.37.5.static.gvt.net.br][samuel.caldas][http://177.124.60.170:8087/painelDeControle.php?corpo=buscaRelatorioMensalFinanceiro&mesAtual=06&anoAtual=2015][Chrome]
[14-07-15][13:17:16][179.184.37.5][179.184.37.5.static.gvt.net.br][samuel.caldas][http://177.124.60.170:8087/painelDeControle.php?corpo=buscaRelatorioMensalFinanceiro&mesAtual=05&anoAtual=2015][Chrome]
[14-07-15][13:17:18][179.184.37.5][179.184.37.5.static.gvt.net.br][samuel.caldas][http://177.124.60.170:8087/painelDeControle.php?corpo=buscaRelatorioMensalFinanceiro&mesAtual=04&anoAtual=2015][Chrome]
[14-07-15][13:17:19][179.184.37.5][179.184.37.5.static.gvt.net.br][samuel.caldas][http://177.124.60.170:8087/painelDeControle.php?corpo=buscaRelatorioMensalFinanceiro&mesAtual=03&anoAtual=2015][Chrome]
[14-07-15][13:17:20][179.184.37.5][179.184.37.5.static.gvt.net.br][samuel.caldas][http://177.124.60.170:8087/painelDeControle.php?corpo=buscaRelatorioMensalFinanceiro&mesAtual=02&anoAtual=2015][Chrome]
[14-07-15][13:17:21][179.184.37.5][179.184.37.5.static.gvt.net.br][samuel.caldas][http://177.124.60.170:8087/painelDeControle.php?corpo=buscaRelatorioMensalFinanceiro&mesAtual=01&anoAtual=2015][Chrome]
[14-07-15][13:17:30][179.184.37.5][179.184.37.5.static.gvt.net.br][samuel.caldas][http://177.124.60.170:8087/painelDeControle.php?corpo=buscaRelatorioMensalFinanceiro&mesAtual=01&anoAtual=2015][Chrome]
[14-07-15][13:17:46][179.184.37.5][179.184.37.5.static.gvt.net.br][samuel.caldas][http://177.124.60.170:8087/painelDeControle.php?][Chrome]
[14-07-15][13:17:46][179.184.37.5][179.184.37.5.static.gvt.net.br][samuel.caldas][http://177.124.60.170:8087/painelDeControle.php?][Chrome]
[14-07-15][13:17:57][179.184.37.5][179.184.37.5.static.gvt.net.br][samuel.caldas][http://177.124.60.170:8087/painelDeControle.php?corpo=buscaRelatorioMensalFinanceiro][Chrome]
[14-07-15][13:18:01][179.184.37.5][179.184.37.5.static.gvt.net.br][samuel.caldas][http://177.124.60.170:8087/painelDeControle.php?corpo=buscaRelatorioMensalFinanceiro&mesAtual=06&anoAtual=2015][Chrome]
[14-07-15][13:18:05][179.184.37.5][179.184.37.5.static.gvt.net.br][samuel.caldas][http://177.124.60.170:8087/painelDeControle.php?corpo=buscaRelatorioMensalFinanceiro&mesAtual=01&anoAtual=2015][Chrome]
[14-07-15][13:18:15][179.184.37.5][179.184.37.5.static.gvt.net.br][samuel.caldas][http://177.124.60.170:8087/painelDeControle.php?corpo=buscaRelatorioMensalFinanceiro&mesAtual=01&anoAtual=2015][Chrome]
[14-07-15][13:18:23][179.184.37.5][179.184.37.5.static.gvt.net.br][samuel.caldas][http://177.124.60.170:8087/painelDeControle.php?corpo=buscaRelatorioMensalFinanceiro&mesAtual=01&anoAtual=2015][Chrome]
[14-07-15][13:18:37][179.184.37.5][179.184.37.5.static.gvt.net.br][samuel.caldas][http://177.124.60.170:8087/painelDeControle.php?corpo=buscaRelatorioMensalFinanceiro&mesAtual=01&anoAtual=2015][Chrome]
[14-07-15][13:20:50][179.184.37.5][179.184.37.5.static.gvt.net.br][][http://177.124.60.170:8087/login.php?][Chrome]
[14-07-15][13:20:53][179.184.37.5][179.184.37.5.static.gvt.net.br][lbas][http://177.124.60.170:8087/painelDeControle.php?][Chrome]
[14-07-15][13:20:53][179.184.37.5][179.184.37.5.static.gvt.net.br][lbas][http://177.124.60.170:8087/painelDeControle.php?][Chrome]
[14-07-15][13:20:57][179.184.37.5][179.184.37.5.static.gvt.net.br][lbas][http://177.124.60.170:8087/painelDeControle.php?corpo=buscaSaldoInicial][Chrome]
[14-07-15][13:20:57][179.184.37.5][179.184.37.5.static.gvt.net.br][lbas][http://177.124.60.170:8087/painelDeControle.php?corpo=buscaSaldoInicial][Chrome]
[14-07-15][13:21:01][179.184.37.5][179.184.37.5.static.gvt.net.br][lbas][http://177.124.60.170:8087/painelDeControle.php?corpo=buscaRecebimentos][Chrome]
[14-07-15][13:21:14][179.184.37.5][179.184.37.5.static.gvt.net.br][lbas][http://177.124.60.170:8087/painelDeControle.php?corpo=buscaRelatorioMensalFinanceiro][Chrome]
[14-07-15][13:24:37][179.184.37.5][179.184.37.5.static.gvt.net.br][][http://177.124.60.170:8087/index.php?][Chrome]
[14-07-15][13:24:41][179.184.37.5][179.184.37.5.static.gvt.net.br][admin][http://177.124.60.170:8087/painelDeControle.php?][Chrome]
[14-07-15][13:24:41][179.184.37.5][179.184.37.5.static.gvt.net.br][admin][http://177.124.60.170:8087/painelDeControle.php?][Chrome]
[14-07-15][13:24:50][179.184.37.5][179.184.37.5.static.gvt.net.br][admin][http://177.124.60.170:8087/painelDeControle.php?corpo=buscaRelatorioMensalFinanceiro][Chrome]
[14-07-15][13:24:53][179.184.37.5][179.184.37.5.static.gvt.net.br][admin][http://177.124.60.170:8087/painelDeControle.php?corpo=buscaRelatorioMensalFinanceiro&mesAtual=06&anoAtual=2015][Chrome]
[14-07-15][13:24:57][179.184.37.5][179.184.37.5.static.gvt.net.br][admin][http://177.124.60.170:8087/painelDeControle.php?corpo=buscaRelatorioMensalFinanceiro&mesAtual=01&anoAtual=2015][Chrome]
[14-07-15][13:25:35][179.184.37.5][179.184.37.5.static.gvt.net.br][samuel.caldas][http://177.124.60.170:8087/painelDeControle.php?][Chrome]
[14-07-15][13:25:35][179.184.37.5][179.184.37.5.static.gvt.net.br][samuel.caldas][http://177.124.60.170:8087/painelDeControle.php?][Chrome]
[14-07-15][13:25:35][179.184.37.5][179.184.37.5.static.gvt.net.br][samuel.caldas][http://177.124.60.170:8087/login.php?][Chrome]
[14-07-15][13:25:37][179.184.37.5][179.184.37.5.static.gvt.net.br][samuel.caldas][http://177.124.60.170:8087/painelDeControle.php?][Chrome]
[14-07-15][13:25:37][179.184.37.5][179.184.37.5.static.gvt.net.br][samuel.caldas][http://177.124.60.170:8087/painelDeControle.php?][Chrome]
[14-07-15][13:25:40][179.184.37.5][179.184.37.5.static.gvt.net.br][samuel.caldas][http://177.124.60.170:8087/painelDeControle.php?corpo=buscaRelatorioMensalFinanceiro][Chrome]
[14-07-15][13:25:45][179.184.37.5][179.184.37.5.static.gvt.net.br][samuel.caldas][http://177.124.60.170:8087/painelDeControle.php?corpo=buscaRelatorioMensalFinanceiro&mesAtual=06&anoAtual=2015][Chrome]
[14-07-15][13:25:49][179.184.37.5][179.184.37.5.static.gvt.net.br][samuel.caldas][http://177.124.60.170:8087/painelDeControle.php?corpo=buscaRelatorioMensalFinanceiro&mesAtual=01&anoAtual=2015][Chrome]
[14-07-15][13:26:00][179.184.37.5][179.184.37.5.static.gvt.net.br][samuel.caldas][http://177.124.60.170:8087/painelDeControle.php?corpo=buscaRelatorioMensalFinanceiro&mesAtual=01&anoAtual=2015][Chrome]
[14-07-15][13:27:35][179.184.37.5][179.184.37.5.static.gvt.net.br][samuel.caldas][http://177.124.60.170:8087/painelDeControle.php?corpo=buscaRelatorioMensalFinanceiro&mesAtual=01&anoAtual=2015][Chrome]
[14-07-15][13:31:03][179.184.37.5][179.184.37.5.static.gvt.net.br][samuel.caldas][http://177.124.60.170:8087/login.php?][Chrome]
[14-07-15][13:31:05][179.184.37.5][179.184.37.5.static.gvt.net.br][samuel.caldas][http://177.124.60.170:8087/painelDeControle.php?][Chrome]
[14-07-15][13:31:05][179.184.37.5][179.184.37.5.static.gvt.net.br][samuel.caldas][http://177.124.60.170:8087/painelDeControle.php?][Chrome]
[14-07-15][13:31:37][179.184.37.5][179.184.37.5.static.gvt.net.br][samuel.caldas][http://177.124.60.170:8087/painelDeControle.php?corpo=buscaRelatorioMensalFinanceiro][Chrome]
[14-07-15][13:31:45][179.184.37.5][179.184.37.5.static.gvt.net.br][samuel.caldas][http://177.124.60.170:8087/painelDeControle.php?corpo=buscaRelatorioMensalFinanceiro&mesAtual=06&anoAtual=2015][Chrome]
[14-07-15][13:31:51][179.184.37.5][179.184.37.5.static.gvt.net.br][samuel.caldas][http://177.124.60.170:8087/painelDeControle.php?corpo=buscaRelatorioMensalFinanceiro&mesAtual=01&anoAtual=2015][Chrome]
[14-07-15][13:32:36][179.184.37.5][179.184.37.5.static.gvt.net.br][lbas][http://177.124.60.170:8087/painelDeControle.php?corpo=buscaRelatorioMensalFinanceiro&mesAtual=06&anoAtual=2015][Chrome]
[14-07-15][13:32:40][179.184.37.5][179.184.37.5.static.gvt.net.br][lbas][http://177.124.60.170:8087/painelDeControle.php?corpo=buscaRelatorioMensalFinanceiro&mesAtual=01&anoAtual=2015][Chrome]
[14-07-15][13:33:10][179.184.37.5][179.184.37.5.static.gvt.net.br][samuel.caldas][http://177.124.60.170:8087/painelDeControle.php?corpo=buscaRelatorioMensalFinanceiro&mesAtual=01&anoAtual=2015][Chrome]
[14-07-15][13:34:19][179.184.37.5][179.184.37.5.static.gvt.net.br][samuel.caldas][http://177.124.60.170:8087/painelDeControle.php?corpo=buscaRelatorioAnualFinanceiro][Chrome]
[14-07-15][13:35:55][179.184.37.5][179.184.37.5.static.gvt.net.br][samuel.caldas][http://177.124.60.170:8087/painelDeControle.php?corpo=buscaRelatorioAnualFinanceiro][Chrome]
[14-07-15][15:15:51][179.184.37.5][179.184.37.5.static.gvt.net.br][][http://177.124.60.170:8087/index.php?][Chrome]
[14-07-15][15:24:02][179.184.37.5][179.184.37.5.static.gvt.net.br][samuel.caldas][http://177.124.60.170:8087/painelDeControle.php?][Chrome]
[14-07-15][15:24:02][179.184.37.5][179.184.37.5.static.gvt.net.br][samuel.caldas][http://177.124.60.170:8087/painelDeControle.php?][Chrome]
[14-07-15][15:48:00][179.184.37.5][179.184.37.5.static.gvt.net.br][samuel.caldas][http://177.124.60.170:8087/painelDeControle.php?][Chrome]
[14-07-15][15:48:00][179.184.37.5][179.184.37.5.static.gvt.net.br][samuel.caldas][http://177.124.60.170:8087/painelDeControle.php?][Chrome]
[14-07-15][15:56:04][179.184.37.5][179.184.37.5.static.gvt.net.br][samuel.caldas][http://177.124.60.170:8087/painelDeControle.php?corpo=buscaSecaoMenu][Chrome]
[14-07-15][15:56:04][179.184.37.5][179.184.37.5.static.gvt.net.br][samuel.caldas][http://177.124.60.170:8087/painelDeControle.php?corpo=buscaSecaoMenu][Chrome]
[14-07-15][15:56:07][179.184.37.5][179.184.37.5.static.gvt.net.br][samuel.caldas][http://177.124.60.170:8087/painelDeControle.php?corpo=cadastroSecaoMenu][Chrome]
[14-07-15][15:56:07][179.184.37.5][179.184.37.5.static.gvt.net.br][samuel.caldas][http://177.124.60.170:8087/painelDeControle.php?corpo=cadastroSecaoMenu][Chrome]
[14-07-15][15:56:28][179.184.37.5][179.184.37.5.static.gvt.net.br][samuel.caldas][http://177.124.60.170:8087/painelDeControle.php?corpo=buscaSecaoMenu][Chrome]
[14-07-15][15:56:28][179.184.37.5][179.184.37.5.static.gvt.net.br][samuel.caldas][http://177.124.60.170:8087/painelDeControle.php?corpo=buscaSecaoMenu][Chrome]
[14-07-15][15:56:30][179.184.37.5][179.184.37.5.static.gvt.net.br][samuel.caldas][http://177.124.60.170:8087/painelDeControle.php?corpo=buscaSubMenu][Chrome]
[14-07-15][15:56:30][179.184.37.5][179.184.37.5.static.gvt.net.br][samuel.caldas][http://177.124.60.170:8087/painelDeControle.php?corpo=buscaSubMenu][Chrome]
[14-07-15][15:56:32][179.184.37.5][179.184.37.5.static.gvt.net.br][samuel.caldas][http://177.124.60.170:8087/painelDeControle.php?corpo=cadastroSubMenu][Chrome]
[14-07-15][15:56:32][179.184.37.5][179.184.37.5.static.gvt.net.br][samuel.caldas][http://177.124.60.170:8087/painelDeControle.php?corpo=cadastroSubMenu][Chrome]
[14-07-15][15:58:29][179.184.37.5][179.184.37.5.static.gvt.net.br][samuel.caldas][http://177.124.60.170:8087/painelDeControle.php?corpo=buscaSubMenu][Chrome]
[14-07-15][15:58:29][179.184.37.5][179.184.37.5.static.gvt.net.br][samuel.caldas][http://177.124.60.170:8087/painelDeControle.php?corpo=buscaSubMenu][Chrome]
[14-07-15][15:58:31][179.184.37.5][179.184.37.5.static.gvt.net.br][samuel.caldas][http://177.124.60.170:8087/painelDeControle.php?corpo=cadastroSubMenu][Chrome]
[14-07-15][15:58:31][179.184.37.5][179.184.37.5.static.gvt.net.br][samuel.caldas][http://177.124.60.170:8087/painelDeControle.php?corpo=cadastroSubMenu][Chrome]
[14-07-15][15:58:41][179.184.37.5][179.184.37.5.static.gvt.net.br][samuel.caldas][http://177.124.60.170:8087/painelDeControle.php?corpo=buscaSubMenu][Chrome]
[14-07-15][15:58:41][179.184.37.5][179.184.37.5.static.gvt.net.br][samuel.caldas][http://177.124.60.170:8087/painelDeControle.php?corpo=buscaSubMenu][Chrome]
[14-07-15][15:58:43][179.184.37.5][179.184.37.5.static.gvt.net.br][samuel.caldas][http://177.124.60.170:8087/painelDeControle.php?corpo=cadastroSubMenu][Chrome]
[14-07-15][15:58:43][179.184.37.5][179.184.37.5.static.gvt.net.br][samuel.caldas][http://177.124.60.170:8087/painelDeControle.php?corpo=cadastroSubMenu][Chrome]
[14-07-15][15:59:10][179.184.37.5][179.184.37.5.static.gvt.net.br][samuel.caldas][http://177.124.60.170:8087/painelDeControle.php?corpo=buscaSubMenu][Chrome]
[14-07-15][15:59:10][179.184.37.5][179.184.37.5.static.gvt.net.br][samuel.caldas][http://177.124.60.170:8087/painelDeControle.php?corpo=buscaSubMenu][Chrome]
[14-07-15][15:59:12][179.184.37.5][179.184.37.5.static.gvt.net.br][samuel.caldas][http://177.124.60.170:8087/painelDeControle.php?][Chrome]
[14-07-15][15:59:12][179.184.37.5][179.184.37.5.static.gvt.net.br][samuel.caldas][http://177.124.60.170:8087/painelDeControle.php?][Chrome]
[14-07-15][15:59:16][179.184.37.5][179.184.37.5.static.gvt.net.br][samuel.caldas][http://177.124.60.170:8087/painelDeControle.php?corpo=buscaPermissao][Chrome]
[14-07-15][15:59:16][179.184.37.5][179.184.37.5.static.gvt.net.br][samuel.caldas][http://177.124.60.170:8087/painelDeControle.php?corpo=buscaPermissao][Chrome]
[14-07-15][15:59:44][179.184.37.5][179.184.37.5.static.gvt.net.br][samuel.caldas][http://177.124.60.170:8087/painelDeControle.php?][Chrome]
[14-07-15][15:59:44][179.184.37.5][179.184.37.5.static.gvt.net.br][samuel.caldas][http://177.124.60.170:8087/painelDeControle.php?][Chrome]
[14-07-15][15:59:44][179.184.37.5][179.184.37.5.static.gvt.net.br][samuel.caldas][http://177.124.60.170:8087/login.php?][Chrome]
[14-07-15][15:59:49][179.184.37.5][179.184.37.5.static.gvt.net.br][eele][http://177.124.60.170:8087/painelDeControle.php?][Chrome]
[14-07-15][15:59:49][179.184.37.5][179.184.37.5.static.gvt.net.br][eele][http://177.124.60.170:8087/painelDeControle.php?][Chrome]
[14-07-15][15:59:52][179.184.37.5][179.184.37.5.static.gvt.net.br][eele][http://177.124.60.170:8087/login.php?][Chrome]
[14-07-15][15:59:55][179.184.37.5][179.184.37.5.static.gvt.net.br][samuel.caldas][http://177.124.60.170:8087/painelDeControle.php?][Chrome]
[14-07-15][15:59:55][179.184.37.5][179.184.37.5.static.gvt.net.br][samuel.caldas][http://177.124.60.170:8087/painelDeControle.php?][Chrome]
[14-07-15][16:03:24][179.184.37.5][179.184.37.5.static.gvt.net.br][samuel.caldas][http://177.124.60.170:8087/painelDeControle.php?corpo=buscaPlanoAcaoRegiao][Chrome]
[14-07-15][16:03:24][179.184.37.5][179.184.37.5.static.gvt.net.br][samuel.caldas][http://177.124.60.170:8087/painelDeControle.php?corpo=buscaPlanoAcaoRegiao][Chrome]
[14-07-15][16:04:59][179.184.37.5][179.184.37.5.static.gvt.net.br][samuel.caldas][http://177.124.60.170:8087/painelDeControle.php?corpo=buscaPlanoAcaoRegiao][Chrome]
[14-07-15][16:04:59][179.184.37.5][179.184.37.5.static.gvt.net.br][samuel.caldas][http://177.124.60.170:8087/painelDeControle.php?corpo=buscaPlanoAcaoRegiao][Chrome]
[14-07-15][16:05:04][179.184.37.5][179.184.37.5.static.gvt.net.br][samuel.caldas][http://177.124.60.170:8087/painelDeControle.php?corpo=cadastroPlanoAcaoRegiao][Chrome]
[14-07-15][16:05:04][179.184.37.5][179.184.37.5.static.gvt.net.br][samuel.caldas][http://177.124.60.170:8087/painelDeControle.php?corpo=cadastroPlanoAcaoRegiao][Chrome]
[14-07-15][16:05:09][179.184.37.5][179.184.37.5.static.gvt.net.br][samuel.caldas][http://177.124.60.170:8087/painelDeControle.php?][Chrome]
[14-07-15][16:05:09][179.184.37.5][179.184.37.5.static.gvt.net.br][samuel.caldas][http://177.124.60.170:8087/painelDeControle.php?][Chrome]
[14-07-15][16:32:47][179.184.37.5][179.184.37.5.static.gvt.net.br][][http://177.124.60.170:8087/index.php?][Chrome]
[14-07-15][16:32:49][179.184.37.5][179.184.37.5.static.gvt.net.br][samuel.caldas][http://177.124.60.170:8087/painelDeControle.php?][Chrome]
[14-07-15][16:32:49][179.184.37.5][179.184.37.5.static.gvt.net.br][samuel.caldas][http://177.124.60.170:8087/painelDeControle.php?][Chrome]
[14-07-15][16:32:53][179.184.37.5][179.184.37.5.static.gvt.net.br][samuel.caldas][http://177.124.60.170:8087/painelDeControle.php?corpo=buscaNotificacaoAtualizacaoServer][Chrome]
[14-07-15][16:32:53][179.184.37.5][179.184.37.5.static.gvt.net.br][samuel.caldas][http://177.124.60.170:8087/painelDeControle.php?corpo=buscaNotificacaoAtualizacaoServer][Chrome]
[14-07-15][16:36:08][179.184.37.5][179.184.37.5.static.gvt.net.br][samuel.caldas][http://177.124.60.170:8087/painelDeControle.php?corpo=cadastroNotificacoesAtualizacaoServer][Chrome]
[14-07-15][16:36:08][179.184.37.5][179.184.37.5.static.gvt.net.br][samuel.caldas][http://177.124.60.170:8087/painelDeControle.php?corpo=cadastroNotificacoesAtualizacaoServer][Chrome]
[14-07-15][16:41:16][179.184.37.5][179.184.37.5.static.gvt.net.br][samuel.caldas][http://177.124.60.170:8087/painelDeControle.php?corpo=buscaPlanoAcaoRegiao][Chrome]
[14-07-15][16:41:16][179.184.37.5][179.184.37.5.static.gvt.net.br][samuel.caldas][http://177.124.60.170:8087/painelDeControle.php?corpo=buscaPlanoAcaoRegiao][Chrome]
[14-07-15][16:43:52][179.184.37.5][179.184.37.5.static.gvt.net.br][samuel.caldas][http://177.124.60.170:8087/painelDeControle.php?corpo=cadastroPlanoAcaoRegiao][Chrome]
[14-07-15][16:43:52][179.184.37.5][179.184.37.5.static.gvt.net.br][samuel.caldas][http://177.124.60.170:8087/painelDeControle.php?corpo=cadastroPlanoAcaoRegiao][Chrome]
[14-07-15][16:48:39][179.184.37.5][179.184.37.5.static.gvt.net.br][samuel.caldas][http://177.124.60.170:8087/painelDeControle.php?corpo=buscaPlanoAcaoRegiao][Chrome]
[14-07-15][16:48:39][179.184.37.5][179.184.37.5.static.gvt.net.br][samuel.caldas][http://177.124.60.170:8087/painelDeControle.php?corpo=buscaPlanoAcaoRegiao][Chrome]
[14-07-15][16:48:48][179.184.37.5][179.184.37.5.static.gvt.net.br][samuel.caldas][http://177.124.60.170:8087/painelDeControle.php?corpo=alteraPlanoAcaoRegiao&idPlanoAcaoRegiao=1][Chrome]
[14-07-15][16:48:48][179.184.37.5][179.184.37.5.static.gvt.net.br][samuel.caldas][http://177.124.60.170:8087/painelDeControle.php?corpo=alteraPlanoAcaoRegiao&idPlanoAcaoRegiao=1][Chrome]
[14-07-15][16:48:58][179.184.37.5][179.184.37.5.static.gvt.net.br][samuel.caldas][http://177.124.60.170:8087/painelDeControle.php?corpo=buscaPlanoAcaoRegiao][Chrome]
[14-07-15][16:48:58][179.184.37.5][179.184.37.5.static.gvt.net.br][samuel.caldas][http://177.124.60.170:8087/painelDeControle.php?corpo=buscaPlanoAcaoRegiao][Chrome]
[14-07-15][16:50:39][179.184.37.5][179.184.37.5.static.gvt.net.br][samuel.caldas][http://177.124.60.170:8087/painelDeControle.php?corpo=buscaPlanoAcaoRegiaoDetalhe&idPlanoAcaoRegiao=1][Chrome]
[14-07-15][16:50:39][179.184.37.5][179.184.37.5.static.gvt.net.br][samuel.caldas][http://177.124.60.170:8087/painelDeControle.php?corpo=buscaPlanoAcaoRegiaoDetalhe&idPlanoAcaoRegiao=1][Chrome]
[14-07-15][16:58:07][179.184.37.5][179.184.37.5.static.gvt.net.br][samuel.caldas][http://177.124.60.170:8087/painelDeControle.php?corpo=buscaPlanoAcaoRegiaoDetalhe&idPlanoAcaoRegiao=1][Chrome]
[14-07-15][16:58:07][179.184.37.5][179.184.37.5.static.gvt.net.br][samuel.caldas][http://177.124.60.170:8087/painelDeControle.php?corpo=buscaPlanoAcaoRegiaoDetalhe&idPlanoAcaoRegiao=1][Chrome]
[14-07-15][16:58:07][179.184.37.5][179.184.37.5.static.gvt.net.br][samuel.caldas][http://177.124.60.170:8087/painelDeControle.php?corpo=buscaPlanoAcaoRegiaoDetalhe&idPlanoAcaoRegiao=1][Chrome]
[14-07-15][16:58:07][179.184.37.5][179.184.37.5.static.gvt.net.br][samuel.caldas][http://177.124.60.170:8087/painelDeControle.php?corpo=buscaPlanoAcaoRegiaoDetalhe&idPlanoAcaoRegiao=1][Chrome]
[14-07-15][17:03:56][179.184.37.5][179.184.37.5.static.gvt.net.br][samuel.caldas][http://177.124.60.170:8087/painelDeControle.php?corpo=buscaPlanoAcaoRegiaoDetalhe&idPlanoAcaoRegiao=1][Chrome]
[14-07-15][17:03:56][179.184.37.5][179.184.37.5.static.gvt.net.br][samuel.caldas][http://177.124.60.170:8087/painelDeControle.php?corpo=buscaPlanoAcaoRegiaoDetalhe&idPlanoAcaoRegiao=1][Chrome]
[14-07-15][17:03:57][179.184.37.5][179.184.37.5.static.gvt.net.br][samuel.caldas][http://177.124.60.170:8087/painelDeControle.php?corpo=buscaPlanoAcaoRegiaoDetalhe&idPlanoAcaoRegiao=1][Chrome]
[14-07-15][17:03:57][179.184.37.5][179.184.37.5.static.gvt.net.br][samuel.caldas][http://177.124.60.170:8087/painelDeControle.php?corpo=buscaPlanoAcaoRegiaoDetalhe&idPlanoAcaoRegiao=1][Chrome]
[14-07-15][17:09:08][179.184.37.5][179.184.37.5.static.gvt.net.br][samuel.caldas][http://177.124.60.170:8087/painelDeControle.php?corpo=buscaNotificacaoAtualizacaoServer][Chrome]
[14-07-15][17:09:08][179.184.37.5][179.184.37.5.static.gvt.net.br][samuel.caldas][http://177.124.60.170:8087/painelDeControle.php?corpo=buscaNotificacaoAtualizacaoServer][Chrome]
[14-07-15][17:09:11][179.184.37.5][179.184.37.5.static.gvt.net.br][samuel.caldas][http://177.124.60.170:8087/painelDeControle.php?][Chrome]
[14-07-15][17:09:11][179.184.37.5][179.184.37.5.static.gvt.net.br][samuel.caldas][http://177.124.60.170:8087/painelDeControle.php?][Chrome]
[14-07-15][17:09:15][179.184.37.5][179.184.37.5.static.gvt.net.br][samuel.caldas][http://177.124.60.170:8087/login.php?][Chrome]
[14-07-15][17:09:17][179.184.37.5][179.184.37.5.static.gvt.net.br][samuel.caldas][http://177.124.60.170:8087/painelDeControle.php?][Chrome]
[14-07-15][17:09:17][179.184.37.5][179.184.37.5.static.gvt.net.br][samuel.caldas][http://177.124.60.170:8087/painelDeControle.php?][Chrome]
[14-07-15][17:09:18][179.184.37.5][179.184.37.5.static.gvt.net.br][samuel.caldas][http://177.124.60.170:8087/login.php?][Chrome]
[14-07-15][17:09:19][179.184.37.5][179.184.37.5.static.gvt.net.br][samuel.caldas][http://177.124.60.170:8087/login.php?][Chrome]
[14-07-15][17:09:22][179.184.37.5][179.184.37.5.static.gvt.net.br][samuel.caldas][http://177.124.60.170:8087/painelDeControle.php?][Chrome]
[14-07-15][17:09:22][179.184.37.5][179.184.37.5.static.gvt.net.br][samuel.caldas][http://177.124.60.170:8087/painelDeControle.php?][Chrome]
[14-07-15][17:09:27][179.184.37.5][179.184.37.5.static.gvt.net.br][samuel.caldas][http://177.124.60.170:8087/painelDeControle.php?corpo=listaDeAtualizacoesServer][Chrome]
[14-07-15][17:09:27][179.184.37.5][179.184.37.5.static.gvt.net.br][samuel.caldas][http://177.124.60.170:8087/painelDeControle.php?corpo=listaDeAtualizacoesServer][Chrome]
[14-07-15][17:09:31][179.184.37.5][179.184.37.5.static.gvt.net.br][samuel.caldas][http://177.124.60.170:8087/painelDeControle.php?][Chrome]
[14-07-15][17:09:31][179.184.37.5][179.184.37.5.static.gvt.net.br][samuel.caldas][http://177.124.60.170:8087/painelDeControle.php?][Chrome]
[14-07-15][17:09:38][179.184.37.5][179.184.37.5.static.gvt.net.br][samuel.caldas][http://177.124.60.170:8087/painelDeControle.php?corpo=buscaNotificacaoAtualizacaoServer][Chrome]
[14-07-15][17:09:38][179.184.37.5][179.184.37.5.static.gvt.net.br][samuel.caldas][http://177.124.60.170:8087/painelDeControle.php?corpo=buscaNotificacaoAtualizacaoServer][Chrome]
[14-07-15][17:09:43][179.184.37.5][179.184.37.5.static.gvt.net.br][samuel.caldas][http://177.124.60.170:8087/painelDeControle.php?][Chrome]
[14-07-15][17:09:43][179.184.37.5][179.184.37.5.static.gvt.net.br][samuel.caldas][http://177.124.60.170:8087/painelDeControle.php?][Chrome]
[14-07-15][17:09:50][179.184.37.5][179.184.37.5.static.gvt.net.br][samuel.caldas][http://177.124.60.170:8087/painelDeControle.php?corpo=detalheAtualizacoesServer&idNotificacao=1][Chrome]
[14-07-15][17:09:50][179.184.37.5][179.184.37.5.static.gvt.net.br][samuel.caldas][http://177.124.60.170:8087/painelDeControle.php?corpo=detalheAtualizacoesServer&idNotificacao=1][Chrome]
[14-07-15][17:09:55][179.184.37.5][179.184.37.5.static.gvt.net.br][samuel.caldas][http://177.124.60.170:8087/painelDeControle.php?][Chrome]
[14-07-15][17:09:55][179.184.37.5][179.184.37.5.static.gvt.net.br][samuel.caldas][http://177.124.60.170:8087/painelDeControle.php?][Chrome]
[14-07-15][17:10:18][179.184.37.5][179.184.37.5.static.gvt.net.br][][http://177.124.60.170:8087/index.php?][Chrome]
[14-07-15][17:10:23][179.184.37.5][179.184.37.5.static.gvt.net.br][admin][http://177.124.60.170:8087/painelDeControle.php?][Chrome]
[14-07-15][17:10:23][179.184.37.5][179.184.37.5.static.gvt.net.br][admin][http://177.124.60.170:8087/painelDeControle.php?][Chrome]
[14-07-15][17:10:24][179.184.37.5][179.184.37.5.static.gvt.net.br][admin][http://177.124.60.170:8087/painelDeControle.php?corpo=detalheAtualizacoesServer&idNotificacao=1][Chrome]
[14-07-15][17:10:24][179.184.37.5][179.184.37.5.static.gvt.net.br][admin][http://177.124.60.170:8087/painelDeControle.php?corpo=detalheAtualizacoesServer&idNotificacao=1][Chrome]
[14-07-15][17:12:12][179.184.37.5][179.184.37.5.static.gvt.net.br][][http://177.124.60.170:8087/index.php?][Chrome]
[14-07-15][17:12:17][179.184.37.5][179.184.37.5.static.gvt.net.br][eele][http://177.124.60.170:8087/painelDeControle.php?][Chrome]
[14-07-15][17:12:17][179.184.37.5][179.184.37.5.static.gvt.net.br][eele][http://177.124.60.170:8087/painelDeControle.php?][Chrome]
[14-07-15][17:12:43][179.184.37.5][179.184.37.5.static.gvt.net.br][eele][http://177.124.60.170:8087/painelDeControle.php?corpo=buscaOficial][Chrome]
[14-07-15][17:12:43][179.184.37.5][179.184.37.5.static.gvt.net.br][eele][http://177.124.60.170:8087/painelDeControle.php?corpo=buscaOficial][Chrome]
[14-07-15][17:12:46][179.184.37.5][179.184.37.5.static.gvt.net.br][eele][http://177.124.60.170:8087/painelDeControle.php?][Chrome]
[14-07-15][17:12:46][179.184.37.5][179.184.37.5.static.gvt.net.br][eele][http://177.124.60.170:8087/painelDeControle.php?][Chrome]
[14-07-15][17:12:57][179.184.37.5][179.184.37.5.static.gvt.net.br][eele][http://177.124.60.170:8087/painelDeControle.php?corpo=listaDeAtualizacoesServer][Chrome]
[14-07-15][17:12:57][179.184.37.5][179.184.37.5.static.gvt.net.br][eele][http://177.124.60.170:8087/painelDeControle.php?corpo=listaDeAtualizacoesServer][Chrome]
[14-07-15][17:13:04][179.184.37.5][179.184.37.5.static.gvt.net.br][eele][http://177.124.60.170:8087/painelDeControle.php?corpo=detalheAtualizacoesServer&idNotificacao=1][Chrome]
[14-07-15][17:13:04][179.184.37.5][179.184.37.5.static.gvt.net.br][eele][http://177.124.60.170:8087/painelDeControle.php?corpo=detalheAtualizacoesServer&idNotificacao=1][Chrome]
[14-07-15][17:13:39][179.184.37.5][179.184.37.5.static.gvt.net.br][][http://177.124.60.170:8087/index.php?][Chrome]
[14-07-15][17:13:43][179.184.37.5][179.184.37.5.static.gvt.net.br][carol][http://177.124.60.170:8087/painelDeControle.php?][Chrome]
[14-07-15][17:13:43][179.184.37.5][179.184.37.5.static.gvt.net.br][carol][http://177.124.60.170:8087/painelDeControle.php?][Chrome]
[14-07-15][17:14:20][179.184.37.5][179.184.37.5.static.gvt.net.br][carol][http://177.124.60.170:8087/painelDeControle.php?corpo=listaDeAtualizacoesServer][Chrome]
[14-07-15][17:14:20][179.184.37.5][179.184.37.5.static.gvt.net.br][carol][http://177.124.60.170:8087/painelDeControle.php?corpo=listaDeAtualizacoesServer][Chrome]
[14-07-15][17:14:27][179.184.37.5][179.184.37.5.static.gvt.net.br][carol][http://177.124.60.170:8087/painelDeControle.php?corpo=detalheAtualizacoesServer&idNotificacao=1][Chrome]
[14-07-15][17:14:27][179.184.37.5][179.184.37.5.static.gvt.net.br][carol][http://177.124.60.170:8087/painelDeControle.php?corpo=detalheAtualizacoesServer&idNotificacao=1][Chrome]
[14-07-15][17:15:27][179.184.37.5][179.184.37.5.static.gvt.net.br][carol][http://177.124.60.170:8087/painelDeControle.php?][Chrome]
[14-07-15][17:15:27][179.184.37.5][179.184.37.5.static.gvt.net.br][carol][http://177.124.60.170:8087/painelDeControle.php?][Chrome]
[14-07-15][17:15:34][179.184.37.5][179.184.37.5.static.gvt.net.br][carol][http://177.124.60.170:8087/painelDeControle.php?corpo=listaDeAtualizacoesServer][Chrome]
[14-07-15][17:15:34][179.184.37.5][179.184.37.5.static.gvt.net.br][carol][http://177.124.60.170:8087/painelDeControle.php?corpo=listaDeAtualizacoesServer][Chrome]
[14-07-15][17:15:44][179.184.37.5][179.184.37.5.static.gvt.net.br][carol][http://177.124.60.170:8087/painelDeControle.php?corpo=detalheAtualizacoesServer&idNotificacao=1][Chrome]
[14-07-15][17:15:44][179.184.37.5][179.184.37.5.static.gvt.net.br][carol][http://177.124.60.170:8087/painelDeControle.php?corpo=detalheAtualizacoesServer&idNotificacao=1][Chrome]
[14-07-15][17:16:34][179.184.37.5][179.184.37.5.static.gvt.net.br][eele][http://177.124.60.170:8087/painelDeControle.php?corpo=buscaPlanoAcaoRegiao][Chrome]
[14-07-15][17:16:34][179.184.37.5][179.184.37.5.static.gvt.net.br][eele][http://177.124.60.170:8087/painelDeControle.php?corpo=buscaPlanoAcaoRegiao][Chrome]
[14-07-15][17:16:59][179.184.37.5][179.184.37.5.static.gvt.net.br][eele][http://177.124.60.170:8087/painelDeControle.php?corpo=cadastroPlanoAcaoRegiao][Chrome]
[14-07-15][17:16:59][179.184.37.5][179.184.37.5.static.gvt.net.br][eele][http://177.124.60.170:8087/painelDeControle.php?corpo=cadastroPlanoAcaoRegiao][Chrome]
[14-07-15][17:17:48][179.184.37.5][179.184.37.5.static.gvt.net.br][eele][http://177.124.60.170:8087/painelDeControle.php?corpo=buscaPlanoAcaoRegiao][Chrome]
[14-07-15][17:17:48][179.184.37.5][179.184.37.5.static.gvt.net.br][eele][http://177.124.60.170:8087/painelDeControle.php?corpo=buscaPlanoAcaoRegiao][Chrome]
[14-07-15][17:18:09][179.184.37.5][179.184.37.5.static.gvt.net.br][eele][http://177.124.60.170:8087/painelDeControle.php?corpo=buscaPlanoAcaoRegiaoDetalhe&idPlanoAcaoRegiao=2][Chrome]
[14-07-15][17:18:09][179.184.37.5][179.184.37.5.static.gvt.net.br][eele][http://177.124.60.170:8087/painelDeControle.php?corpo=buscaPlanoAcaoRegiaoDetalhe&idPlanoAcaoRegiao=2][Chrome]
[14-07-15][17:18:25][179.184.37.5][179.184.37.5.static.gvt.net.br][eele][http://177.124.60.170:8087/painelDeControle.php?corpo=buscaPlanoAcaoRegiaoDetalhe&idPlanoAcaoRegiao=2][Chrome]
[14-07-15][17:18:25][179.184.37.5][179.184.37.5.static.gvt.net.br][eele][http://177.124.60.170:8087/painelDeControle.php?corpo=buscaPlanoAcaoRegiaoDetalhe&idPlanoAcaoRegiao=2][Chrome]
[14-07-15][17:18:30][179.184.37.5][179.184.37.5.static.gvt.net.br][eele][http://177.124.60.170:8087/painelDeControle.php?corpo=buscaPlanoAcaoRegiaoDetalhe&idPlanoAcaoRegiao=2][Chrome]
[14-07-15][17:18:30][179.184.37.5][179.184.37.5.static.gvt.net.br][eele][http://177.124.60.170:8087/painelDeControle.php?corpo=buscaPlanoAcaoRegiaoDetalhe&idPlanoAcaoRegiao=2][Chrome]
[14-07-15][17:20:15][179.184.37.5][179.184.37.5.static.gvt.net.br][eele][http://177.124.60.170:8087/painelDeControle.php?corpo=buscaPlanoAcaoRegiaoDetalhe&idPlanoAcaoRegiao=2][Chrome]
[14-07-15][17:20:15][179.184.37.5][179.184.37.5.static.gvt.net.br][eele][http://177.124.60.170:8087/painelDeControle.php?corpo=buscaPlanoAcaoRegiaoDetalhe&idPlanoAcaoRegiao=2][Chrome]
[14-07-15][17:20:15][179.184.37.5][179.184.37.5.static.gvt.net.br][eele][http://177.124.60.170:8087/painelDeControle.php?corpo=buscaPlanoAcaoRegiaoDetalhe&idPlanoAcaoRegiao=2][Chrome]
[14-07-15][17:20:15][179.184.37.5][179.184.37.5.static.gvt.net.br][eele][http://177.124.60.170:8087/painelDeControle.php?corpo=buscaPlanoAcaoRegiaoDetalhe&idPlanoAcaoRegiao=2][Chrome]
[14-07-15][17:20:29][179.184.37.5][179.184.37.5.static.gvt.net.br][eele][http://177.124.60.170:8087/painelDeControle.php?corpo=buscaPlanoAcaoRegiaoDetalhe&idPlanoAcaoRegiao=2][Chrome]
[14-07-15][17:20:29][179.184.37.5][179.184.37.5.static.gvt.net.br][eele][http://177.124.60.170:8087/painelDeControle.php?corpo=buscaPlanoAcaoRegiaoDetalhe&idPlanoAcaoRegiao=2][Chrome]
[14-07-15][17:20:30][179.184.37.5][179.184.37.5.static.gvt.net.br][eele][http://177.124.60.170:8087/painelDeControle.php?corpo=buscaPlanoAcaoRegiaoDetalhe&idPlanoAcaoRegiao=2][Chrome]
[14-07-15][17:20:30][179.184.37.5][179.184.37.5.static.gvt.net.br][eele][http://177.124.60.170:8087/painelDeControle.php?corpo=buscaPlanoAcaoRegiaoDetalhe&idPlanoAcaoRegiao=2][Chrome]
[14-07-15][17:20:41][179.184.37.5][179.184.37.5.static.gvt.net.br][eele][http://177.124.60.170:8087/painelDeControle.php?corpo=buscaPlanoAcaoRegiaoDetalhe&idPlanoAcaoRegiao=2][Chrome]
[14-07-15][17:20:41][179.184.37.5][179.184.37.5.static.gvt.net.br][eele][http://177.124.60.170:8087/painelDeControle.php?corpo=buscaPlanoAcaoRegiaoDetalhe&idPlanoAcaoRegiao=2][Chrome]
[14-07-15][17:20:41][179.184.37.5][179.184.37.5.static.gvt.net.br][eele][http://177.124.60.170:8087/painelDeControle.php?corpo=buscaPlanoAcaoRegiaoDetalhe&idPlanoAcaoRegiao=2][Chrome]
[14-07-15][17:20:41][179.184.37.5][179.184.37.5.static.gvt.net.br][eele][http://177.124.60.170:8087/painelDeControle.php?corpo=buscaPlanoAcaoRegiaoDetalhe&idPlanoAcaoRegiao=2][Chrome]
[14-07-15][17:21:19][179.184.37.5][179.184.37.5.static.gvt.net.br][eele][http://177.124.60.170:8087/painelDeControle.php?corpo=buscaPlanoAcaoRegiaoDetalhe&idPlanoAcaoRegiao=2][Chrome]
[14-07-15][17:21:19][179.184.37.5][179.184.37.5.static.gvt.net.br][eele][http://177.124.60.170:8087/painelDeControle.php?corpo=buscaPlanoAcaoRegiaoDetalhe&idPlanoAcaoRegiao=2][Chrome]
[14-07-15][17:21:20][179.184.37.5][179.184.37.5.static.gvt.net.br][eele][http://177.124.60.170:8087/painelDeControle.php?corpo=buscaPlanoAcaoRegiaoDetalhe&idPlanoAcaoRegiao=2][Chrome]
[14-07-15][17:21:20][179.184.37.5][179.184.37.5.static.gvt.net.br][eele][http://177.124.60.170:8087/painelDeControle.php?corpo=buscaPlanoAcaoRegiaoDetalhe&idPlanoAcaoRegiao=2][Chrome]
[14-07-15][17:22:11][179.184.37.5][179.184.37.5.static.gvt.net.br][eele][http://177.124.60.170:8087/painelDeControle.php?corpo=buscaPlanoAcaoRegiaoDetalhe&idPlanoAcaoRegiao=2][Chrome]
[14-07-15][17:22:11][179.184.37.5][179.184.37.5.static.gvt.net.br][eele][http://177.124.60.170:8087/painelDeControle.php?corpo=buscaPlanoAcaoRegiaoDetalhe&idPlanoAcaoRegiao=2][Chrome]
[14-07-15][17:22:11][179.184.37.5][179.184.37.5.static.gvt.net.br][eele][http://177.124.60.170:8087/painelDeControle.php?corpo=buscaPlanoAcaoRegiaoDetalhe&idPlanoAcaoRegiao=2][Chrome]
[14-07-15][17:22:11][179.184.37.5][179.184.37.5.static.gvt.net.br][eele][http://177.124.60.170:8087/painelDeControle.php?corpo=buscaPlanoAcaoRegiaoDetalhe&idPlanoAcaoRegiao=2][Chrome]
[14-07-15][17:22:26][179.184.37.5][179.184.37.5.static.gvt.net.br][eele][http://177.124.60.170:8087/painelDeControle.php?corpo=buscaPlanoAcaoRegiao][Chrome]
[14-07-15][17:22:26][179.184.37.5][179.184.37.5.static.gvt.net.br][eele][http://177.124.60.170:8087/painelDeControle.php?corpo=buscaPlanoAcaoRegiao][Chrome]
[14-07-15][17:25:08][179.184.37.5][179.184.37.5.static.gvt.net.br][][http://177.124.60.170:8087/index.php?][Chrome]
[14-07-15][17:25:28][179.184.37.5][179.184.37.5.static.gvt.net.br][][http://177.124.60.170:8087/index.php?][Chrome]
[14-07-15][17:25:31][179.184.37.5][179.184.37.5.static.gvt.net.br][lbas][http://177.124.60.170:8087/painelDeControle.php?][Chrome]
[14-07-15][17:25:31][179.184.37.5][179.184.37.5.static.gvt.net.br][lbas][http://177.124.60.170:8087/painelDeControle.php?][Chrome]
[14-07-15][17:26:10][179.184.37.5][179.184.37.5.static.gvt.net.br][lbas][http://177.124.60.170:8087/painelDeControle.php?corpo=buscaNotificacoes][Chrome]
[14-07-15][17:26:10][179.184.37.5][179.184.37.5.static.gvt.net.br][lbas][http://177.124.60.170:8087/painelDeControle.php?corpo=buscaNotificacoes][Chrome]
[14-07-15][17:26:24][179.184.37.5][179.184.37.5.static.gvt.net.br][lbas][http://177.124.60.170:8087/painelDeControle.php?corpo=detalheAtualizacoesServer&idNotificacao=1][Chrome]
[14-07-15][17:26:24][179.184.37.5][179.184.37.5.static.gvt.net.br][lbas][http://177.124.60.170:8087/painelDeControle.php?corpo=detalheAtualizacoesServer&idNotificacao=1][Chrome]
[14-07-15][17:27:50][179.184.37.5][179.184.37.5.static.gvt.net.br][lbas][http://177.124.60.170:8087/painelDeControle.php?][Chrome]
[14-07-15][17:27:50][179.184.37.5][179.184.37.5.static.gvt.net.br][lbas][http://177.124.60.170:8087/painelDeControle.php?][Chrome]
[14-07-15][21:05:04][191.177.247.145][bfb1f791.virtua.com.br][][http://177.124.60.170:8087/index.php?][Chrome]
