{
  "type": "service_account",
  "project_id": "soadesenvolvimento",
  "private_key_id": "e9d218f3cae941d7a46bd9d2151d8bef8848d6af",
  "private_key": "-----BEGIN PRIVATE KEY-----\nMIIEvQIBADANBgkqhkiG9w0BAQEFAASCBKcwggSjAgEAAoIBAQDDmuxK0U7WMUEQ\nbza+Ky5gD2ku4x+wLwW/ICWuCK1OvxsfxxsHGRXVlgoPbPxZqpbqRdCEHDGqEc72\nc9m12Y04lKqS1GzQQHKXfeViq1SRdfk+f30nXviZ/IXhFB9Ya1tmr7drYd1clASr\n5APHl9uecyX2Q/cKpH+TRrFN4vA/W3d51U5EcxSRY+/tZ3YhXsB5jBDdrhTm/a/E\nPr0E79o2z4+oSSR1HnNkP2BLi446svc7n3s1b8eYAS+A3xaqot5mQIFygd7KNbgR\n1owEvNsmkwQaOtuoW3cKDJoLfdkjGxgIM4Y5kw0nTngqeaApeLtVJOYXFV8qBwbf\ndourCz+rAgMBAAECggEAW0KeKQADoLJlMVY5+7qozd+SyvHjmG8v5q6IdeyNczZ9\nYLOj3AlrovV4Jx9Jk0ogVBgTg3emAjuBzIFbm1jvZu0RsiSSygyviheOXJ0j/SPG\nEE8p5KMOKMXk7pDVWQrpn3yu/lYwEZ/rmAjvbIFg0UnW9dFa4qfB78QlN/n/7gac\nn8vxRdnq8jQHuPtS6B7m0LR3dNRIJQw/38X6jmAKM/uEbcaC7O5Mb205B/ER6b/i\nHlOCMRziFJokghCyVUDv2WqFbph8a5+Hj/lQo4Ue0GuMPezEDTfJlNlEFwRY3EuE\nIxAxRzFqQgCif3fE53NHw5GmP8c2YBVOJwn0sEZbHQKBgQDz5VyR+GE12hvvS2cG\nnqzQJR17qNKGXqdaHxVcZiYTlhw0OPAWmYRTHcjIXNnJAUxdlS1nXtdrGXYRfuQ9\njWu3z+ckRPG74niVWCrLgd1pacMzOIUFnMhMpsk7vclsXPjWsh7Oa20fFNlvnngI\nTiymRBZlOvjjuUHKFGiDf53+xQKBgQDNUAn1i6LPrIB/A8ZSyhFMGWmJfsFIxUbm\njiJr3Z073NitlkwGYbflOgmHvApQfA0jN033jQrpVNv+fOkmTNK0pvLS4YiXt3Wk\nTSX4014VQ3mtzBR8nXdNw61jnh9kasVDWFBI+dvsE3Itqk7b/nFzbfQtgAxWvdqh\nm2kXxzMrrwKBgQCJ3Otfo4unehtyPygEaOr8WQ56WOpvg8+LNKjJawA48BAPQOQN\nkkdnCB33i+ybHz3AZFOe69BOvLytlRGE7YynAUEBkmsmLhTFLmo6ULUMIflx2Y/v\npTjfgyOavmO9+iu6iEK7oaOz/wANhQEKiM3aSgByxkvrxUs35CNTuW5glQKBgD/C\nG1Wlh2n2p/DJu0z6c2Suf5ezRVLT8LCocwgMSkfMzX0ar4FL10/YNh1wx8M2wt2s\nzwmRQ1IyiB7/q2e5c7WmIsJaR5DV6DKdwq0C9rSjv6W5OqN4QxRjL/U/pYAJqDjB\ntCz1atZlM4/604J+Ab1W5/05RpupWbvWB0zbD4kBAoGAbO9+Ln8jemmVAdKy36Eu\n4KnZJce1aXvGLEgOYpZQN4ybqcfV6veJt5Q/mRpm6PXcJni99HRxsal0orVqkDkS\nv8zDedn4EL+5vuoq/rFW4oZEM8rbVNrMgDQKcdMAuhyGBcN67hT051aR0rwltdEJ\nWqpzQGGvftOzEAzzcs18VJ4=\n-----END PRIVATE KEY-----\n",
  "client_email": "soadesenvolvimento@soadesenvolvimento.iam.gserviceaccount.com",
  "client_id": "100742219387151001181",
  "auth_uri": "https://accounts.google.com/o/oauth2/auth",
  "token_uri": "https://oauth2.googleapis.com/token",
  "auth_provider_x509_cert_url": "https://www.googleapis.com/oauth2/v1/certs",
  "client_x509_cert_url": "https://www.googleapis.com/robot/v1/metadata/x509/soadesenvolvimento%40soadesenvolvimento.iam.gserviceaccount.com"
}
